%!PS-Adobe-3.0 EPSF-3.0
%%Creator: MATLAB, The Mathworks, Inc. Version 7.3.0.267 (R2006b). Operating System: Microsoft Windows XP.
%%Title: C:\Backup data\!Work\Thesis\1D-code\result01.eps
%%CreationDate: 11/10/2006  16:00:34
%%DocumentNeededFonts: Helvetica
%%DocumentProcessColors: Cyan Magenta Yellow Black
%%LanguageLevel: 2
%%Pages: 1
%%BoundingBox:  -182   157   778   685
%%EndComments

%%BeginProlog
% MathWorks dictionary
/MathWorks 160 dict begin
% definition operators
/bdef {bind def} bind def
/ldef {load def} bind def
/xdef {exch def} bdef
/xstore {exch store} bdef
% operator abbreviations
/c  /clip ldef
/cc /concat ldef
/cp /closepath ldef
/gr /grestore ldef
/gs /gsave ldef
/mt /moveto ldef
/np /newpath ldef
/cm /currentmatrix ldef
/sm /setmatrix ldef
/rm /rmoveto ldef
/rl /rlineto ldef
/s {show newpath} bdef
/sc {setcmykcolor} bdef
/sr /setrgbcolor ldef
/sg /setgray ldef
/w /setlinewidth ldef
/j /setlinejoin ldef
/cap /setlinecap ldef
/rc {rectclip} bdef
/rf {rectfill} bdef
% page state control
/pgsv () def
/bpage {/pgsv save def} bdef
/epage {pgsv restore} bdef
/bplot /gsave ldef
/eplot {stroke grestore} bdef
% orientation switch
/portraitMode 0 def /landscapeMode 1 def /rotateMode 2 def
% coordinate system mappings
/dpi2point 0 def
% font control
/FontSize 0 def
/FMS {/FontSize xstore findfont [FontSize 0 0 FontSize neg 0 0]
  makefont setfont} bdef
/ISOLatin1Encoding where {pop /WindowsLatin1Encoding 256 array bdef
ISOLatin1Encoding WindowsLatin1Encoding copy pop
/.notdef/.notdef/quotesinglbase/florin/quotedblbase/ellipsis/dagger
/daggerdbl/circumflex/perthousand/Scaron/guilsinglleft/OE/.notdef/.notdef
/.notdef/.notdef/quoteleft/quoteright/quotedblleft/quotedblright/bullet
/endash/emdash/tilde/trademark/scaron/guilsinglright/oe/.notdef/.notdef
/Ydieresis WindowsLatin1Encoding 128 32 getinterval astore pop}
{/WindowsLatin1Encoding StandardEncoding bdef} ifelse
/reencode {exch dup where {pop load} {pop StandardEncoding} ifelse
  exch dup 3 1 roll findfont dup length dict begin
  { 1 index /FID ne {def}{pop pop} ifelse } forall
  /Encoding exch def currentdict end definefont pop} bdef
/isroman {findfont /CharStrings get /Agrave known} bdef
/FMSR {3 1 roll 1 index dup isroman {reencode} {pop pop} ifelse
  exch FMS} bdef
/csm {1 dpi2point div -1 dpi2point div scale neg translate
 dup landscapeMode eq {pop -90 rotate}
  {rotateMode eq {90 rotate} if} ifelse} bdef
% line types: solid, dotted, dashed, dotdash
/SO { [] 0 setdash } bdef
/DO { [.5 dpi2point mul 4 dpi2point mul] 0 setdash } bdef
/DA { [6 dpi2point mul] 0 setdash } bdef
/DD { [.5 dpi2point mul 4 dpi2point mul 6 dpi2point mul 4
  dpi2point mul] 0 setdash } bdef
% macros for lines and objects
/L {lineto stroke} bdef
/MP {3 1 roll moveto 1 sub {rlineto} repeat} bdef
/AP {{rlineto} repeat} bdef
/PDlw -1 def
/W {/PDlw currentlinewidth def setlinewidth} def
/PP {closepath eofill} bdef
/DP {closepath stroke} bdef
/MR {4 -2 roll moveto dup  0 exch rlineto exch 0 rlineto
  neg 0 exch rlineto closepath} bdef
/FR {MR stroke} bdef
/PR {MR fill} bdef
/L1i {{currentfile picstr readhexstring pop} image} bdef
/tMatrix matrix def
/MakeOval {newpath tMatrix currentmatrix pop translate scale
0 0 1 0 360 arc tMatrix setmatrix} bdef
/FO {MakeOval stroke} bdef
/PO {MakeOval fill} bdef
/PD {currentlinewidth 2 div 0 360 arc fill
   PDlw -1 eq not {PDlw w /PDlw -1 def} if} def
/FA {newpath tMatrix currentmatrix pop translate scale
  0 0 1 5 -2 roll arc tMatrix setmatrix stroke} bdef
/PA {newpath tMatrix currentmatrix pop	translate 0 0 moveto scale
  0 0 1 5 -2 roll arc closepath tMatrix setmatrix fill} bdef
/FAn {newpath tMatrix currentmatrix pop translate scale
  0 0 1 5 -2 roll arcn tMatrix setmatrix stroke} bdef
/PAn {newpath tMatrix currentmatrix pop translate 0 0 moveto scale
  0 0 1 5 -2 roll arcn closepath tMatrix setmatrix fill} bdef
/vradius 0 def /hradius 0 def /lry 0 def
/lrx 0 def /uly 0 def /ulx 0 def /rad 0 def
/MRR {/vradius xdef /hradius xdef /lry xdef /lrx xdef /uly xdef
  /ulx xdef newpath tMatrix currentmatrix pop ulx hradius add uly
  vradius add translate hradius vradius scale 0 0 1 180 270 arc 
  tMatrix setmatrix lrx hradius sub uly vradius add translate
  hradius vradius scale 0 0 1 270 360 arc tMatrix setmatrix
  lrx hradius sub lry vradius sub translate hradius vradius scale
  0 0 1 0 90 arc tMatrix setmatrix ulx hradius add lry vradius sub
  translate hradius vradius scale 0 0 1 90 180 arc tMatrix setmatrix
  closepath} bdef
/FRR {MRR stroke } bdef
/PRR {MRR fill } bdef
/MlrRR {/lry xdef /lrx xdef /uly xdef /ulx xdef /rad lry uly sub 2 div def
  newpath tMatrix currentmatrix pop ulx rad add uly rad add translate
  rad rad scale 0 0 1 90 270 arc tMatrix setmatrix lrx rad sub lry rad
  sub translate rad rad scale 0 0 1 270 90 arc tMatrix setmatrix
  closepath} bdef
/FlrRR {MlrRR stroke } bdef
/PlrRR {MlrRR fill } bdef
/MtbRR {/lry xdef /lrx xdef /uly xdef /ulx xdef /rad lrx ulx sub 2 div def
  newpath tMatrix currentmatrix pop ulx rad add uly rad add translate
  rad rad scale 0 0 1 180 360 arc tMatrix setmatrix lrx rad sub lry rad
  sub translate rad rad scale 0 0 1 0 180 arc tMatrix setmatrix
  closepath} bdef
/FtbRR {MtbRR stroke } bdef
/PtbRR {MtbRR fill } bdef
/stri 6 array def /dtri 6 array def
/smat 6 array def /dmat 6 array def
/tmat1 6 array def /tmat2 6 array def /dif 3 array def
/asub {/ind2 exch def /ind1 exch def dup dup
  ind1 get exch ind2 get sub exch } bdef
/tri_to_matrix {
  2 0 asub 3 1 asub 4 0 asub 5 1 asub
  dup 0 get exch 1 get 7 -1 roll astore } bdef
/compute_transform {
  dmat dtri tri_to_matrix tmat1 invertmatrix 
  smat stri tri_to_matrix tmat2 concatmatrix } bdef
/ds {stri astore pop} bdef
/dt {dtri astore pop} bdef
/db {2 copy /cols xdef /rows xdef mul dup 3 mul string
  currentfile 
  3 index 0 eq {/ASCIIHexDecode filter}
  {/ASCII85Decode filter 3 index 2 eq {/RunLengthDecode filter} if }
  ifelse exch readstring pop
  dup 0 3 index getinterval /rbmap xdef
  dup 2 index dup getinterval /gbmap xdef
  1 index dup 2 mul exch getinterval /bbmap xdef pop pop}bdef
/it {gs np dtri aload pop moveto lineto lineto cp c
  cols rows 8 compute_transform 
  rbmap gbmap bbmap true 3 colorimage gr}bdef
/il {newpath moveto lineto stroke}bdef
currentdict end def
%%EndProlog

%%BeginSetup
MathWorks begin

0 cap

end
%%EndSetup

%%Page: 1 1
%%BeginPageSetup
%%PageBoundingBox:  -182   157   778   685
MathWorks begin
bpage
%%EndPageSetup

%%BeginObject: obj1
bplot

/dpi2point 12 def
portraitMode -2184 8220 csm

    0     0 11529  6330 rc
85 dict begin %Colortable dictionary
/c0 { 0.000000 0.000000 0.000000 sr} bdef
/c1 { 1.000000 1.000000 1.000000 sr} bdef
/c2 { 0.900000 0.000000 0.000000 sr} bdef
/c3 { 0.000000 0.820000 0.000000 sr} bdef
/c4 { 0.000000 0.000000 0.800000 sr} bdef
/c5 { 0.910000 0.820000 0.320000 sr} bdef
/c6 { 1.000000 0.260000 0.820000 sr} bdef
/c7 { 0.000000 0.820000 0.820000 sr} bdef
c0
1 j
1 sg
   0    0 11530 6331 rf
6 w
0 5159 8308 0 0 -5159 1500 5634 4 MP
PP
-8308 0 0 5159 8308 0 0 -5159 1500 5634 5 MP stroke
gs 1500 475 8309 5160 rc
/c8 { 0.000000 0.625000 1.000000 sr} bdef
c8
7370 5634 mt 7370 5376 L
7370 5376 mt 7370 5118 L
7370 5118 mt 7370 4860 L
7370 4860 mt 7370 4602 L
7370 4602 mt 7370 4344 L
7370 4344 mt 7370 4086 L
7370 4086 mt 7370 3828 L
7370 3828 mt 7370 3570 L
7370 3570 mt 7370 3312 L
7370 3312 mt 7370 3054 L
7370 3054 mt 7370 2796 L
7370 2796 mt 7370 2538 L
7370 2538 mt 7370 2280 L
7370 2280 mt 7370 2022 L
7370 2022 mt 7370 1764 L
7370 1764 mt 7370 1506 L
7370 1506 mt 7370 1248 L
7370 1248 mt 7370  990 L
7370  990 mt 7370  732 L
7370  732 mt 7370  475 L
7370  475 mt 7370  217 L
7370  217 mt 7370  -40 L
7370  -40 mt 7370 -298 L
7370 -298 mt 7370 -556 L
7370 -556 mt 7370 -814 L
7370 -814 mt 7370 -1072 L
7370 -1072 mt 7370 -1330 L
7370 -1330 mt 7370 -1588 L
7370 -1588 mt 7370 -1846 L
7370 -1846 mt 7370 -2104 L
7370 -2104 mt 7370 -2362 L
7370 -2362 mt 7370 -2620 L
7370 -2620 mt 7370 -2878 L
7370 -2878 mt 7370 -3136 L
7370 -3136 mt 7370 -3394 L
7370 -3394 mt 7370 -3652 L
7370 -3652 mt 7370 -3910 L
7370 -3910 mt 7370 -4168 L
7370 -4168 mt 7370 -4426 L
7370 -4426 mt 7371 -4683 L
/c9 { 0.000000 1.000000 1.000000 sr} bdef
c9
7052 5634 mt 7052 5376 L
7052 5376 mt 7052 5118 L
7052 5118 mt 7052 4860 L
7052 4860 mt 7052 4602 L
7052 4602 mt 7052 4344 L
7052 4344 mt 7052 4086 L
7052 4086 mt 7052 3828 L
7052 3828 mt 7052 3570 L
7052 3570 mt 7052 3312 L
7052 3312 mt 7052 3054 L
7052 3054 mt 7052 2796 L
7052 2796 mt 7052 2538 L
7052 2538 mt 7052 2280 L
7052 2280 mt 7052 2022 L
7052 2022 mt 7052 1764 L
7052 1764 mt 7052 1506 L
7052 1506 mt 7052 1248 L
7052 1248 mt 7052  990 L
7052  990 mt 7052  732 L
7052  732 mt 7052  475 L
7052  475 mt 7052  217 L
7052  217 mt 7052  -40 L
7052  -40 mt 7052 -298 L
7052 -298 mt 7052 -556 L
7052 -556 mt 7052 -814 L
7052 -814 mt 7052 -1072 L
7052 -1072 mt 7052 -1330 L
7052 -1330 mt 7052 -1588 L
7052 -1588 mt 7052 -1846 L
7052 -1846 mt 7052 -2104 L
7052 -2104 mt 7052 -2362 L
7052 -2362 mt 7052 -2620 L
7052 -2620 mt 7052 -2878 L
7052 -2878 mt 7052 -3136 L
7052 -3136 mt 7052 -3394 L
7052 -3394 mt 7052 -3652 L
7052 -3652 mt 7052 -3910 L
7052 -3910 mt 7052 -4168 L
7052 -4168 mt 7052 -4426 L
7052 -4426 mt 7052 -4683 L
/c10 { 0.312500 1.000000 0.687500 sr} bdef
c10
6703 5634 mt 6703 5376 L
6703 5376 mt 6703 5118 L
6703 5118 mt 6703 4860 L
6703 4860 mt 6703 4602 L
6703 4602 mt 6703 4344 L
6703 4344 mt 6703 4086 L
6703 4086 mt 6703 3828 L
6703 3828 mt 6703 3570 L
6703 3570 mt 6703 3312 L
6703 3312 mt 6703 3054 L
6703 3054 mt 6703 2796 L
6703 2796 mt 6703 2538 L
6703 2538 mt 6703 2280 L
6703 2280 mt 6703 2022 L
6703 2022 mt 6703 1764 L
6703 1764 mt 6703 1506 L
6703 1506 mt 6703 1248 L
6703 1248 mt 6703  990 L
6703  990 mt 6703  732 L
6703  732 mt 6703  475 L
6703  475 mt 6703  217 L
6703  217 mt 6703  -40 L
6703  -40 mt 6703 -298 L
6703 -298 mt 6703 -556 L
6703 -556 mt 6703 -814 L
6703 -814 mt 6703 -1072 L
6703 -1072 mt 6703 -1330 L
6703 -1330 mt 6703 -1588 L
6703 -1588 mt 6703 -1846 L
6703 -1846 mt 6703 -2104 L
6703 -2104 mt 6703 -2362 L
6703 -2362 mt 6703 -2620 L
6703 -2620 mt 6703 -2878 L
6703 -2878 mt 6703 -3136 L
6703 -3136 mt 6703 -3394 L
6703 -3394 mt 6703 -3652 L
6703 -3652 mt 6703 -3910 L
6703 -3910 mt 6703 -4168 L
6703 -4168 mt 6703 -4426 L
6703 -4426 mt 6703 -4683 L
/c11 { 0.625000 1.000000 0.375000 sr} bdef
c11
6336 5634 mt 6336 5376 L
6336 5376 mt 6336 5118 L
6336 5118 mt 6336 4860 L
6336 4860 mt 6336 4602 L
6336 4602 mt 6336 4344 L
6336 4344 mt 6336 4086 L
6336 4086 mt 6336 3828 L
6336 3828 mt 6336 3570 L
6336 3570 mt 6336 3312 L
6336 3312 mt 6336 3054 L
6336 3054 mt 6336 2796 L
6336 2796 mt 6336 2538 L
6336 2538 mt 6336 2280 L
6336 2280 mt 6336 2022 L
6336 2022 mt 6336 1764 L
6336 1764 mt 6336 1506 L
6336 1506 mt 6336 1248 L
6336 1248 mt 6336  990 L
6336  990 mt 6336  732 L
6336  732 mt 6336  475 L
6336  475 mt 6336  217 L
6336  217 mt 6336  -40 L
6336  -40 mt 6336 -298 L
6336 -298 mt 6336 -556 L
6336 -556 mt 6336 -814 L
6336 -814 mt 6336 -1072 L
6336 -1072 mt 6336 -1330 L
6336 -1330 mt 6336 -1588 L
6336 -1588 mt 6336 -1846 L
6336 -1846 mt 6336 -2104 L
6336 -2104 mt 6336 -2362 L
6336 -2362 mt 6336 -2620 L
6336 -2620 mt 6336 -2878 L
6336 -2878 mt 6336 -3136 L
6336 -3136 mt 6336 -3394 L
6336 -3394 mt 6336 -3652 L
6336 -3652 mt 6336 -3910 L
6336 -3910 mt 6336 -4168 L
6336 -4168 mt 6336 -4426 L
6336 -4426 mt 6336 -4683 L
/c12 { 0.937500 1.000000 0.062500 sr} bdef
c12
5956 5634 mt 5956 5376 L
5956 5376 mt 5956 5118 L
5956 5118 mt 5956 4860 L
5956 4860 mt 5956 4602 L
5956 4602 mt 5956 4344 L
5956 4344 mt 5956 4086 L
5956 4086 mt 5956 3828 L
5956 3828 mt 5956 3570 L
5956 3570 mt 5956 3312 L
5956 3312 mt 5956 3054 L
5956 3054 mt 5956 2796 L
5956 2796 mt 5956 2538 L
5956 2538 mt 5956 2280 L
5956 2280 mt 5956 2022 L
5956 2022 mt 5956 1764 L
5956 1764 mt 5956 1506 L
5956 1506 mt 5956 1248 L
5956 1248 mt 5956  990 L
5956  990 mt 5956  732 L
5956  732 mt 5956  475 L
5956  475 mt 5956  217 L
5956  217 mt 5956  -40 L
5956  -40 mt 5956 -298 L
5956 -298 mt 5956 -556 L
5956 -556 mt 5956 -814 L
5956 -814 mt 5956 -1072 L
5956 -1072 mt 5956 -1330 L
5956 -1330 mt 5956 -1588 L
5956 -1588 mt 5956 -1846 L
5956 -1846 mt 5956 -2104 L
5956 -2104 mt 5956 -2362 L
5956 -2362 mt 5956 -2620 L
5956 -2620 mt 5956 -2878 L
5956 -2878 mt 5956 -3136 L
5956 -3136 mt 5956 -3394 L
5956 -3394 mt 5956 -3652 L
5956 -3652 mt 5956 -3910 L
5956 -3910 mt 5956 -4168 L
5956 -4168 mt 5956 -4426 L
5956 -4426 mt 5956 -4683 L
/c13 { 1.000000 0.750000 0.000000 sr} bdef
c13
5565 5634 mt 5565 5376 L
5565 5376 mt 5565 5118 L
5565 5118 mt 5565 4860 L
5565 4860 mt 5565 4602 L
5565 4602 mt 5565 4344 L
5565 4344 mt 5565 4086 L
5565 4086 mt 5565 3828 L
5565 3828 mt 5565 3570 L
5565 3570 mt 5565 3312 L
5565 3312 mt 5565 3054 L
5565 3054 mt 5565 2796 L
5565 2796 mt 5565 2538 L
5565 2538 mt 5565 2280 L
5565 2280 mt 5565 2022 L
5565 2022 mt 5565 1764 L
5565 1764 mt 5565 1506 L
5565 1506 mt 5565 1248 L
5565 1248 mt 5565  990 L
5565  990 mt 5565  732 L
5565  732 mt 5565  475 L
5565  475 mt 5565  217 L
5565  217 mt 5565  -40 L
5565  -40 mt 5565 -298 L
5565 -298 mt 5565 -556 L
5565 -556 mt 5565 -814 L
5565 -814 mt 5565 -1072 L
5565 -1072 mt 5565 -1330 L
5565 -1330 mt 5565 -1588 L
5565 -1588 mt 5565 -1846 L
5565 -1846 mt 5565 -2104 L
5565 -2104 mt 5565 -2362 L
5565 -2362 mt 5565 -2620 L
5565 -2620 mt 5565 -2878 L
5565 -2878 mt 5565 -3136 L
5565 -3136 mt 5565 -3394 L
5565 -3394 mt 5565 -3652 L
5565 -3652 mt 5565 -3910 L
5565 -3910 mt 5565 -4168 L
5565 -4168 mt 5565 -4426 L
5565 -4426 mt 5565 -4683 L
/c14 { 1.000000 0.437500 0.000000 sr} bdef
c14
5149 5634 mt 5149 5376 L
5149 5376 mt 5149 5118 L
5149 5118 mt 5149 4860 L
5149 4860 mt 5149 4602 L
5149 4602 mt 5149 4344 L
5149 4344 mt 5149 4086 L
5149 4086 mt 5149 3828 L
5149 3828 mt 5149 3570 L
5149 3570 mt 5149 3312 L
5149 3312 mt 5149 3054 L
5149 3054 mt 5149 2796 L
5149 2796 mt 5149 2538 L
5149 2538 mt 5149 2280 L
5149 2280 mt 5149 2022 L
5149 2022 mt 5149 1764 L
5149 1764 mt 5149 1506 L
5149 1506 mt 5149 1248 L
5149 1248 mt 5149  990 L
5149  990 mt 5149  732 L
5149  732 mt 5149  475 L
5149  475 mt 5149  217 L
5149  217 mt 5149  -40 L
5149  -40 mt 5149 -298 L
5149 -298 mt 5149 -556 L
5149 -556 mt 5149 -814 L
5149 -814 mt 5149 -1072 L
5149 -1072 mt 5149 -1330 L
5149 -1330 mt 5149 -1588 L
5149 -1588 mt 5149 -1846 L
5149 -1846 mt 5149 -2104 L
5149 -2104 mt 5149 -2362 L
5149 -2362 mt 5149 -2620 L
5149 -2620 mt 5149 -2878 L
5149 -2878 mt 5149 -3136 L
5149 -3136 mt 5149 -3394 L
5149 -3394 mt 5149 -3652 L
5149 -3652 mt 5149 -3910 L
5149 -3910 mt 5149 -4168 L
5149 -4168 mt 5149 -4426 L
5149 -4426 mt 5149 -4683 L
/c15 { 1.000000 0.125000 0.000000 sr} bdef
c15
4706 5634 mt 4706 5376 L
4706 5376 mt 4705 5118 L
4705 5118 mt 4705 4860 L
4705 4860 mt 4705 4602 L
4705 4602 mt 4705 4344 L
4705 4344 mt 4705 4086 L
4705 4086 mt 4705 3828 L
4705 3828 mt 4705 3570 L
4705 3570 mt 4705 3312 L
4705 3312 mt 4706 3054 L
4706 3054 mt 4705 2796 L
4705 2796 mt 4706 2538 L
4706 2538 mt 4705 2280 L
4705 2280 mt 4706 2022 L
4706 2022 mt 4705 1764 L
4705 1764 mt 4706 1506 L
4706 1506 mt 4705 1248 L
4705 1248 mt 4706  990 L
4706  990 mt 4705  732 L
4705  732 mt 4706  475 L
4706  475 mt 4705  217 L
4705  217 mt 4705  -40 L
4705  -40 mt 4705 -298 L
4705 -298 mt 4705 -556 L
4705 -556 mt 4705 -814 L
4705 -814 mt 4705 -1072 L
4705 -1072 mt 4705 -1330 L
4705 -1330 mt 4705 -1588 L
4705 -1588 mt 4706 -1846 L
4706 -1846 mt 4706 -2104 L
4706 -2104 mt 4706 -2362 L
4706 -2362 mt 4706 -2620 L
4706 -2620 mt 4706 -2878 L
4706 -2878 mt 4706 -3136 L
4706 -3136 mt 4706 -3394 L
4706 -3394 mt 4706 -3652 L
4706 -3652 mt 4706 -3910 L
4706 -3910 mt 4706 -4168 L
4706 -4168 mt 4706 -4426 L
4706 -4426 mt 4706 -4683 L
/c16 { 0.812500 0.000000 0.000000 sr} bdef
c16
4248 5634 mt 4248 5376 L
4248 5376 mt 4248 5118 L
4248 5118 mt 4248 4860 L
4248 4860 mt 4248 4602 L
4248 4602 mt 4248 4344 L
4248 4344 mt 4248 4086 L
4248 4086 mt 4248 3828 L
4248 3828 mt 4248 3570 L
4248 3570 mt 4248 3312 L
4248 3312 mt 4248 3054 L
4248 3054 mt 4248 2796 L
4248 2796 mt 4249 2538 L
4249 2538 mt 4248 2280 L
4248 2280 mt 4249 2022 L
4249 2022 mt 4248 1764 L
4248 1764 mt 4249 1506 L
4249 1506 mt 4248 1248 L
4248 1248 mt 4249  990 L
4249  990 mt 4248  732 L
4248  732 mt 4248  475 L
4248  475 mt 4248  217 L
4248  217 mt 4248  -40 L
4248  -40 mt 4248 -298 L
4248 -298 mt 4248 -556 L
4248 -556 mt 4248 -814 L
4248 -814 mt 4248 -1072 L
4248 -1072 mt 4248 -1330 L
4248 -1330 mt 4248 -1588 L
4248 -1588 mt 4248 -1846 L
4248 -1846 mt 4248 -2104 L
4248 -2104 mt 4248 -2362 L
4248 -2362 mt 4248 -2620 L
4248 -2620 mt 4248 -2878 L
4248 -2878 mt 4248 -3136 L
4248 -3136 mt 4248 -3394 L
4248 -3394 mt 4248 -3652 L
4248 -3652 mt 4248 -3910 L
4248 -3910 mt 4248 -4168 L
4248 -4168 mt 4248 -4426 L
4248 -4426 mt 4248 -4683 L
gr

c16
0 sg
%%IncludeResource: font Helvetica
/Helvetica /WindowsLatin1Encoding 120 FMSR

1483 5677 mt 
( ) s
9792  517 mt 
( ) s
gs 1500 475 8309 5160 rc
/c17 { 0.000000 0.000000 1.000000 sr} bdef
c17
3802 5634 PD
8 -2 -4 -1 7497 5635 3 MP stroke
7620 5634 PD
7723 5634 PD
7826 5634 PD
7929 5634 PD
3802 5376 PD
-15 -58 -14 58 3921 5494 3 MP stroke
-17 -63 -15 63 4026 5503 3 MP stroke
-15 -62 -16 62 4128 5501 3 MP stroke
-15 -61 -15 61 4230 5499 3 MP stroke
-16 -60 -14 60 4335 5497 3 MP stroke
-17 -58 -13 59 4440 5495 3 MP stroke
-15 -59 -14 59 4540 5494 3 MP stroke
-15 -57 -14 58 4644 5493 3 MP stroke
-16 -57 -12 58 4748 5492 3 MP stroke
-15 -57 -13 57 4850 5491 3 MP stroke
-15 -55 -13 56 4953 5489 3 MP stroke
-15 -56 -13 56 5055 5488 3 MP stroke
-14 -55 -14 55 5157 5487 3 MP stroke
-14 -54 -13 55 5261 5485 3 MP stroke
-13 -54 -14 54 5362 5484 3 MP stroke
-12 -54 -14 53 5463 5483 3 MP stroke
-12 -52 -13 52 5568 5481 3 MP stroke
-10 -52 -15 51 5666 5479 3 MP stroke
-6 -51 -18 48 5763 5477 3 MP stroke
-4 -50 -20 46 5862 5475 3 MP stroke
3 -51 -26 43 5950 5474 3 MP stroke
10 -50 -32 40 6040 5472 3 MP stroke
15 -50 -37 37 6132 5470 3 MP stroke
22 -50 -42 34 6223 5468 3 MP stroke
26 -48 -46 31 6319 5465 3 MP stroke
31 -48 -50 28 6413 5463 3 MP stroke
37 -48 -56 24 6502 5461 3 MP stroke
45 -48 -62 21 6591 5458 3 MP stroke
50 -46 -66 17 6684 5455 3 MP stroke
55 -45 -70 14 6777 5451 3 MP stroke
61 -44 -75 10 6870 5447 3 MP stroke
69 -44 -81 6 6957 5444 3 MP stroke
72 -41 -83 2 7055 5438 3 MP stroke
62 -40 -74 6 7178 5438 3 MP stroke
34 -26 -42 7 7340 5419 3 MP stroke
8 -2 -8 -1 7501 5377 3 MP stroke
7620 5376 PD
7723 5376 PD
7826 5376 PD
7929 5376 PD
3802 5118 PD
-15 -58 -14 58 3921 5236 3 MP stroke
-17 -63 -15 63 4026 5245 3 MP stroke
-15 -62 -16 62 4128 5243 3 MP stroke
-15 -61 -15 61 4230 5241 3 MP stroke
-16 -60 -14 60 4335 5239 3 MP stroke
-17 -58 -13 59 4440 5237 3 MP stroke
-15 -59 -14 59 4540 5236 3 MP stroke
-15 -57 -14 58 4644 5235 3 MP stroke
-16 -57 -12 58 4748 5234 3 MP stroke
-15 -57 -13 57 4850 5233 3 MP stroke
-15 -55 -13 56 4953 5231 3 MP stroke
-15 -56 -13 56 5055 5230 3 MP stroke
-14 -55 -14 55 5157 5229 3 MP stroke
-14 -54 -13 54 5261 5228 3 MP stroke
-13 -54 -14 54 5362 5226 3 MP stroke
-12 -53 -14 53 5463 5225 3 MP stroke
-13 -52 -13 52 5568 5223 3 MP stroke
-10 -52 -15 51 5666 5221 3 MP stroke
-7 -50 -18 48 5763 5219 3 MP stroke
-4 -50 -20 46 5862 5217 3 MP stroke
3 -51 -26 43 5950 5216 3 MP stroke
10 -50 -32 40 6040 5214 3 MP stroke
15 -50 -37 37 6132 5212 3 MP stroke
22 -50 -42 34 6223 5210 3 MP stroke
26 -48 -46 30 6319 5208 3 MP stroke
31 -48 -50 28 6413 5205 3 MP stroke
38 -48 -56 24 6501 5203 3 MP stroke
45 -48 -62 21 6591 5200 3 MP stroke
50 -46 -66 17 6684 5197 3 MP stroke
55 -45 -70 14 6777 5193 3 MP stroke
61 -44 -75 10 6870 5189 3 MP stroke
69 -43 -81 6 6957 5186 3 MP stroke
72 -41 -83 2 7055 5180 3 MP stroke
62 -40 -74 6 7178 5180 3 MP stroke
34 -26 -42 7 7340 5161 3 MP stroke
8 -2 -8 -2 7501 5120 3 MP stroke
7620 5118 PD
7723 5118 PD
7826 5118 PD
7929 5118 PD
3802 4860 PD
-15 -58 -14 58 3921 4978 3 MP stroke
-17 -63 -15 63 4026 4987 3 MP stroke
-15 -62 -16 62 4128 4985 3 MP stroke
-15 -61 -15 61 4230 4983 3 MP stroke
-16 -60 -14 60 4335 4981 3 MP stroke
-17 -58 -13 59 4440 4979 3 MP stroke
-15 -59 -14 59 4540 4978 3 MP stroke
-15 -57 -14 58 4644 4977 3 MP stroke
-16 -57 -12 58 4748 4976 3 MP stroke
-15 -56 -13 57 4850 4975 3 MP stroke
-15 -56 -13 57 4953 4973 3 MP stroke
-14 -56 -14 56 5055 4972 3 MP stroke
-14 -55 -14 55 5157 4971 3 MP stroke
-14 -54 -13 54 5261 4970 3 MP stroke
-13 -54 -14 53 5362 4969 3 MP stroke
-12 -53 -14 53 5463 4967 3 MP stroke
-13 -52 -13 52 5568 4965 3 MP stroke
-10 -52 -15 50 5666 4964 3 MP stroke
-7 -50 -18 48 5763 4961 3 MP stroke
-4 -50 -20 46 5862 4959 3 MP stroke
3 -51 -26 43 5950 4958 3 MP stroke
10 -50 -32 40 6040 4956 3 MP stroke
16 -50 -38 37 6132 4954 3 MP stroke
22 -50 -42 34 6223 4952 3 MP stroke
26 -48 -46 30 6319 4950 3 MP stroke
31 -48 -50 28 6413 4947 3 MP stroke
38 -48 -56 24 6501 4945 3 MP stroke
45 -48 -62 21 6591 4942 3 MP stroke
50 -46 -66 17 6684 4939 3 MP stroke
55 -45 -70 14 6777 4935 3 MP stroke
61 -44 -75 10 6870 4931 3 MP stroke
69 -43 -81 6 6957 4928 3 MP stroke
72 -41 -83 2 7055 4922 3 MP stroke
62 -40 -74 6 7178 4922 3 MP stroke
34 -26 -42 7 7340 4903 3 MP stroke
8 -2 -8 -2 7501 4862 3 MP stroke
7620 4860 PD
7723 4860 PD
7826 4860 PD
7929 4860 PD
3802 4602 PD
-15 -59 -14 59 3921 4720 3 MP stroke
-17 -63 -15 63 4026 4729 3 MP stroke
-15 -62 -16 62 4128 4727 3 MP stroke
-15 -60 -15 61 4230 4725 3 MP stroke
-16 -59 -14 60 4335 4723 3 MP stroke
-17 -59 -13 60 4440 4721 3 MP stroke
-15 -59 -14 59 4540 4720 3 MP stroke
-15 -57 -14 58 4644 4719 3 MP stroke
-16 -58 -12 59 4748 4718 3 MP stroke
-15 -56 -13 57 4850 4717 3 MP stroke
-15 -56 -13 57 4953 4715 3 MP stroke
-14 -55 -14 56 5055 4714 3 MP stroke
-14 -55 -14 55 5157 4713 3 MP stroke
-14 -54 -13 54 5261 4712 3 MP stroke
-13 -54 -14 53 5362 4711 3 MP stroke
-12 -53 -14 53 5463 4709 3 MP stroke
-13 -52 -13 52 5568 4707 3 MP stroke
-10 -52 -15 50 5666 4706 3 MP stroke
-7 -50 -18 48 5763 4703 3 MP stroke
-4 -50 -20 46 5862 4701 3 MP stroke
3 -51 -26 43 5950 4700 3 MP stroke
10 -50 -32 40 6040 4698 3 MP stroke
16 -50 -38 37 6132 4696 3 MP stroke
22 -50 -42 34 6223 4694 3 MP stroke
26 -49 -46 31 6319 4692 3 MP stroke
31 -48 -50 28 6413 4689 3 MP stroke
38 -48 -56 24 6501 4687 3 MP stroke
45 -48 -62 21 6591 4684 3 MP stroke
50 -46 -66 17 6684 4681 3 MP stroke
55 -45 -70 14 6777 4677 3 MP stroke
61 -43 -75 10 6870 4673 3 MP stroke
69 -43 -81 6 6957 4670 3 MP stroke
72 -41 -83 2 7055 4664 3 MP stroke
62 -40 -74 6 7178 4664 3 MP stroke
34 -26 -42 7 7340 4645 3 MP stroke
8 -2 -8 -2 7501 4604 3 MP stroke
7620 4602 PD
7723 4602 PD
7826 4602 PD
7929 4602 PD
3802 4344 PD
-15 -59 -14 59 3921 4462 3 MP stroke
-17 -63 -15 63 4026 4471 3 MP stroke
-15 -62 -16 62 4128 4469 3 MP stroke
-15 -61 -15 61 4230 4468 3 MP stroke
-16 -59 -14 60 4335 4465 3 MP stroke
-17 -59 -13 60 4440 4463 3 MP stroke
-15 -58 -14 59 4540 4462 3 MP stroke
-15 -57 -14 58 4644 4461 3 MP stroke
-16 -58 -12 59 4748 4460 3 MP stroke
-15 -56 -13 57 4850 4459 3 MP stroke
-15 -56 -13 57 4953 4457 3 MP stroke
-14 -55 -14 56 5055 4456 3 MP stroke
-14 -55 -14 55 5157 4455 3 MP stroke
-14 -54 -13 54 5261 4454 3 MP stroke
-13 -54 -14 53 5362 4453 3 MP stroke
-12 -53 -15 53 5464 4451 3 MP stroke
-13 -52 -13 52 5568 4449 3 MP stroke
-10 -52 -15 50 5666 4448 3 MP stroke
-7 -51 -18 48 5763 4446 3 MP stroke
-4 -50 -20 46 5862 4443 3 MP stroke
3 -51 -26 43 5950 4442 3 MP stroke
10 -50 -32 40 6040 4440 3 MP stroke
15 -50 -37 37 6132 4438 3 MP stroke
22 -50 -42 34 6223 4436 3 MP stroke
26 -49 -46 31 6319 4434 3 MP stroke
31 -48 -50 28 6413 4431 3 MP stroke
38 -48 -56 24 6501 4429 3 MP stroke
45 -48 -62 21 6591 4426 3 MP stroke
50 -46 -66 17 6684 4423 3 MP stroke
55 -45 -70 14 6777 4419 3 MP stroke
61 -43 -75 10 6870 4415 3 MP stroke
69 -43 -81 6 6957 4412 3 MP stroke
72 -41 -83 2 7055 4406 3 MP stroke
62 -40 -74 6 7178 4406 3 MP stroke
34 -26 -42 7 7340 4387 3 MP stroke
8 -2 -8 -2 7501 4346 3 MP stroke
7620 4344 PD
7723 4344 PD
7826 4344 PD
7929 4344 PD
3802 4086 PD
-15 -59 -14 59 3921 4204 3 MP stroke
-17 -63 -15 63 4026 4213 3 MP stroke
-15 -62 -16 62 4128 4211 3 MP stroke
-15 -61 -15 61 4230 4210 3 MP stroke
-16 -59 -14 60 4335 4207 3 MP stroke
-17 -59 -13 60 4440 4205 3 MP stroke
-15 -58 -14 59 4540 4204 3 MP stroke
-15 -57 -14 58 4644 4203 3 MP stroke
-16 -58 -12 58 4748 4203 3 MP stroke
-15 -56 -13 57 4850 4201 3 MP stroke
-15 -56 -13 57 4953 4199 3 MP stroke
-14 -55 -14 56 5055 4198 3 MP stroke
-14 -55 -14 55 5157 4197 3 MP stroke
-14 -54 -13 54 5261 4196 3 MP stroke
-13 -54 -14 53 5362 4195 3 MP stroke
-12 -53 -15 53 5464 4193 3 MP stroke
-12 -52 -13 52 5568 4191 3 MP stroke
-10 -52 -15 50 5666 4190 3 MP stroke
-7 -51 -18 48 5763 4188 3 MP stroke
-4 -50 -20 46 5862 4185 3 MP stroke
3 -50 -26 43 5950 4184 3 MP stroke
10 -50 -32 40 6040 4182 3 MP stroke
15 -50 -37 37 6132 4180 3 MP stroke
22 -50 -42 34 6223 4178 3 MP stroke
26 -49 -46 31 6319 4176 3 MP stroke
31 -48 -50 28 6413 4173 3 MP stroke
38 -48 -56 24 6501 4171 3 MP stroke
45 -47 -62 21 6591 4168 3 MP stroke
50 -46 -66 17 6684 4165 3 MP stroke
55 -45 -70 14 6777 4161 3 MP stroke
61 -44 -75 10 6870 4158 3 MP stroke
69 -43 -81 6 6957 4154 3 MP stroke
72 -41 -83 2 7055 4148 3 MP stroke
62 -40 -74 6 7178 4148 3 MP stroke
34 -26 -42 7 7340 4129 3 MP stroke
8 -2 -8 -2 7501 4088 3 MP stroke
7620 4086 PD
7723 4086 PD
7826 4086 PD
7929 4086 PD
3802 3828 PD
-15 -59 -14 59 3921 3946 3 MP stroke
-17 -62 -15 63 4026 3955 3 MP stroke
-15 -61 -16 62 4128 3953 3 MP stroke
-15 -61 -15 61 4230 3952 3 MP stroke
-16 -59 -14 60 4335 3949 3 MP stroke
-17 -59 -13 60 4440 3947 3 MP stroke
-15 -58 -14 59 4540 3946 3 MP stroke
-15 -58 -14 59 4644 3945 3 MP stroke
-16 -58 -12 58 4748 3945 3 MP stroke
-15 -56 -13 57 4850 3943 3 MP stroke
-15 -56 -13 57 4953 3941 3 MP stroke
-14 -55 -14 56 5055 3940 3 MP stroke
-14 -55 -14 55 5157 3939 3 MP stroke
-14 -54 -13 54 5261 3938 3 MP stroke
-13 -54 -14 53 5362 3937 3 MP stroke
-12 -53 -15 53 5464 3935 3 MP stroke
-12 -52 -13 52 5568 3933 3 MP stroke
-10 -52 -15 50 5666 3932 3 MP stroke
-7 -51 -18 48 5763 3930 3 MP stroke
-4 -50 -20 46 5862 3927 3 MP stroke
3 -50 -26 43 5950 3926 3 MP stroke
10 -50 -32 40 6040 3924 3 MP stroke
15 -50 -37 37 6132 3922 3 MP stroke
22 -50 -42 34 6223 3920 3 MP stroke
26 -49 -46 31 6319 3918 3 MP stroke
31 -48 -50 28 6413 3915 3 MP stroke
38 -47 -56 24 6501 3913 3 MP stroke
45 -47 -62 21 6591 3910 3 MP stroke
50 -46 -66 17 6684 3907 3 MP stroke
55 -45 -70 14 6777 3903 3 MP stroke
61 -44 -75 10 6870 3900 3 MP stroke
69 -43 -81 6 6957 3896 3 MP stroke
72 -41 -83 2 7055 3890 3 MP stroke
62 -40 -74 6 7178 3890 3 MP stroke
34 -26 -42 7 7340 3871 3 MP stroke
8 -2 -8 -2 7501 3830 3 MP stroke
7620 3828 PD
7723 3828 PD
7826 3828 PD
7929 3828 PD
3802 3570 PD
-15 -59 -14 59 3921 3688 3 MP stroke
-17 -62 -15 63 4026 3697 3 MP stroke
-15 -61 -16 62 4128 3695 3 MP stroke
-15 -61 -15 61 4230 3694 3 MP stroke
-16 -59 -14 60 4335 3691 3 MP stroke
-17 -59 -13 60 4440 3689 3 MP stroke
-15 -58 -14 59 4540 3688 3 MP stroke
-15 -58 -14 59 4644 3687 3 MP stroke
-16 -58 -12 58 4748 3687 3 MP stroke
-15 -56 -13 57 4850 3685 3 MP stroke
-15 -56 -13 57 4953 3683 3 MP stroke
-14 -55 -14 56 5055 3682 3 MP stroke
-14 -55 -14 55 5157 3681 3 MP stroke
-14 -54 -13 54 5261 3680 3 MP stroke
-13 -53 -14 53 5362 3679 3 MP stroke
-12 -53 -15 53 5464 3677 3 MP stroke
-12 -52 -13 52 5568 3675 3 MP stroke
-10 -52 -15 50 5666 3674 3 MP stroke
-7 -51 -18 48 5763 3672 3 MP stroke
-4 -50 -20 46 5862 3669 3 MP stroke
3 -50 -26 43 5950 3668 3 MP stroke
10 -50 -32 40 6040 3666 3 MP stroke
15 -50 -37 37 6132 3664 3 MP stroke
22 -50 -42 34 6223 3662 3 MP stroke
26 -49 -46 31 6319 3660 3 MP stroke
31 -48 -50 28 6413 3657 3 MP stroke
38 -47 -56 24 6501 3655 3 MP stroke
45 -47 -62 21 6591 3652 3 MP stroke
50 -46 -66 17 6684 3649 3 MP stroke
55 -45 -70 14 6777 3645 3 MP stroke
61 -44 -75 10 6870 3642 3 MP stroke
69 -43 -81 5 6957 3639 3 MP stroke
72 -40 -83 2 7055 3632 3 MP stroke
62 -40 -74 6 7178 3632 3 MP stroke
34 -26 -42 7 7340 3613 3 MP stroke
8 -2 -8 -2 7501 3572 3 MP stroke
7620 3570 PD
7723 3570 PD
7826 3570 PD
7929 3570 PD
3802 3312 PD
-15 -58 -14 59 3921 3430 3 MP stroke
-17 -62 -15 63 4026 3439 3 MP stroke
-15 -61 -16 62 4128 3437 3 MP stroke
-15 -61 -15 61 4230 3436 3 MP stroke
-16 -59 -14 60 4335 3433 3 MP stroke
-17 -59 -13 60 4440 3431 3 MP stroke
-15 -58 -14 59 4540 3430 3 MP stroke
-15 -58 -14 59 4644 3429 3 MP stroke
-16 -58 -12 58 4748 3429 3 MP stroke
-15 -56 -13 57 4850 3427 3 MP stroke
-15 -56 -13 57 4953 3425 3 MP stroke
-15 -55 -13 55 5055 3425 3 MP stroke
-14 -55 -14 55 5157 3423 3 MP stroke
-14 -54 -13 54 5261 3422 3 MP stroke
-13 -53 -14 53 5362 3421 3 MP stroke
-12 -53 -15 52 5464 3420 3 MP stroke
-13 -52 -13 52 5568 3417 3 MP stroke
-10 -52 -15 50 5666 3416 3 MP stroke
-7 -51 -18 48 5763 3414 3 MP stroke
-4 -50 -20 46 5862 3411 3 MP stroke
3 -50 -26 43 5950 3410 3 MP stroke
10 -50 -32 39 6040 3409 3 MP stroke
15 -50 -37 36 6132 3407 3 MP stroke
22 -50 -42 34 6223 3404 3 MP stroke
26 -49 -46 31 6319 3402 3 MP stroke
31 -48 -50 28 6413 3399 3 MP stroke
38 -48 -56 25 6501 3397 3 MP stroke
45 -47 -62 21 6591 3394 3 MP stroke
50 -46 -66 17 6684 3391 3 MP stroke
55 -45 -70 14 6777 3387 3 MP stroke
61 -44 -75 10 6870 3384 3 MP stroke
69 -43 -81 5 6957 3381 3 MP stroke
72 -40 -83 2 7055 3374 3 MP stroke
62 -39 -74 5 7178 3375 3 MP stroke
34 -26 -42 7 7340 3355 3 MP stroke
8 -2 -8 -2 7501 3314 3 MP stroke
7620 3312 PD
7723 3312 PD
7826 3312 PD
7929 3312 PD
3802 3054 PD
-15 -58 -14 59 3921 3172 3 MP stroke
-17 -62 -15 63 4026 3181 3 MP stroke
-15 -61 -16 61 4128 3180 3 MP stroke
-15 -61 -15 61 4230 3178 3 MP stroke
-16 -59 -14 60 4335 3175 3 MP stroke
-17 -59 -13 60 4440 3173 3 MP stroke
-15 -58 -14 59 4540 3172 3 MP stroke
-15 -58 -14 59 4644 3171 3 MP stroke
-16 -57 -12 58 4748 3171 3 MP stroke
-15 -57 -13 58 4850 3169 3 MP stroke
-15 -56 -13 56 4953 3168 3 MP stroke
-15 -55 -13 55 5055 3167 3 MP stroke
-14 -55 -14 55 5157 3165 3 MP stroke
-14 -54 -13 54 5261 3164 3 MP stroke
-13 -53 -14 53 5362 3163 3 MP stroke
-12 -53 -14 52 5463 3162 3 MP stroke
-13 -52 -13 52 5568 3159 3 MP stroke
-10 -52 -15 50 5666 3158 3 MP stroke
-7 -51 -18 48 5763 3156 3 MP stroke
-4 -50 -20 46 5862 3153 3 MP stroke
3 -50 -26 43 5950 3152 3 MP stroke
10 -50 -32 39 6040 3151 3 MP stroke
15 -50 -37 36 6132 3149 3 MP stroke
22 -50 -42 33 6223 3147 3 MP stroke
26 -49 -46 31 6319 3144 3 MP stroke
31 -49 -50 29 6413 3141 3 MP stroke
38 -48 -57 25 6502 3139 3 MP stroke
45 -47 -62 21 6591 3136 3 MP stroke
50 -46 -66 17 6684 3133 3 MP stroke
55 -45 -70 13 6777 3130 3 MP stroke
61 -44 -75 10 6870 3126 3 MP stroke
69 -43 -81 5 6957 3123 3 MP stroke
72 -40 -83 2 7055 3116 3 MP stroke
62 -39 -74 5 7178 3117 3 MP stroke
34 -27 -42 8 7340 3097 3 MP stroke
8 -2 -8 -2 7501 3056 3 MP stroke
7620 3054 PD
7723 3054 PD
7826 3054 PD
7929 3054 PD
3802 2796 PD
-15 -58 -14 59 3921 2914 3 MP stroke
-17 -62 -15 63 4026 2923 3 MP stroke
-15 -62 -16 62 4128 2922 3 MP stroke
-15 -61 -15 61 4230 2920 3 MP stroke
-16 -59 -14 60 4335 2917 3 MP stroke
-17 -59 -13 60 4440 2915 3 MP stroke
-15 -58 -14 59 4540 2914 3 MP stroke
-15 -58 -14 58 4644 2914 3 MP stroke
-16 -57 -12 58 4748 2913 3 MP stroke
-15 -57 -13 58 4850 2911 3 MP stroke
-15 -56 -13 56 4953 2910 3 MP stroke
-15 -55 -13 55 5055 2909 3 MP stroke
-14 -55 -14 54 5157 2908 3 MP stroke
-14 -54 -13 54 5261 2906 3 MP stroke
-13 -53 -14 53 5362 2905 3 MP stroke
-12 -53 -14 52 5463 2904 3 MP stroke
-13 -52 -13 52 5568 2901 3 MP stroke
-10 -51 -15 50 5666 2900 3 MP stroke
-7 -51 -18 48 5763 2898 3 MP stroke
-4 -50 -20 46 5862 2895 3 MP stroke
3 -50 -26 43 5950 2894 3 MP stroke
10 -50 -32 39 6040 2893 3 MP stroke
15 -50 -37 36 6132 2891 3 MP stroke
22 -50 -42 33 6223 2889 3 MP stroke
26 -49 -46 31 6319 2886 3 MP stroke
31 -49 -50 29 6413 2883 3 MP stroke
37 -48 -56 25 6502 2881 3 MP stroke
45 -47 -62 20 6591 2879 3 MP stroke
50 -46 -66 17 6684 2875 3 MP stroke
55 -45 -70 13 6777 2872 3 MP stroke
61 -44 -75 10 6870 2868 3 MP stroke
69 -43 -81 5 6957 2865 3 MP stroke
72 -40 -83 1 7055 2859 3 MP stroke
62 -39 -74 5 7178 2859 3 MP stroke
34 -27 -42 8 7340 2839 3 MP stroke
8 -2 -8 -2 7501 2798 3 MP stroke
7620 2796 PD
7723 2796 PD
7826 2796 PD
7929 2796 PD
3802 2538 PD
-15 -58 -14 59 3921 2656 3 MP stroke
-17 -62 -15 63 4026 2665 3 MP stroke
-15 -62 -16 62 4128 2664 3 MP stroke
-15 -61 -15 61 4230 2662 3 MP stroke
-16 -60 -14 61 4335 2659 3 MP stroke
-17 -59 -13 60 4440 2657 3 MP stroke
-15 -58 -14 58 4540 2657 3 MP stroke
-15 -58 -14 58 4644 2656 3 MP stroke
-16 -57 -12 58 4748 2655 3 MP stroke
-15 -57 -13 58 4850 2653 3 MP stroke
-15 -56 -13 56 4953 2652 3 MP stroke
-15 -55 -13 55 5055 2651 3 MP stroke
-14 -54 -14 54 5157 2650 3 MP stroke
-14 -54 -13 54 5261 2648 3 MP stroke
-13 -53 -14 53 5362 2647 3 MP stroke
-12 -53 -14 52 5463 2646 3 MP stroke
-13 -52 -13 51 5568 2644 3 MP stroke
-10 -51 -15 50 5666 2642 3 MP stroke
-7 -51 -18 48 5763 2640 3 MP stroke
-4 -50 -20 46 5862 2637 3 MP stroke
3 -50 -26 43 5950 2636 3 MP stroke
10 -50 -32 39 6040 2635 3 MP stroke
16 -50 -38 36 6132 2633 3 MP stroke
22 -49 -42 33 6223 2631 3 MP stroke
26 -49 -46 31 6319 2628 3 MP stroke
31 -49 -50 28 6413 2626 3 MP stroke
37 -48 -56 25 6502 2623 3 MP stroke
45 -47 -62 20 6591 2621 3 MP stroke
50 -47 -66 18 6684 2617 3 MP stroke
55 -45 -70 13 6777 2614 3 MP stroke
61 -44 -75 10 6870 2610 3 MP stroke
69 -43 -81 5 6957 2607 3 MP stroke
72 -40 -83 1 7055 2601 3 MP stroke
62 -39 -74 5 7178 2601 3 MP stroke
34 -27 -42 8 7340 2581 3 MP stroke
8 -2 -8 -2 7501 2540 3 MP stroke
7620 2538 PD
7723 2538 PD
7826 2538 PD
7929 2538 PD
3802 2280 PD
-15 -58 -14 59 3921 2398 3 MP stroke
-17 -62 -15 63 4026 2407 3 MP stroke
-15 -62 -16 62 4128 2406 3 MP stroke
-15 -61 -15 61 4230 2404 3 MP stroke
-16 -60 -14 61 4335 2401 3 MP stroke
-17 -59 -13 60 4440 2399 3 MP stroke
-15 -58 -14 58 4540 2399 3 MP stroke
-15 -58 -14 58 4644 2398 3 MP stroke
-16 -57 -12 58 4748 2397 3 MP stroke
-15 -57 -13 58 4850 2395 3 MP stroke
-15 -56 -13 56 4953 2394 3 MP stroke
-15 -55 -13 55 5055 2393 3 MP stroke
-14 -54 -14 54 5157 2392 3 MP stroke
-14 -54 -13 54 5261 2390 3 MP stroke
-13 -53 -14 53 5362 2389 3 MP stroke
-12 -53 -14 52 5463 2388 3 MP stroke
-13 -52 -13 51 5568 2386 3 MP stroke
-10 -51 -15 50 5666 2384 3 MP stroke
-7 -51 -18 48 5763 2382 3 MP stroke
-4 -49 -20 46 5862 2379 3 MP stroke
3 -50 -26 43 5950 2378 3 MP stroke
10 -50 -32 39 6040 2377 3 MP stroke
16 -50 -38 36 6132 2375 3 MP stroke
22 -49 -42 33 6223 2373 3 MP stroke
26 -49 -46 31 6319 2370 3 MP stroke
31 -49 -50 28 6413 2368 3 MP stroke
37 -48 -56 25 6502 2365 3 MP stroke
45 -47 -62 20 6591 2363 3 MP stroke
50 -47 -66 18 6684 2359 3 MP stroke
55 -45 -70 13 6777 2356 3 MP stroke
61 -44 -75 10 6870 2352 3 MP stroke
69 -44 -81 6 6957 2349 3 MP stroke
72 -40 -83 1 7055 2343 3 MP stroke
62 -39 -74 5 7178 2343 3 MP stroke
34 -27 -42 7 7340 2324 3 MP stroke
8 -2 -8 -2 7501 2282 3 MP stroke
7620 2280 PD
7723 2280 PD
7826 2280 PD
7929 2280 PD
3802 2022 PD
-15 -58 -14 59 3921 2140 3 MP stroke
-17 -62 -15 63 4026 2149 3 MP stroke
-15 -62 -16 62 4128 2148 3 MP stroke
-15 -61 -15 61 4230 2146 3 MP stroke
-16 -60 -14 61 4335 2143 3 MP stroke
-17 -59 -13 59 4440 2142 3 MP stroke
-15 -58 -14 58 4540 2141 3 MP stroke
-15 -58 -14 58 4644 2140 3 MP stroke
-16 -57 -12 58 4748 2139 3 MP stroke
-15 -57 -13 57 4850 2138 3 MP stroke
-15 -56 -13 56 4953 2136 3 MP stroke
-15 -55 -13 55 5055 2135 3 MP stroke
-14 -55 -14 55 5157 2134 3 MP stroke
-14 -54 -13 54 5261 2132 3 MP stroke
-13 -54 -14 54 5362 2131 3 MP stroke
-12 -53 -14 52 5463 2130 3 MP stroke
-13 -52 -13 51 5568 2128 3 MP stroke
-10 -51 -15 50 5666 2126 3 MP stroke
-7 -51 -18 48 5763 2124 3 MP stroke
-4 -50 -20 46 5862 2122 3 MP stroke
3 -50 -26 43 5950 2120 3 MP stroke
10 -50 -32 39 6040 2119 3 MP stroke
16 -50 -38 36 6132 2117 3 MP stroke
22 -49 -42 33 6223 2115 3 MP stroke
26 -49 -46 31 6319 2112 3 MP stroke
31 -48 -50 28 6413 2110 3 MP stroke
37 -48 -56 25 6502 2107 3 MP stroke
45 -47 -62 20 6591 2105 3 MP stroke
50 -47 -66 18 6684 2101 3 MP stroke
55 -45 -70 13 6777 2098 3 MP stroke
61 -44 -75 10 6870 2094 3 MP stroke
69 -44 -81 6 6957 2091 3 MP stroke
72 -41 -83 2 7055 2085 3 MP stroke
62 -39 -74 5 7178 2085 3 MP stroke
34 -26 -42 7 7340 2066 3 MP stroke
8 -2 -8 -2 7501 2024 3 MP stroke
7620 2022 PD
7723 2022 PD
7826 2022 PD
7929 2022 PD
3802 1764 PD
-15 -58 -14 58 3921 1883 3 MP stroke
-17 -63 -15 63 4026 1892 3 MP stroke
-15 -62 -16 62 4128 1890 3 MP stroke
-15 -61 -15 61 4230 1888 3 MP stroke
-16 -60 -14 60 4335 1886 3 MP stroke
-17 -58 -13 59 4440 1884 3 MP stroke
-15 -58 -14 58 4540 1883 3 MP stroke
-15 -58 -14 58 4644 1882 3 MP stroke
-16 -57 -12 58 4748 1881 3 MP stroke
-15 -57 -13 57 4850 1880 3 MP stroke
-15 -56 -13 56 4953 1878 3 MP stroke
-15 -55 -13 55 5055 1877 3 MP stroke
-14 -55 -14 55 5157 1876 3 MP stroke
-14 -55 -13 55 5261 1874 3 MP stroke
-13 -54 -14 54 5362 1873 3 MP stroke
-12 -53 -14 52 5463 1872 3 MP stroke
-13 -51 -13 51 5568 1870 3 MP stroke
-10 -51 -15 50 5666 1868 3 MP stroke
-7 -51 -18 48 5763 1866 3 MP stroke
-4 -50 -20 46 5862 1864 3 MP stroke
3 -50 -26 43 5950 1862 3 MP stroke
10 -51 -32 40 6040 1861 3 MP stroke
16 -49 -38 36 6132 1859 3 MP stroke
22 -49 -42 33 6223 1857 3 MP stroke
26 -49 -46 31 6319 1854 3 MP stroke
31 -48 -50 28 6413 1852 3 MP stroke
37 -48 -56 25 6502 1849 3 MP stroke
45 -47 -62 20 6591 1847 3 MP stroke
50 -47 -66 18 6684 1843 3 MP stroke
55 -46 -70 14 6777 1840 3 MP stroke
61 -44 -75 10 6870 1836 3 MP stroke
69 -44 -81 6 6957 1833 3 MP stroke
72 -41 -83 2 7055 1827 3 MP stroke
62 -39 -74 5 7178 1827 3 MP stroke
34 -26 -42 7 7340 1808 3 MP stroke
8 -2 -8 -2 7501 1766 3 MP stroke
7620 1764 PD
7723 1764 PD
7826 1764 PD
7929 1764 PD
3802 1506 PD
-15 -58 -14 58 3921 1625 3 MP stroke
-17 -63 -15 63 4026 1634 3 MP stroke
-15 -62 -16 62 4128 1632 3 MP stroke
-15 -61 -15 61 4230 1630 3 MP stroke
-16 -60 -14 60 4335 1628 3 MP stroke
-17 -58 -13 59 4440 1626 3 MP stroke
-15 -58 -14 58 4540 1625 3 MP stroke
-15 -58 -14 58 4644 1624 3 MP stroke
-16 -57 -12 58 4748 1623 3 MP stroke
-15 -57 -13 57 4850 1622 3 MP stroke
-15 -56 -13 56 4953 1620 3 MP stroke
-15 -55 -13 55 5055 1619 3 MP stroke
-14 -55 -14 55 5157 1618 3 MP stroke
-14 -55 -13 55 5261 1616 3 MP stroke
-13 -54 -14 54 5362 1615 3 MP stroke
-12 -53 -14 52 5463 1614 3 MP stroke
-13 -52 -13 52 5568 1612 3 MP stroke
-10 -51 -15 50 5666 1610 3 MP stroke
-7 -51 -18 48 5763 1608 3 MP stroke
-4 -50 -20 46 5862 1606 3 MP stroke
3 -50 -26 43 5950 1604 3 MP stroke
10 -51 -32 40 6040 1603 3 MP stroke
16 -50 -38 37 6132 1601 3 MP stroke
22 -49 -42 33 6223 1599 3 MP stroke
26 -49 -46 31 6319 1596 3 MP stroke
31 -48 -50 28 6413 1594 3 MP stroke
37 -48 -56 25 6502 1591 3 MP stroke
45 -48 -62 21 6591 1589 3 MP stroke
50 -47 -66 18 6684 1585 3 MP stroke
55 -46 -70 14 6777 1582 3 MP stroke
61 -44 -75 10 6870 1578 3 MP stroke
69 -44 -81 6 6957 1575 3 MP stroke
72 -41 -83 2 7055 1569 3 MP stroke
62 -39 -74 5 7178 1569 3 MP stroke
34 -26 -42 7 7340 1550 3 MP stroke
8 -2 -8 -2 7501 1508 3 MP stroke
7620 1506 PD
7723 1506 PD
7826 1506 PD
7929 1506 PD
3802 1248 PD
-15 -58 -14 58 3921 1367 3 MP stroke
-17 -63 -15 63 4026 1376 3 MP stroke
-15 -62 -16 62 4128 1374 3 MP stroke
-15 -61 -15 61 4230 1372 3 MP stroke
-16 -60 -14 60 4335 1370 3 MP stroke
-17 -58 -13 59 4440 1368 3 MP stroke
-15 -58 -14 58 4540 1367 3 MP stroke
-15 -58 -14 58 4644 1366 3 MP stroke
-16 -57 -12 58 4748 1365 3 MP stroke
-15 -57 -13 57 4850 1364 3 MP stroke
-15 -56 -13 56 4953 1362 3 MP stroke
-15 -56 -13 56 5055 1361 3 MP stroke
-14 -55 -14 55 5157 1360 3 MP stroke
-14 -54 -13 55 5261 1358 3 MP stroke
-13 -54 -14 54 5362 1357 3 MP stroke
-12 -53 -14 52 5463 1356 3 MP stroke
-13 -52 -13 52 5568 1354 3 MP stroke
-10 -51 -15 50 5666 1352 3 MP stroke
-7 -51 -18 48 5763 1350 3 MP stroke
-4 -50 -20 46 5862 1348 3 MP stroke
3 -50 -26 42 5950 1347 3 MP stroke
10 -51 -32 40 6040 1345 3 MP stroke
16 -50 -38 37 6132 1343 3 MP stroke
22 -49 -42 33 6223 1341 3 MP stroke
26 -49 -46 31 6319 1338 3 MP stroke
31 -48 -50 28 6413 1336 3 MP stroke
37 -48 -56 24 6502 1334 3 MP stroke
45 -48 -62 21 6591 1331 3 MP stroke
50 -47 -66 17 6684 1328 3 MP stroke
55 -46 -70 14 6777 1324 3 MP stroke
61 -44 -75 10 6870 1320 3 MP stroke
69 -44 -81 6 6957 1317 3 MP stroke
72 -41 -83 2 7055 1311 3 MP stroke
62 -39 -74 5 7178 1311 3 MP stroke
34 -26 -42 7 7340 1292 3 MP stroke
8 -2 -8 -2 7501 1250 3 MP stroke
7620 1248 PD
7723 1248 PD
7826 1248 PD
7929 1248 PD
3802 990 PD
-15 -58 -14 58 3921 1109 3 MP stroke
-17 -63 -15 63 4026 1118 3 MP stroke
-15 -62 -16 62 4128 1116 3 MP stroke
-15 -61 -15 61 4230 1114 3 MP stroke
-16 -60 -14 60 4335 1112 3 MP stroke
-17 -58 -13 59 4440 1110 3 MP stroke
-15 -58 -14 58 4540 1109 3 MP stroke
-15 -58 -14 58 4644 1108 3 MP stroke
-16 -57 -12 58 4748 1107 3 MP stroke
-15 -57 -13 57 4850 1106 3 MP stroke
-15 -56 -13 56 4953 1104 3 MP stroke
-15 -56 -13 56 5055 1103 3 MP stroke
-14 -55 -14 55 5157 1102 3 MP stroke
-14 -54 -13 55 5261 1100 3 MP stroke
-13 -54 -14 54 5362 1099 3 MP stroke
-12 -54 -14 53 5463 1098 3 MP stroke
-13 -52 -13 52 5568 1096 3 MP stroke
-10 -51 -15 50 5666 1094 3 MP stroke
-7 -51 -18 48 5763 1092 3 MP stroke
-4 -50 -20 46 5862 1090 3 MP stroke
3 -50 -26 42 5950 1089 3 MP stroke
10 -51 -32 40 6040 1087 3 MP stroke
16 -50 -38 37 6132 1085 3 MP stroke
22 -49 -42 33 6223 1083 3 MP stroke
26 -49 -46 31 6319 1080 3 MP stroke
31 -48 -50 28 6413 1078 3 MP stroke
37 -48 -56 24 6502 1076 3 MP stroke
45 -48 -62 21 6591 1073 3 MP stroke
50 -46 -66 17 6684 1070 3 MP stroke
55 -46 -70 14 6777 1066 3 MP stroke
61 -44 -75 10 6870 1062 3 MP stroke
69 -44 -81 6 6957 1059 3 MP stroke
72 -41 -83 2 7055 1053 3 MP stroke
62 -39 -74 5 7178 1053 3 MP stroke
34 -26 -42 7 7340 1034 3 MP stroke
8 -2 -8 -2 7501 992 3 MP stroke
7620 990 PD
7723 990 PD
7826 990 PD
7929 990 PD
3802 732 PD
-15 -58 -14 58 3921 851 3 MP stroke
-17 -63 -15 63 4026 860 3 MP stroke
-15 -62 -16 62 4128 858 3 MP stroke
-15 -61 -15 61 4230 856 3 MP stroke
-16 -60 -14 60 4335 854 3 MP stroke
-17 -58 -13 59 4440 852 3 MP stroke
-15 -58 -14 58 4540 851 3 MP stroke
-15 -58 -14 58 4644 850 3 MP stroke
-16 -57 -12 58 4748 849 3 MP stroke
-15 -57 -13 57 4850 848 3 MP stroke
-15 -55 -13 56 4953 846 3 MP stroke
-15 -56 -13 56 5055 845 3 MP stroke
-14 -55 -14 55 5157 844 3 MP stroke
-14 -54 -13 55 5261 842 3 MP stroke
-13 -54 -14 54 5362 841 3 MP stroke
-12 -54 -14 53 5463 840 3 MP stroke
-13 -52 -13 52 5568 838 3 MP stroke
-10 -51 -15 50 5666 836 3 MP stroke
-7 -51 -18 48 5763 834 3 MP stroke
-4 -50 -20 46 5862 832 3 MP stroke
3 -50 -26 42 5950 831 3 MP stroke
10 -50 -32 40 6040 829 3 MP stroke
16 -50 -38 37 6132 827 3 MP stroke
22 -50 -42 34 6223 825 3 MP stroke
26 -49 -46 31 6319 822 3 MP stroke
31 -48 -50 28 6413 820 3 MP stroke
37 -48 -56 24 6502 818 3 MP stroke
45 -48 -62 21 6591 815 3 MP stroke
50 -46 -66 17 6684 812 3 MP stroke
55 -45 -70 14 6777 808 3 MP stroke
61 -44 -75 10 6870 804 3 MP stroke
69 -44 -81 6 6957 801 3 MP stroke
72 -41 -83 2 7055 795 3 MP stroke
62 -39 -74 5 7178 795 3 MP stroke
34 -26 -42 7 7340 776 3 MP stroke
8 -1 -8 -2 7501 734 3 MP stroke
7620 732 PD
7723 732 PD
7826 732 PD
7929 732 PD
3802 475 PD
-15 -58 -14 58 3921 593 3 MP stroke
-17 -63 -15 63 4026 602 3 MP stroke
-15 -62 -16 62 4128 600 3 MP stroke
-15 -61 -15 61 4230 598 3 MP stroke
-16 -60 -14 60 4335 596 3 MP stroke
-17 -58 -13 59 4440 594 3 MP stroke
-15 -58 -14 58 4540 593 3 MP stroke
-15 -58 -14 58 4644 592 3 MP stroke
-16 -57 -12 58 4748 591 3 MP stroke
-15 -57 -13 57 4850 590 3 MP stroke
-15 -55 -13 56 4953 588 3 MP stroke
-15 -56 -13 56 5055 587 3 MP stroke
-14 -55 -14 55 5157 586 3 MP stroke
-14 -54 -13 55 5261 584 3 MP stroke
-13 -54 -14 54 5362 583 3 MP stroke
-12 -54 -14 53 5463 582 3 MP stroke
-13 -52 -13 52 5568 580 3 MP stroke
-10 -52 -15 51 5666 578 3 MP stroke
-7 -51 -18 48 5763 576 3 MP stroke
-4 -50 -20 46 5862 574 3 MP stroke
3 -51 -26 43 5950 573 3 MP stroke
10 -50 -32 40 6040 571 3 MP stroke
16 -50 -38 37 6132 569 3 MP stroke
22 -50 -42 34 6223 567 3 MP stroke
26 -48 -46 31 6319 564 3 MP stroke
31 -48 -50 28 6413 562 3 MP stroke
37 -48 -56 24 6502 560 3 MP stroke
45 -48 -62 21 6591 557 3 MP stroke
50 -46 -66 17 6684 554 3 MP stroke
55 -45 -70 14 6777 550 3 MP stroke
61 -44 -75 10 6870 546 3 MP stroke
69 -43 -81 6 6957 543 3 MP stroke
72 -41 -83 2 7055 537 3 MP stroke
62 -40 -74 6 7178 537 3 MP stroke
34 -26 -42 7 7340 518 3 MP stroke
-8 -1 7501 476 2 MP stroke
7620 475 PD
7723 475 PD
7826 475 PD
7929 475 PD
3802 5634 PD
0 1 3905 5634 2 MP stroke
0 1 4008 5634 2 MP stroke
0 1 4112 5634 2 MP stroke
0 1 4215 5634 2 MP stroke
0 1 4318 5634 2 MP stroke
0 1 4421 5634 2 MP stroke
0 1 4524 5634 2 MP stroke
0 1 4627 5634 2 MP stroke
0 1 4731 5634 2 MP stroke
0 1 4834 5634 2 MP stroke
0 1 4937 5634 2 MP stroke
0 1 5040 5634 2 MP stroke
0 1 5143 5634 2 MP stroke
0 1 5247 5634 2 MP stroke
0 1 5350 5634 2 MP stroke
0 1 5453 5634 2 MP stroke
0 1 5556 5634 2 MP stroke
0 1 5659 5634 2 MP stroke
0 1 5762 5634 2 MP stroke
-1 1 5866 5634 2 MP stroke
-1 1 5969 5634 2 MP stroke
0 1 6072 5634 2 MP stroke
0 1 6175 5634 2 MP stroke
0 1 6278 5634 2 MP stroke
-1 1 6382 5634 2 MP stroke
-1 1 6485 5634 2 MP stroke
-1 1 6588 5634 2 MP stroke
-2 1 6691 5634 2 MP stroke
-2 1 6794 5634 2 MP stroke
-2 1 6897 5634 2 MP stroke
-3 1 7001 5634 2 MP stroke
-3 1 7104 5634 2 MP stroke
-4 1 7207 5634 2 MP stroke
-3 1 7310 5634 2 MP stroke
-2 1 7413 5634 2 MP stroke
-24 0 7517 5634 2 MP stroke
7620 5634 PD
7723 5634 PD
7826 5634 PD
7929 5634 PD
3802 5376 PD
2 176 3905 5376 2 MP stroke
3 190 4008 5376 2 MP stroke
0 187 4112 5376 2 MP stroke
0 184 4215 5376 2 MP stroke
3 181 4318 5376 2 MP stroke
6 178 4421 5376 2 MP stroke
2 177 4524 5376 2 MP stroke
3 175 4627 5376 2 MP stroke
5 174 4731 5376 2 MP stroke
3 172 4834 5376 2 MP stroke
3 169 4937 5376 2 MP stroke
2 168 5040 5376 2 MP stroke
0 166 5143 5376 2 MP stroke
1 164 5247 5376 2 MP stroke
-2 162 5350 5376 2 MP stroke
-4 160 5453 5376 2 MP stroke
-1 157 5556 5376 2 MP stroke
-8 154 5659 5376 2 MP stroke
-17 149 5762 5376 2 MP stroke
-24 145 5866 5376 2 MP stroke
-45 141 5969 5376 2 MP stroke
-64 136 6072 5376 2 MP stroke
-80 131 6175 5376 2 MP stroke
-97 126 6278 5376 2 MP stroke
-109 120 6382 5376 2 MP stroke
-122 115 6485 5376 2 MP stroke
-142 109 6588 5376 2 MP stroke
-162 103 6691 5376 2 MP stroke
-176 96 6794 5376 2 MP stroke
-190 89 6897 5376 2 MP stroke
-206 81 7001 5376 2 MP stroke
-228 74 7104 5376 2 MP stroke
-235 64 7207 5376 2 MP stroke
-206 68 7310 5376 2 MP stroke
-115 50 7413 5376 2 MP stroke
-24 0 7517 5376 2 MP stroke
7620 5376 PD
7723 5376 PD
7826 5376 PD
7929 5376 PD
3802 5118 PD
2 176 3905 5118 2 MP stroke
3 190 4008 5118 2 MP stroke
0 187 4112 5118 2 MP stroke
0 184 4215 5118 2 MP stroke
3 181 4318 5118 2 MP stroke
6 178 4421 5118 2 MP stroke
2 177 4524 5118 2 MP stroke
3 175 4627 5118 2 MP stroke
5 174 4731 5118 2 MP stroke
3 172 4834 5118 2 MP stroke
3 169 4937 5118 2 MP stroke
2 168 5040 5118 2 MP stroke
0 166 5143 5118 2 MP stroke
1 164 5247 5118 2 MP stroke
-2 162 5350 5118 2 MP stroke
-4 160 5453 5118 2 MP stroke
-1 157 5556 5118 2 MP stroke
-8 154 5659 5118 2 MP stroke
-17 149 5762 5118 2 MP stroke
-24 145 5866 5118 2 MP stroke
-45 141 5969 5118 2 MP stroke
-64 136 6072 5118 2 MP stroke
-80 131 6175 5118 2 MP stroke
-97 126 6278 5118 2 MP stroke
-109 120 6382 5118 2 MP stroke
-122 115 6485 5118 2 MP stroke
-143 109 6588 5118 2 MP stroke
-162 103 6691 5118 2 MP stroke
-176 96 6794 5118 2 MP stroke
-190 89 6897 5118 2 MP stroke
-206 81 7001 5118 2 MP stroke
-228 74 7104 5118 2 MP stroke
-235 64 7207 5118 2 MP stroke
-206 68 7310 5118 2 MP stroke
-115 50 7413 5118 2 MP stroke
-24 0 7517 5118 2 MP stroke
7620 5118 PD
7723 5118 PD
7826 5118 PD
7929 5118 PD
3802 4860 PD
2 176 3905 4860 2 MP stroke
3 190 4008 4860 2 MP stroke
0 187 4112 4860 2 MP stroke
0 184 4215 4860 2 MP stroke
3 181 4318 4860 2 MP stroke
6 178 4421 4860 2 MP stroke
2 177 4524 4860 2 MP stroke
3 175 4627 4860 2 MP stroke
5 174 4731 4860 2 MP stroke
3 172 4834 4860 2 MP stroke
3 170 4937 4860 2 MP stroke
1 168 5040 4860 2 MP stroke
0 166 5143 4860 2 MP stroke
1 164 5247 4860 2 MP stroke
-2 162 5350 4860 2 MP stroke
-4 160 5453 4860 2 MP stroke
-1 157 5556 4860 2 MP stroke
-8 154 5659 4860 2 MP stroke
-17 149 5762 4860 2 MP stroke
-24 145 5866 4860 2 MP stroke
-45 141 5969 4860 2 MP stroke
-64 136 6072 4860 2 MP stroke
-81 131 6175 4860 2 MP stroke
-97 126 6278 4860 2 MP stroke
-109 120 6382 4860 2 MP stroke
-122 115 6485 4860 2 MP stroke
-143 109 6588 4860 2 MP stroke
-162 103 6691 4860 2 MP stroke
-176 96 6794 4860 2 MP stroke
-190 89 6897 4860 2 MP stroke
-206 81 7001 4860 2 MP stroke
-228 74 7104 4860 2 MP stroke
-235 64 7207 4860 2 MP stroke
-206 68 7310 4860 2 MP stroke
-115 50 7413 4860 2 MP stroke
-24 0 7517 4860 2 MP stroke
7620 4860 PD
7723 4860 PD
7826 4860 PD
7929 4860 PD
3802 4602 PD
2 177 3905 4602 2 MP stroke
3 190 4008 4602 2 MP stroke
0 187 4112 4602 2 MP stroke
0 184 4215 4602 2 MP stroke
3 181 4318 4602 2 MP stroke
6 179 4421 4602 2 MP stroke
2 177 4524 4602 2 MP stroke
3 175 4627 4602 2 MP stroke
5 175 4731 4602 2 MP stroke
3 172 4834 4602 2 MP stroke
3 170 4937 4602 2 MP stroke
1 168 5040 4602 2 MP stroke
0 166 5143 4602 2 MP stroke
1 164 5247 4602 2 MP stroke
-2 162 5350 4602 2 MP stroke
-4 160 5453 4602 2 MP stroke
-1 157 5556 4602 2 MP stroke
-8 154 5659 4602 2 MP stroke
-17 149 5762 4602 2 MP stroke
-24 145 5866 4602 2 MP stroke
-45 141 5969 4602 2 MP stroke
-64 136 6072 4602 2 MP stroke
-81 131 6175 4602 2 MP stroke
-97 126 6278 4602 2 MP stroke
-109 121 6382 4602 2 MP stroke
-122 115 6485 4602 2 MP stroke
-143 109 6588 4602 2 MP stroke
-162 103 6691 4602 2 MP stroke
-176 96 6794 4602 2 MP stroke
-190 89 6897 4602 2 MP stroke
-206 81 7001 4602 2 MP stroke
-228 74 7104 4602 2 MP stroke
-235 64 7207 4602 2 MP stroke
-206 68 7310 4602 2 MP stroke
-115 50 7413 4602 2 MP stroke
-24 0 7517 4602 2 MP stroke
7620 4602 PD
7723 4602 PD
7826 4602 PD
7929 4602 PD
3802 4344 PD
2 177 3905 4344 2 MP stroke
3 190 4008 4344 2 MP stroke
0 187 4112 4344 2 MP stroke
0 185 4215 4344 2 MP stroke
3 181 4318 4344 2 MP stroke
6 179 4421 4344 2 MP stroke
2 177 4524 4344 2 MP stroke
3 175 4627 4344 2 MP stroke
5 175 4731 4344 2 MP stroke
3 172 4834 4344 2 MP stroke
3 170 4937 4344 2 MP stroke
1 168 5040 4344 2 MP stroke
0 166 5143 4344 2 MP stroke
1 164 5247 4344 2 MP stroke
-2 162 5350 4344 2 MP stroke
-4 160 5453 4344 2 MP stroke
-1 157 5556 4344 2 MP stroke
-8 154 5659 4344 2 MP stroke
-17 150 5762 4344 2 MP stroke
-24 145 5866 4344 2 MP stroke
-45 141 5969 4344 2 MP stroke
-64 136 6072 4344 2 MP stroke
-80 131 6175 4344 2 MP stroke
-97 126 6278 4344 2 MP stroke
-109 121 6382 4344 2 MP stroke
-122 115 6485 4344 2 MP stroke
-143 109 6588 4344 2 MP stroke
-162 103 6691 4344 2 MP stroke
-176 96 6794 4344 2 MP stroke
-190 89 6897 4344 2 MP stroke
-206 81 7001 4344 2 MP stroke
-228 74 7104 4344 2 MP stroke
-235 64 7207 4344 2 MP stroke
-206 68 7310 4344 2 MP stroke
-115 50 7413 4344 2 MP stroke
-24 0 7517 4344 2 MP stroke
7620 4344 PD
7723 4344 PD
7826 4344 PD
7929 4344 PD
3802 4086 PD
2 177 3905 4086 2 MP stroke
3 190 4008 4086 2 MP stroke
0 187 4112 4086 2 MP stroke
0 185 4215 4086 2 MP stroke
3 181 4318 4086 2 MP stroke
6 179 4421 4086 2 MP stroke
2 177 4524 4086 2 MP stroke
3 175 4627 4086 2 MP stroke
5 175 4731 4086 2 MP stroke
3 172 4834 4086 2 MP stroke
3 170 4937 4086 2 MP stroke
1 168 5040 4086 2 MP stroke
0 166 5143 4086 2 MP stroke
1 164 5247 4086 2 MP stroke
-2 162 5350 4086 2 MP stroke
-4 160 5453 4086 2 MP stroke
-1 157 5556 4086 2 MP stroke
-8 154 5659 4086 2 MP stroke
-17 150 5762 4086 2 MP stroke
-24 145 5866 4086 2 MP stroke
-45 141 5969 4086 2 MP stroke
-64 136 6072 4086 2 MP stroke
-80 131 6175 4086 2 MP stroke
-97 126 6278 4086 2 MP stroke
-109 121 6382 4086 2 MP stroke
-122 115 6485 4086 2 MP stroke
-143 109 6588 4086 2 MP stroke
-162 103 6691 4086 2 MP stroke
-176 96 6794 4086 2 MP stroke
-190 89 6897 4086 2 MP stroke
-206 82 7001 4086 2 MP stroke
-228 74 7104 4086 2 MP stroke
-235 64 7207 4086 2 MP stroke
-206 68 7310 4086 2 MP stroke
-115 50 7413 4086 2 MP stroke
-24 0 7517 4086 2 MP stroke
7620 4086 PD
7723 4086 PD
7826 4086 PD
7929 4086 PD
3802 3828 PD
2 177 3905 3828 2 MP stroke
3 190 4008 3828 2 MP stroke
0 187 4112 3828 2 MP stroke
0 185 4215 3828 2 MP stroke
3 181 4318 3828 2 MP stroke
6 179 4421 3828 2 MP stroke
2 177 4524 3828 2 MP stroke
3 176 4627 3828 2 MP stroke
5 175 4731 3828 2 MP stroke
3 172 4834 3828 2 MP stroke
3 170 4937 3828 2 MP stroke
1 168 5040 3828 2 MP stroke
0 166 5143 3828 2 MP stroke
1 164 5247 3828 2 MP stroke
-2 162 5350 3828 2 MP stroke
-4 160 5453 3828 2 MP stroke
-1 157 5556 3828 2 MP stroke
-8 154 5659 3828 2 MP stroke
-17 150 5762 3828 2 MP stroke
-24 145 5866 3828 2 MP stroke
-45 141 5969 3828 2 MP stroke
-64 136 6072 3828 2 MP stroke
-80 131 6175 3828 2 MP stroke
-97 126 6278 3828 2 MP stroke
-109 121 6382 3828 2 MP stroke
-122 115 6485 3828 2 MP stroke
-143 109 6588 3828 2 MP stroke
-162 103 6691 3828 2 MP stroke
-176 96 6794 3828 2 MP stroke
-190 89 6897 3828 2 MP stroke
-206 82 7001 3828 2 MP stroke
-228 74 7104 3828 2 MP stroke
-235 64 7207 3828 2 MP stroke
-206 68 7310 3828 2 MP stroke
-115 50 7413 3828 2 MP stroke
-24 0 7517 3828 2 MP stroke
7620 3828 PD
7723 3828 PD
7826 3828 PD
7929 3828 PD
3802 3570 PD
2 177 3905 3570 2 MP stroke
3 190 4008 3570 2 MP stroke
0 187 4112 3570 2 MP stroke
0 185 4215 3570 2 MP stroke
3 181 4318 3570 2 MP stroke
6 179 4421 3570 2 MP stroke
2 177 4524 3570 2 MP stroke
3 176 4627 3570 2 MP stroke
5 175 4731 3570 2 MP stroke
3 172 4834 3570 2 MP stroke
3 170 4937 3570 2 MP stroke
1 168 5040 3570 2 MP stroke
0 166 5143 3570 2 MP stroke
1 164 5247 3570 2 MP stroke
-2 162 5350 3570 2 MP stroke
-4 160 5453 3570 2 MP stroke
-1 157 5556 3570 2 MP stroke
-8 154 5659 3570 2 MP stroke
-17 150 5762 3570 2 MP stroke
-24 145 5866 3570 2 MP stroke
-45 141 5969 3570 2 MP stroke
-64 136 6072 3570 2 MP stroke
-80 131 6175 3570 2 MP stroke
-97 126 6278 3570 2 MP stroke
-109 121 6382 3570 2 MP stroke
-122 115 6485 3570 2 MP stroke
-143 109 6588 3570 2 MP stroke
-162 103 6691 3570 2 MP stroke
-176 96 6794 3570 2 MP stroke
-190 89 6897 3570 2 MP stroke
-206 82 7001 3570 2 MP stroke
-228 74 7104 3570 2 MP stroke
-235 64 7207 3570 2 MP stroke
-206 68 7310 3570 2 MP stroke
-115 50 7413 3570 2 MP stroke
-24 0 7517 3570 2 MP stroke
7620 3570 PD
7723 3570 PD
7826 3570 PD
7929 3570 PD
3802 3312 PD
2 177 3905 3312 2 MP stroke
3 190 4008 3312 2 MP stroke
0 187 4112 3312 2 MP stroke
0 185 4215 3312 2 MP stroke
3 181 4318 3312 2 MP stroke
6 179 4421 3312 2 MP stroke
2 177 4524 3312 2 MP stroke
3 176 4627 3312 2 MP stroke
5 175 4731 3312 2 MP stroke
3 172 4834 3312 2 MP stroke
3 170 4937 3312 2 MP stroke
2 168 5040 3312 2 MP stroke
0 166 5143 3312 2 MP stroke
1 164 5247 3312 2 MP stroke
-2 162 5350 3312 2 MP stroke
-4 160 5453 3312 2 MP stroke
-1 157 5556 3312 2 MP stroke
-8 154 5659 3312 2 MP stroke
-17 150 5762 3312 2 MP stroke
-24 145 5866 3312 2 MP stroke
-45 141 5969 3312 2 MP stroke
-64 136 6072 3312 2 MP stroke
-80 131 6175 3312 2 MP stroke
-97 126 6278 3312 2 MP stroke
-109 121 6382 3312 2 MP stroke
-122 115 6485 3312 2 MP stroke
-143 110 6588 3312 2 MP stroke
-162 103 6691 3312 2 MP stroke
-176 96 6794 3312 2 MP stroke
-190 89 6897 3312 2 MP stroke
-206 82 7001 3312 2 MP stroke
-228 74 7104 3312 2 MP stroke
-235 64 7207 3312 2 MP stroke
-206 68 7310 3312 2 MP stroke
-115 50 7413 3312 2 MP stroke
-24 0 7517 3312 2 MP stroke
7620 3312 PD
7723 3312 PD
7826 3312 PD
7929 3312 PD
3802 3054 PD
2 177 3905 3054 2 MP stroke
3 190 4008 3054 2 MP stroke
0 187 4112 3054 2 MP stroke
0 185 4215 3054 2 MP stroke
3 181 4318 3054 2 MP stroke
6 179 4421 3054 2 MP stroke
2 177 4524 3054 2 MP stroke
3 176 4627 3054 2 MP stroke
5 175 4731 3054 2 MP stroke
3 173 4834 3054 2 MP stroke
3 170 4937 3054 2 MP stroke
2 168 5040 3054 2 MP stroke
0 166 5143 3054 2 MP stroke
1 164 5247 3054 2 MP stroke
-2 162 5350 3054 2 MP stroke
-4 160 5453 3054 2 MP stroke
-1 157 5556 3054 2 MP stroke
-8 154 5659 3054 2 MP stroke
-17 150 5762 3054 2 MP stroke
-24 145 5866 3054 2 MP stroke
-45 141 5969 3054 2 MP stroke
-64 136 6072 3054 2 MP stroke
-80 131 6175 3054 2 MP stroke
-97 126 6278 3054 2 MP stroke
-109 121 6382 3054 2 MP stroke
-122 116 6485 3054 2 MP stroke
-143 110 6588 3054 2 MP stroke
-162 103 6691 3054 2 MP stroke
-176 96 6794 3054 2 MP stroke
-190 89 6897 3054 2 MP stroke
-206 82 7001 3054 2 MP stroke
-228 74 7104 3054 2 MP stroke
-235 64 7207 3054 2 MP stroke
-206 68 7310 3054 2 MP stroke
-115 51 7413 3054 2 MP stroke
-24 0 7517 3054 2 MP stroke
7620 3054 PD
7723 3054 PD
7826 3054 PD
7929 3054 PD
3802 2796 PD
2 177 3905 2796 2 MP stroke
3 190 4008 2796 2 MP stroke
0 188 4112 2796 2 MP stroke
0 185 4215 2796 2 MP stroke
3 181 4318 2796 2 MP stroke
6 179 4421 2796 2 MP stroke
2 177 4524 2796 2 MP stroke
3 176 4627 2796 2 MP stroke
5 175 4731 2796 2 MP stroke
3 173 4834 2796 2 MP stroke
3 170 4937 2796 2 MP stroke
2 168 5040 2796 2 MP stroke
0 166 5143 2796 2 MP stroke
1 164 5247 2796 2 MP stroke
-2 162 5350 2796 2 MP stroke
-4 160 5453 2796 2 MP stroke
-1 157 5556 2796 2 MP stroke
-8 154 5659 2796 2 MP stroke
-17 150 5762 2796 2 MP stroke
-24 145 5866 2796 2 MP stroke
-45 141 5969 2796 2 MP stroke
-64 136 6072 2796 2 MP stroke
-80 131 6175 2796 2 MP stroke
-97 126 6278 2796 2 MP stroke
-109 121 6382 2796 2 MP stroke
-122 116 6485 2796 2 MP stroke
-142 110 6588 2796 2 MP stroke
-162 103 6691 2796 2 MP stroke
-176 96 6794 2796 2 MP stroke
-190 89 6897 2796 2 MP stroke
-206 82 7001 2796 2 MP stroke
-228 74 7104 2796 2 MP stroke
-235 64 7207 2796 2 MP stroke
-206 68 7310 2796 2 MP stroke
-115 51 7413 2796 2 MP stroke
-24 0 7517 2796 2 MP stroke
7620 2796 PD
7723 2796 PD
7826 2796 PD
7929 2796 PD
3802 2538 PD
2 177 3905 2538 2 MP stroke
3 190 4008 2538 2 MP stroke
0 188 4112 2538 2 MP stroke
0 185 4215 2538 2 MP stroke
3 182 4318 2538 2 MP stroke
6 179 4421 2538 2 MP stroke
2 177 4524 2538 2 MP stroke
3 176 4627 2538 2 MP stroke
5 175 4731 2538 2 MP stroke
3 173 4834 2538 2 MP stroke
3 170 4937 2538 2 MP stroke
2 168 5040 2538 2 MP stroke
0 166 5143 2538 2 MP stroke
1 164 5247 2538 2 MP stroke
-2 162 5350 2538 2 MP stroke
-4 160 5453 2538 2 MP stroke
-1 157 5556 2538 2 MP stroke
-8 154 5659 2538 2 MP stroke
-17 150 5762 2538 2 MP stroke
-24 145 5866 2538 2 MP stroke
-45 141 5969 2538 2 MP stroke
-64 136 6072 2538 2 MP stroke
-81 131 6175 2538 2 MP stroke
-97 126 6278 2538 2 MP stroke
-109 121 6382 2538 2 MP stroke
-122 116 6485 2538 2 MP stroke
-142 110 6588 2538 2 MP stroke
-162 103 6691 2538 2 MP stroke
-176 97 6794 2538 2 MP stroke
-190 89 6897 2538 2 MP stroke
-206 82 7001 2538 2 MP stroke
-228 74 7104 2538 2 MP stroke
-235 64 7207 2538 2 MP stroke
-206 68 7310 2538 2 MP stroke
-115 51 7413 2538 2 MP stroke
-24 0 7517 2538 2 MP stroke
7620 2538 PD
7723 2538 PD
7826 2538 PD
7929 2538 PD
3802 2280 PD
2 177 3905 2280 2 MP stroke
3 190 4008 2280 2 MP stroke
0 188 4112 2280 2 MP stroke
0 185 4215 2280 2 MP stroke
3 182 4318 2280 2 MP stroke
6 179 4421 2280 2 MP stroke
2 177 4524 2280 2 MP stroke
3 176 4627 2280 2 MP stroke
5 175 4731 2280 2 MP stroke
3 173 4834 2280 2 MP stroke
3 170 4937 2280 2 MP stroke
2 168 5040 2280 2 MP stroke
0 166 5143 2280 2 MP stroke
1 164 5247 2280 2 MP stroke
-2 162 5350 2280 2 MP stroke
-4 160 5453 2280 2 MP stroke
-1 157 5556 2280 2 MP stroke
-8 154 5659 2280 2 MP stroke
-17 150 5762 2280 2 MP stroke
-24 145 5866 2280 2 MP stroke
-45 141 5969 2280 2 MP stroke
-64 136 6072 2280 2 MP stroke
-81 131 6175 2280 2 MP stroke
-97 126 6278 2280 2 MP stroke
-109 121 6382 2280 2 MP stroke
-122 116 6485 2280 2 MP stroke
-142 110 6588 2280 2 MP stroke
-162 103 6691 2280 2 MP stroke
-176 97 6794 2280 2 MP stroke
-190 89 6897 2280 2 MP stroke
-206 82 7001 2280 2 MP stroke
-228 75 7104 2280 2 MP stroke
-235 64 7207 2280 2 MP stroke
-206 68 7310 2280 2 MP stroke
-115 51 7413 2280 2 MP stroke
-24 0 7517 2280 2 MP stroke
7620 2280 PD
7723 2280 PD
7826 2280 PD
7929 2280 PD
3802 2022 PD
2 177 3905 2022 2 MP stroke
3 190 4008 2022 2 MP stroke
0 188 4112 2022 2 MP stroke
0 185 4215 2022 2 MP stroke
3 182 4318 2022 2 MP stroke
6 179 4421 2022 2 MP stroke
2 177 4524 2022 2 MP stroke
3 176 4627 2022 2 MP stroke
5 175 4731 2022 2 MP stroke
3 173 4834 2022 2 MP stroke
3 170 4937 2022 2 MP stroke
2 168 5040 2022 2 MP stroke
0 167 5143 2022 2 MP stroke
1 164 5247 2022 2 MP stroke
-2 163 5350 2022 2 MP stroke
-4 160 5453 2022 2 MP stroke
-1 157 5556 2022 2 MP stroke
-8 154 5659 2022 2 MP stroke
-17 150 5762 2022 2 MP stroke
-24 146 5866 2022 2 MP stroke
-45 141 5969 2022 2 MP stroke
-64 136 6072 2022 2 MP stroke
-81 131 6175 2022 2 MP stroke
-97 126 6278 2022 2 MP stroke
-109 121 6382 2022 2 MP stroke
-122 116 6485 2022 2 MP stroke
-142 110 6588 2022 2 MP stroke
-162 103 6691 2022 2 MP stroke
-176 97 6794 2022 2 MP stroke
-190 89 6897 2022 2 MP stroke
-206 82 7001 2022 2 MP stroke
-228 75 7104 2022 2 MP stroke
-235 65 7207 2022 2 MP stroke
-206 68 7310 2022 2 MP stroke
-115 51 7413 2022 2 MP stroke
-24 0 7517 2022 2 MP stroke
7620 2022 PD
7723 2022 PD
7826 2022 PD
7929 2022 PD
3802 1764 PD
2 177 3905 1764 2 MP stroke
3 191 4008 1764 2 MP stroke
0 188 4112 1764 2 MP stroke
0 185 4215 1764 2 MP stroke
3 182 4318 1764 2 MP stroke
6 179 4421 1764 2 MP stroke
2 177 4524 1764 2 MP stroke
3 176 4627 1764 2 MP stroke
5 175 4731 1764 2 MP stroke
3 173 4834 1764 2 MP stroke
3 170 4937 1764 2 MP stroke
2 168 5040 1764 2 MP stroke
0 167 5143 1764 2 MP stroke
1 165 5247 1764 2 MP stroke
-2 163 5350 1764 2 MP stroke
-4 160 5453 1764 2 MP stroke
-1 157 5556 1764 2 MP stroke
-8 154 5659 1764 2 MP stroke
-17 150 5762 1764 2 MP stroke
-24 146 5866 1764 2 MP stroke
-45 141 5969 1764 2 MP stroke
-64 137 6072 1764 2 MP stroke
-81 131 6175 1764 2 MP stroke
-97 126 6278 1764 2 MP stroke
-109 121 6382 1764 2 MP stroke
-122 116 6485 1764 2 MP stroke
-142 110 6588 1764 2 MP stroke
-162 103 6691 1764 2 MP stroke
-176 97 6794 1764 2 MP stroke
-190 90 6897 1764 2 MP stroke
-206 82 7001 1764 2 MP stroke
-228 75 7104 1764 2 MP stroke
-235 65 7207 1764 2 MP stroke
-206 68 7310 1764 2 MP stroke
-115 51 7413 1764 2 MP stroke
-24 0 7517 1764 2 MP stroke
7620 1764 PD
7723 1764 PD
7826 1764 PD
7929 1764 PD
3802 1506 PD
2 177 3905 1506 2 MP stroke
3 191 4008 1506 2 MP stroke
0 188 4112 1506 2 MP stroke
0 185 4215 1506 2 MP stroke
3 182 4318 1506 2 MP stroke
6 179 4421 1506 2 MP stroke
2 177 4524 1506 2 MP stroke
3 176 4627 1506 2 MP stroke
5 175 4731 1506 2 MP stroke
3 173 4834 1506 2 MP stroke
3 170 4937 1506 2 MP stroke
2 168 5040 1506 2 MP stroke
0 167 5143 1506 2 MP stroke
1 165 5247 1506 2 MP stroke
-2 163 5350 1506 2 MP stroke
-4 160 5453 1506 2 MP stroke
-1 158 5556 1506 2 MP stroke
-8 154 5659 1506 2 MP stroke
-17 150 5762 1506 2 MP stroke
-24 146 5866 1506 2 MP stroke
-45 141 5969 1506 2 MP stroke
-64 137 6072 1506 2 MP stroke
-81 132 6175 1506 2 MP stroke
-97 126 6278 1506 2 MP stroke
-109 121 6382 1506 2 MP stroke
-122 116 6485 1506 2 MP stroke
-142 110 6588 1506 2 MP stroke
-162 104 6691 1506 2 MP stroke
-176 97 6794 1506 2 MP stroke
-190 90 6897 1506 2 MP stroke
-206 82 7001 1506 2 MP stroke
-228 75 7104 1506 2 MP stroke
-235 65 7207 1506 2 MP stroke
-206 68 7310 1506 2 MP stroke
-115 51 7413 1506 2 MP stroke
-24 0 7517 1506 2 MP stroke
7620 1506 PD
7723 1506 PD
7826 1506 PD
7929 1506 PD
3802 1248 PD
2 177 3905 1248 2 MP stroke
3 191 4008 1248 2 MP stroke
0 188 4112 1248 2 MP stroke
0 185 4215 1248 2 MP stroke
3 182 4318 1248 2 MP stroke
6 179 4421 1248 2 MP stroke
2 177 4524 1248 2 MP stroke
3 176 4627 1248 2 MP stroke
5 175 4731 1248 2 MP stroke
3 173 4834 1248 2 MP stroke
3 170 4937 1248 2 MP stroke
2 169 5040 1248 2 MP stroke
0 167 5143 1248 2 MP stroke
1 165 5247 1248 2 MP stroke
-2 163 5350 1248 2 MP stroke
-4 160 5453 1248 2 MP stroke
-1 158 5556 1248 2 MP stroke
-8 154 5659 1248 2 MP stroke
-17 150 5762 1248 2 MP stroke
-24 146 5866 1248 2 MP stroke
-45 141 5969 1248 2 MP stroke
-64 137 6072 1248 2 MP stroke
-81 132 6175 1248 2 MP stroke
-97 126 6278 1248 2 MP stroke
-109 121 6382 1248 2 MP stroke
-122 116 6485 1248 2 MP stroke
-142 110 6588 1248 2 MP stroke
-162 104 6691 1248 2 MP stroke
-176 97 6794 1248 2 MP stroke
-190 90 6897 1248 2 MP stroke
-206 82 7001 1248 2 MP stroke
-228 75 7104 1248 2 MP stroke
-235 65 7207 1248 2 MP stroke
-206 68 7310 1248 2 MP stroke
-115 51 7413 1248 2 MP stroke
-24 0 7517 1248 2 MP stroke
7620 1248 PD
7723 1248 PD
7826 1248 PD
7929 1248 PD
3802 990 PD
2 177 3905 990 2 MP stroke
3 191 4008 990 2 MP stroke
0 188 4112 990 2 MP stroke
0 185 4215 990 2 MP stroke
3 182 4318 990 2 MP stroke
6 179 4421 990 2 MP stroke
2 177 4524 990 2 MP stroke
3 176 4627 990 2 MP stroke
5 175 4731 990 2 MP stroke
3 173 4834 990 2 MP stroke
3 170 4937 990 2 MP stroke
2 169 5040 990 2 MP stroke
0 167 5143 990 2 MP stroke
1 165 5247 990 2 MP stroke
-2 163 5350 990 2 MP stroke
-4 161 5453 990 2 MP stroke
-1 158 5556 990 2 MP stroke
-8 154 5659 990 2 MP stroke
-17 150 5762 990 2 MP stroke
-24 146 5866 990 2 MP stroke
-45 141 5969 990 2 MP stroke
-64 137 6072 990 2 MP stroke
-81 132 6175 990 2 MP stroke
-97 126 6278 990 2 MP stroke
-109 121 6382 990 2 MP stroke
-122 116 6485 990 2 MP stroke
-142 110 6588 990 2 MP stroke
-162 104 6691 990 2 MP stroke
-176 97 6794 990 2 MP stroke
-190 90 6897 990 2 MP stroke
-206 82 7001 990 2 MP stroke
-228 75 7104 990 2 MP stroke
-235 65 7207 990 2 MP stroke
-206 68 7310 990 2 MP stroke
-115 51 7413 990 2 MP stroke
-24 0 7517 990 2 MP stroke
7620 990 PD
7723 990 PD
7826 990 PD
7929 990 PD
3802 732 PD
2 177 3905 732 2 MP stroke
3 191 4008 732 2 MP stroke
0 188 4112 732 2 MP stroke
0 185 4215 732 2 MP stroke
3 182 4318 732 2 MP stroke
6 179 4421 732 2 MP stroke
2 177 4524 732 2 MP stroke
3 176 4627 732 2 MP stroke
5 175 4731 732 2 MP stroke
3 173 4834 732 2 MP stroke
3 170 4937 732 2 MP stroke
2 169 5040 732 2 MP stroke
0 167 5143 732 2 MP stroke
1 165 5247 732 2 MP stroke
-2 163 5350 732 2 MP stroke
-4 161 5453 732 2 MP stroke
-1 158 5556 732 2 MP stroke
-8 154 5659 732 2 MP stroke
-17 150 5762 732 2 MP stroke
-24 146 5866 732 2 MP stroke
-45 141 5969 732 2 MP stroke
-64 137 6072 732 2 MP stroke
-81 132 6175 732 2 MP stroke
-97 127 6278 732 2 MP stroke
-109 121 6382 732 2 MP stroke
-122 116 6485 732 2 MP stroke
-142 110 6588 732 2 MP stroke
-162 104 6691 732 2 MP stroke
-176 97 6794 732 2 MP stroke
-190 90 6897 732 2 MP stroke
-206 82 7001 732 2 MP stroke
-228 75 7104 732 2 MP stroke
-235 65 7207 732 2 MP stroke
-206 68 7310 732 2 MP stroke
-115 51 7413 732 2 MP stroke
-24 0 7517 732 2 MP stroke
7620 732 PD
7723 732 PD
7826 732 PD
7929 732 PD
3802 475 PD
2 176 3905 475 2 MP stroke
3 190 4008 475 2 MP stroke
0 187 4112 475 2 MP stroke
0 184 4215 475 2 MP stroke
3 181 4318 475 2 MP stroke
6 178 4421 475 2 MP stroke
2 176 4524 475 2 MP stroke
3 175 4627 475 2 MP stroke
5 174 4731 475 2 MP stroke
3 172 4834 475 2 MP stroke
3 169 4937 475 2 MP stroke
2 168 5040 475 2 MP stroke
0 166 5143 475 2 MP stroke
1 164 5247 475 2 MP stroke
-2 162 5350 475 2 MP stroke
-4 160 5453 475 2 MP stroke
-1 157 5556 475 2 MP stroke
-8 154 5659 475 2 MP stroke
-17 149 5762 475 2 MP stroke
-24 145 5866 475 2 MP stroke
-45 141 5969 475 2 MP stroke
-64 136 6072 475 2 MP stroke
-81 131 6175 475 2 MP stroke
-97 126 6278 475 2 MP stroke
-109 120 6382 475 2 MP stroke
-122 115 6485 475 2 MP stroke
-142 109 6588 475 2 MP stroke
-162 103 6691 475 2 MP stroke
-176 96 6794 475 2 MP stroke
-190 89 6897 475 2 MP stroke
-206 81 7001 475 2 MP stroke
-228 74 7104 475 2 MP stroke
-235 64 7207 475 2 MP stroke
-206 68 7310 475 2 MP stroke
-115 50 7413 475 2 MP stroke
-24 0 7517 475 2 MP stroke
7620 475 PD
7723 475 PD
7826 475 PD
7929 475 PD
gr

c17
4 w
DO
0 sg
1738 5634 mt 1738  475 L
1738  475 mt 1738  475 L
2770 5634 mt 2770  475 L
2770  475 mt 2770  475 L
3802 5634 mt 3802  475 L
3802  475 mt 3802  475 L
4834 5634 mt 4834  475 L
4834  475 mt 4834  475 L
5866 5634 mt 5866  475 L
5866  475 mt 5866  475 L
6897 5634 mt 6897  475 L
6897  475 mt 6897  475 L
7929 5634 mt 7929  475 L
7929  475 mt 7929  475 L
8961 5634 mt 8961  475 L
8961  475 mt 8961  475 L
1500 5634 mt 9808 5634 L
9808 5634 mt 9808 5634 L
1500 5118 mt 9808 5118 L
9808 5118 mt 9808 5118 L
1500 4602 mt 9808 4602 L
9808 4602 mt 9808 4602 L
1500 4086 mt 9808 4086 L
9808 4086 mt 9808 4086 L
1500 3570 mt 9808 3570 L
9808 3570 mt 9808 3570 L
1500 3054 mt 9808 3054 L
9808 3054 mt 9808 3054 L
1500 2538 mt 9808 2538 L
9808 2538 mt 9808 2538 L
1500 2022 mt 9808 2022 L
9808 2022 mt 9808 2022 L
1500 1506 mt 9808 1506 L
9808 1506 mt 9808 1506 L
1500  990 mt 9808  990 L
9808  990 mt 9808  990 L
1500  475 mt 9808  475 L
9808  475 mt 9808  475 L
SO
6 w
1500  475 mt 9808  475 L
1500 5634 mt 9808 5634 L
9808 5634 mt 9808  475 L
1500 5634 mt 1500  475 L
1500 5634 mt 9808 5634 L
1500 5634 mt 1500  475 L
1738 5634 mt 1738 5550 L
1738  475 mt 1738  558 L
1568 5779 mt 
(-200) s
2770 5634 mt 2770 5550 L
2770  475 mt 2770  558 L
2600 5779 mt 
(-100) s
3802 5634 mt 3802 5550 L
3802  475 mt 3802  558 L
3769 5779 mt 
(0) s
4834 5634 mt 4834 5550 L
4834  475 mt 4834  558 L
4734 5779 mt 
(100) s
5866 5634 mt 5866 5550 L
5866  475 mt 5866  558 L
5766 5779 mt 
(200) s
6897 5634 mt 6897 5550 L
6897  475 mt 6897  558 L
6797 5779 mt 
(300) s
7929 5634 mt 7929 5550 L
7929  475 mt 7929  558 L
7829 5779 mt 
(400) s
8961 5634 mt 8961 5550 L
8961  475 mt 8961  558 L
8861 5779 mt 
(500) s
1500 5634 mt 1583 5634 L
9808 5634 mt 9725 5634 L
1399 5678 mt 
(0) s
1500 5118 mt 1583 5118 L
9808 5118 mt 9725 5118 L
1332 5162 mt 
(50) s
1500 4602 mt 1583 4602 L
9808 4602 mt 9725 4602 L
1265 4646 mt 
(100) s
1500 4086 mt 1583 4086 L
9808 4086 mt 9725 4086 L
1265 4130 mt 
(150) s
1500 3570 mt 1583 3570 L
9808 3570 mt 9725 3570 L
1265 3614 mt 
(200) s
1500 3054 mt 1583 3054 L
9808 3054 mt 9725 3054 L
1265 3098 mt 
(250) s
1500 2538 mt 1583 2538 L
9808 2538 mt 9725 2538 L
1265 2582 mt 
(300) s
1500 2022 mt 1583 2022 L
9808 2022 mt 9725 2022 L
1265 2066 mt 
(350) s
1500 1506 mt 1583 1506 L
9808 1506 mt 9725 1506 L
1265 1550 mt 
(400) s
1500  990 mt 1583  990 L
9808  990 mt 9725  990 L
1265 1034 mt 
(450) s
1500  475 mt 1583  475 L
9808  475 mt 9725  475 L
1265  519 mt 
(500) s
1500  475 mt 9808  475 L
1500 5634 mt 9808 5634 L
9808 5634 mt 9808  475 L
1500 5634 mt 1500  475 L
1 sg
0 5160 240 0 0 -5160 10013 5635 4 MP
PP
-240 0 0 5160 240 0 0 -5160 10013 5635 5 MP stroke
gs 10013 475 241 5161 rc
/mwscm { [/Indexed /DeviceRGB 63
  <
    00008f 00009f 0000af 0000bf 0000cf 0000df 0000ef 0000ff 000fff 001fff 
    002fff 003fff 004fff 005fff 006fff 007fff 008fff 009fff 00afff 00bfff 
    00cfff 00dfff 00efff 00ffff 0fffef 1fffdf 2fffcf 3fffbf 4fffaf 5fff9f 
    6fff8f 7fff7f 8fff6f 9fff5f afff4f bfff3f cfff2f dfff1f efff0f ffff00 
    ffef00 ffdf00 ffcf00 ffbf00 ffaf00 ff9f00 ff8f00 ff7f00 ff6f00 ff5f00 
    ff4f00 ff3f00 ff2f00 ff1f00 ff0f00 ff0000 ef0000 df0000 cf0000 bf0000 
    af0000 9f0000 8f0000 7f0000 
  >
] setcolorspace } bdef mwscm
gs np 10013 475 mt 0 5160 rl 240 0 rl 0 -5160 rl cp c np
[240 0 0 5160 10013 475] cc
<< % Image dictionary
  /ImageType 1
  /Width 1 /Height 64
  /BitsPerComponent 8
  /Decode [0 255]
  /ImageMatrix [1.000000 0 0 64.000000 0 0]
  /DataSource currentfile
  /ASCII85Decode filter
  /RunLengthDecode filter
>>
image
5<h=p4?GSa3&``Q1c$mA0J>%1/1W2!-mp>f,U4KV+<MXF*#fe6(`*r&'GD)k&.]6[$k!CK#R:P;"9S]+
!.Y
~>
gr
gr

4 w
DO
SO
6 w
0 sg
10013  475 mt 10253  475 L
10013 5635 mt 10253 5635 L
10253 5635 mt 10253  475 L
10013 5635 mt 10013  475 L
10013 5635 mt 10253 5635 L
10253 5635 mt 10253  475 L
10253 5635 mt 10201 5635 L
10013 5635 mt 10064 5635 L
10287 5679 mt 
(-0.5) s
10253 4603 mt 10201 4603 L
10013 4603 mt 10064 4603 L
10287 4647 mt 
(0) s
10253 3571 mt 10201 3571 L
10013 3571 mt 10064 3571 L
10287 3615 mt 
(0.5) s
10253 2539 mt 10201 2539 L
10013 2539 mt 10064 2539 L
10287 2583 mt 
(1) s
10253 1507 mt 10201 1507 L
10013 1507 mt 10064 1507 L
10287 1551 mt 
(1.5) s
10253  475 mt 10201  475 L
10013  475 mt 10064  475 L
10287  519 mt 
(2) s
10013  475 mt 10253  475 L
10013 5635 mt 10253 5635 L
10253 5635 mt 10253  475 L
10013 5635 mt 10013  475 L

end %%Color Dict

eplot
%%EndObject

epage
end

showpage

%%Trailer
%%EOF
