# Co-ordinates of shoreline in a test
# Straight shoreline w/o bank 0.5 m
# Use flexible grid

   24  357.3  355.0  355.0  355.0  355.0  355.0  355.0  355.0  355.0  355.0  355.0  355.0  355.0  355.0  355.0  355.0  355.0  355.0  355.0  355.0  355.0  355.0  355.0  355.0  355.0  355.0  355.0  355.0  355.0  355.0  355.0  355.0  355.0  355.0  355.0  355.0  355.0  355.0  356.5  352.4  350.0
   26  357.7  355.0  355.0  355.0  355.0  355.0  355.0  355.0  355.0  355.0  355.0  355.0  355.0  355.0  355.0  355.0  355.0  355.0  355.0  355.0  355.0  355.0  355.0  355.0  355.0  355.0  355.0  355.0  355.0  355.0  355.0  355.0  355.0  355.0  355.0  355.0  355.0  355.0  356.6  352.5  350.0
   28  358.1  355.0  355.0  355.0  355.0  355.0  355.0  355.0  355.0  355.0  355.0  355.0  355.0  355.0  355.0  355.0  355.0  355.0  355.0  355.0  355.0  355.0  355.0  355.0  355.0  355.0  355.0  355.0  355.0  355.0  355.0  355.0  355.0  355.0  355.0  355.0  355.0  355.0  356.7  352.7  350.0
   30  358.5  355.0  355.0  355.0  355.0  355.0  355.0  355.0  355.0  355.0  355.0  355.0  355.0  355.0  355.0  355.0  355.0  355.0  355.0  355.0  355.0  355.0  355.0  355.0  355.0  355.0  355.0  355.0  355.0  355.0  355.0  355.0  355.0  355.0  355.0  355.0  355.0  355.0  356.9  352.8  350.0
   32  358.9  355.0  355.0  355.0  355.0  355.0  355.0  355.0  355.0  355.0  355.0  355.0  355.0  355.0  355.0  355.0  355.0  355.0  355.0  355.0  355.0  355.0  355.0  355.0  355.0  355.0  355.0  355.0  355.0  355.0  355.0  355.0  355.0  355.0  355.0  355.0  355.0  355.0  357.0  352.9  350.0
   34  359.4  355.0  355.0  355.0  355.0  355.0  355.0  355.0  355.0  355.0  355.0  355.0  355.0  355.0  355.0  355.0  355.0  355.0  355.0  355.0  355.0  355.0  355.0  355.0  355.0  355.0  355.0  355.0  355.0  355.0  355.0  355.0  355.0  355.0  355.0  355.0  355.0  355.0  357.1  353.1  350.0
   36  359.8  355.0  355.0  355.0  355.0  355.0  355.0  355.0  355.0  355.0  355.0  355.0  355.0  355.0  355.0  355.0  355.0  355.0  355.0  355.0  355.0  355.0  355.0  355.0  355.0  355.0  355.0  355.0  355.0  355.0  355.0  355.0  355.0  355.0  355.0  355.0  355.0  355.0  357.2  353.2  350.0
   38  360.3  355.0  355.0  355.0  355.0  355.0  355.0  355.0  355.0  355.0  355.0  355.0  355.0  355.0  355.0  355.0  355.0  355.0  355.0  355.0  355.0  355.0  355.0  355.0  355.0  355.0  355.0  355.0  355.0  355.0  355.0  355.0  355.0  355.0  355.0  355.0  355.0  355.0  357.3  353.3  350.0
   40  360.8  355.0  355.0  355.0  355.0  355.0  355.0  355.0  355.0  355.0  355.0  355.0  355.0  355.0  355.0  355.0  355.0  355.0  355.0  355.0  355.0  355.0  355.0  355.0  355.0  355.0  355.0  355.0  355.0  355.0  355.0  355.0  355.0  355.0  355.0  355.0  355.0  355.0  357.4  353.4  350.0
   42  361.2  355.0  355.0  355.0  355.0  355.0  355.0  355.0  355.0  355.0  355.0  355.0  355.0  355.0  355.0  355.0  355.0  355.0  355.0  355.0  355.0  355.0  355.0  355.0  355.0  355.0  355.0  355.0  355.0  355.0  355.0  355.0  355.0  355.0  355.0  355.0  355.0  355.0  357.5  353.5  350.0
   44  361.7  355.0  355.0  355.0  355.0  355.0  355.0  355.0  355.0  355.0  355.0  355.0  355.0  355.0  355.0  355.0  355.0  355.0  355.0  355.0  355.0  355.0  355.0  355.0  355.0  355.0  355.0  355.0  355.0  355.0  355.0  355.0  355.0  355.0  355.0  355.0  355.0  355.0  357.6  353.6  350.0
   46  362.2  355.0  355.0  355.0  355.0  355.0  355.0  355.0  355.0  355.0  355.0  355.0  355.0  355.0  355.0  355.0  355.0  355.0  355.0  355.0  355.0  355.0  355.0  355.0  355.0  355.0  355.0  355.0  355.0  355.0  355.0  355.0  355.0  355.0  355.0  355.0  355.0  355.0  357.7  353.7  350.0
   48  362.8  355.0  355.0  355.0  355.0  355.0  355.0  355.0  355.0  355.0  355.0  355.0  355.0  355.0  355.0  355.0  355.0  355.0  355.0  355.0  355.0  355.0  355.0  355.0  355.0  355.0  355.0  355.0  355.0  355.0  355.0  355.0  355.0  355.0  355.0  355.0  355.0  355.0  357.8  353.7  350.0
   50  363.3  355.0  355.0  355.0  355.0  355.0  355.0  355.0  355.0  355.0  355.0  355.0  355.0  355.0  355.0  355.0  355.0  355.0  355.0  355.0  355.0  355.0  355.0  355.0  355.0  355.0  355.0  355.0  355.0  355.0  355.0  355.0  355.0  355.0  355.0  355.0  355.0  355.0  357.9  353.8  350.0
   52  363.8  355.0  355.0  355.0  355.0  355.0  355.0  355.0  355.0  355.0  355.0  355.0  355.0  355.0  355.0  355.0  355.0  355.0  355.0  355.0  355.0  355.0  355.0  355.0  355.0  355.0  355.0  355.0  355.0  355.0  355.0  355.0  355.0  355.0  355.0  355.0  355.0  355.0  357.9  353.9  350.0
   54  364.3  355.0  355.0  355.0  355.0  355.0  355.0  355.0  355.0  355.0  355.0  355.0  355.0  355.0  355.0  355.0  355.0  355.0  355.0  355.0  355.0  355.0  355.0  355.0  355.0  355.0  355.0  355.0  355.0  355.0  355.0  355.0  355.0  355.0  355.0  355.0  355.0  355.0  358.0  354.0  350.0
   56  364.8  355.1  355.0  355.0  355.0  355.0  355.0  355.0  355.0  355.0  355.0  355.0  355.0  355.0  355.0  355.0  355.0  355.0  355.0  355.0  355.0  355.0  355.0  355.0  355.0  355.0  355.0  355.0  355.0  355.0  355.0  355.0  355.0  355.0  355.0  355.0  355.0  355.0  358.1  354.0  350.0
   58  365.1  355.1  355.0  355.0  355.0  355.0  355.0  355.0  355.0  355.0  355.0  355.0  355.0  355.0  355.0  355.0  355.0  355.0  355.0  355.0  355.0  355.0  355.0  355.0  355.0  355.0  355.0  355.0  355.0  355.0  355.0  355.0  355.0  355.0  355.0  355.0  355.0  355.0  358.2  354.1  350.0
   60  365.1  355.1  355.0  355.0  355.0  355.0  355.0  355.0  355.0  355.0  355.0  355.0  355.0  355.0  355.0  355.0  355.0  355.0  355.0  355.0  355.0  355.0  355.0  355.0  355.0  355.0  355.0  355.0  355.0  355.0  355.0  355.0  355.0  355.0  355.0  355.0  355.0  355.0  358.2  354.2  350.0
   62  365.1  355.1  355.0  355.0  355.0  355.0  355.0  355.0  355.0  355.0  355.0  355.0  355.0  355.0  355.0  355.0  355.0  355.0  355.0  355.0  355.0  355.0  355.0  355.0  355.0  355.0  355.0  355.0  355.0  355.0  355.0  355.0  355.0  355.0  355.0  355.0  355.0  355.0  358.3  354.2  350.0
   64  365.1  355.2  355.0  355.0  355.0  355.0  355.0  355.0  355.0  355.0  355.0  355.0  355.0  355.0  355.0  355.0  355.0  355.0  355.0  355.0  355.0  355.0  355.0  355.0  355.0  355.0  355.0  355.0  355.0  355.0  355.0  355.0  355.0  355.0  355.0  355.0  355.0  355.0  358.3  354.3  350.0
   66  365.1  355.2  355.0  355.0  355.0  355.0  355.0  355.0  355.0  355.0  355.0  355.0  355.0  355.0  355.0  355.0  355.0  355.0  355.0  355.0  355.0  355.0  355.0  355.0  355.0  355.0  355.0  355.0  355.0  355.0  355.0  355.0  355.0  355.0  355.0  355.0  355.0  355.0  358.4  354.3  350.0
   68  365.1  355.2  355.0  355.0  355.0  355.0  355.0  355.0  355.0  355.0  355.0  355.0  355.0  355.0  355.0  355.0  355.0  355.0  355.0  355.0  355.0  355.0  355.0  355.0  355.0  355.0  355.0  355.0  355.0  355.0  355.0  355.0  355.0  355.0  355.0  355.0  355.0  355.0  358.5  354.4  350.0
   70  365.1  355.3  355.0  355.0  355.0  355.0  355.0  355.0  355.0  355.0  355.0  355.0  355.0  355.0  355.0  355.0  355.0  355.0  355.0  355.0  355.0  355.0  355.0  355.0  355.0  355.0  355.0  355.0  355.0  355.0  355.0  355.0  355.0  355.0  355.0  355.0  355.0  355.0  358.5  354.5  350.0
   72  365.1  355.4  355.1  355.0  355.0  355.0  355.0  355.0  355.0  355.0  355.0  355.0  355.0  355.0  355.0  355.0  355.0  355.0  355.0  355.0  355.0  355.0  355.0  355.0  355.0  355.0  355.0  355.0  355.0  355.0  355.0  355.0  355.0  355.0  355.0  355.0  355.0  355.0  358.7  354.6  350.0
   74  365.1  355.5  355.1  355.1  355.1  355.0  355.0  355.0  355.0  355.0  355.0  355.0  355.0  355.0  355.0  355.0  355.0  355.0  355.0  355.0  355.0  355.0  355.0  355.0  355.0  355.0  355.0  355.0  355.0  355.0  355.0  355.0  355.0  355.0  355.0  355.0  355.0  355.0  358.9  354.7  350.0
   76  365.1  355.7  355.3  355.3  355.2  355.1  355.0  355.0  355.0  355.0  355.0  355.0  355.0  355.0  355.0  355.0  355.0  355.0  355.0  355.0  355.0  355.0  355.0  355.0  355.0  355.0  355.0  355.0  355.0  355.0  355.0  355.0  355.0  355.0  355.0  355.0  355.0  355.0  359.2  354.8  350.0
   78  365.1  356.1  355.6  355.6  355.5  355.3  355.2  355.1  355.1  355.1  355.1  355.1  355.1  355.0  355.0  355.0  355.0  355.0  355.0  355.0  355.0  355.0  355.0  355.0  355.0  355.0  355.0  355.0  355.0  355.0  355.0  355.0  355.0  355.0  355.0  355.0  355.0  355.1  359.6  354.9  350.0
   80  365.2  356.6  356.1  356.1  355.9  355.7  355.5  355.4  355.3  355.3  355.2  355.2  355.2  355.2  355.2  355.2  355.2  355.2  355.2  355.2  355.2  355.2  355.2  355.2  355.2  355.2  355.2  355.2  355.2  355.2  355.2  355.2  355.2  355.2  355.2  355.2  355.1  355.3  360.0  355.0  350.0
   82  366.2  357.3  356.7  356.8  356.6  356.3  356.0  355.8  355.7  355.6  355.5  355.5  355.5  355.5  355.5  355.5  355.5  355.5  355.5  355.5  355.5  355.5  355.5  355.5  355.5  355.5  355.5  355.5  355.5  355.5  355.5  355.5  355.5  355.5  355.5  355.4  355.3  355.6  360.1  355.0  350.0
   84  367.3  358.2  357.5  357.7  357.4  357.0  356.6  356.4  356.2  356.1  356.0  355.9  355.9  355.9  355.9  355.9  355.8  355.8  355.8  355.8  355.8  355.8  355.8  355.8  355.8  355.8  355.8  355.8  355.8  355.8  355.8  355.8  355.8  355.8  355.8  355.8  355.7  356.0  360.4  355.0  350.0
   86  368.4  359.1  358.4  358.6  358.4  357.9  357.4  357.1  356.8  356.7  356.6  356.5  356.4  356.4  356.3  356.3  356.3  356.3  356.3  356.3  356.3  356.3  356.3  356.3  356.3  356.3  356.3  356.3  356.3  356.3  356.3  356.3  356.3  356.3  356.3  356.3  356.2  356.6  360.7  355.0  350.0
   88  369.5  360.1  359.2  359.5  359.3  358.8  358.2  357.8  357.5  357.3  357.2  357.0  356.9  356.9  356.9  356.8  356.8  356.8  356.8  356.8  356.8  356.8  356.8  356.8  356.8  356.8  356.8  356.8  356.8  356.8  356.8  356.8  356.8  356.8  356.8  356.8  356.7  357.2  361.0  355.0  350.0
   90  370.5  361.0  360.1  360.4  360.3  359.7  359.0  358.6  358.2  357.9  357.7  357.6  357.5  357.4  357.4  357.3  357.3  357.3  357.3  357.3  357.3  357.3  357.3  357.3  357.3  357.3  357.3  357.3  357.3  357.3  357.3  357.3  357.3  357.3  357.3  357.3  357.4  357.9  361.4  355.0  350.0
   92  371.6  361.8  360.9  361.3  361.2  360.5  359.8  359.3  358.8  358.5  358.3  358.1  358.0  357.9  357.8  357.8  357.8  357.8  357.8  357.8  357.8  357.8  357.8  357.8  357.8  357.8  357.8  357.8  357.8  357.8  357.8  357.8  357.8  357.8  357.7  357.8  358.2  358.6  361.7  355.0  350.0
   94  372.6  362.6  361.6  362.0  362.0  361.3  360.6  359.9  359.4  359.1  358.8  358.5  358.4  358.3  358.2  358.2  358.2  358.1  358.1  358.1  358.1  358.1  358.1  358.1  358.1  358.1  358.1  358.1  358.1  358.1  358.1  358.1  358.1  358.1  358.1  358.1  358.9  359.3  361.9  355.0  350.0
   96  373.5  363.3  362.3  362.8  362.7  362.1  361.2  360.5  360.0  359.5  359.2  358.9  358.8  358.6  358.6  358.5  358.5  358.5  358.4  358.4  358.4  358.4  358.4  358.4  358.4  358.4  358.4  358.4  358.4  358.4  358.4  358.4  358.4  358.4  358.4  358.5  359.7  359.9  362.0  355.0  350.0
   98  374.5  364.0  363.0  363.4  363.4  362.8  361.9  361.1  360.5  360.0  359.5  359.2  359.1  358.9  358.8  358.8  358.7  358.7  358.7  358.7  358.7  358.7  358.7  358.7  358.7  358.7  358.7  358.7  358.7  358.7  358.7  358.7  358.7  358.7  358.6  358.8  360.3  360.4  362.1  355.0  350.0
  100  375.1  364.7  363.5  364.0  364.1  363.4  362.5  361.6  360.9  360.4  359.8  359.5  359.3  359.1  359.0  358.9  358.9  358.9  358.9  358.9  358.9  358.9  358.8  358.8  358.8  358.8  358.8  358.8  358.8  358.8  358.8  358.8  358.8  358.8  358.8  359.0  360.9  360.9  362.2  355.0  350.0
  102  375.1  365.1  364.1  364.6  364.7  364.0  363.0  362.1  361.3  360.7  360.1  359.7  359.5  359.3  359.2  359.1  359.0  359.0  359.0  359.0  359.0  359.0  359.0  359.0  359.0  359.0  359.0  359.0  359.0  359.0  359.0  359.0  359.0  359.0  358.9  359.2  361.3  361.3  362.3  355.0  350.0
  104  375.1  365.2  364.6  365.0  365.1  364.6  363.5  362.5  361.7  361.0  360.3  359.8  359.6  359.4  359.3  359.2  359.1  359.1  359.1  359.1  359.0  359.0  359.0  359.0  359.0  359.0  359.0  359.0  359.0  359.0  359.0  359.0  359.0  359.0  359.0  359.3  361.6  361.6  362.4  355.0  350.0
  106  375.1  365.4  364.6  365.0  365.2  365.1  364.0  363.0  362.1  361.3  360.5  359.9  359.7  359.5  359.4  359.3  359.2  359.1  359.1  359.1  359.1  359.1  359.1  359.1  359.1  359.1  359.1  359.1  359.1  359.1  359.1  359.1  359.1  359.1  359.1  359.5  361.8  362.0  362.5  355.0  350.0
  108  375.1  365.4  364.6  365.0  365.2  365.2  364.5  363.4  362.4  361.6  360.6  360.0  359.8  359.6  359.4  359.3  359.2  359.2  359.2  359.2  359.1  359.1  359.1  359.1  359.1  359.1  359.1  359.1  359.1  359.1  359.1  359.1  359.1  359.1  359.1  359.6  362.0  362.2  362.6  355.0  350.0
  110  375.1  365.4  364.6  365.0  365.2  365.2  364.9  363.8  362.8  361.9  360.8  360.1  359.9  359.7  359.5  359.4  359.3  359.2  359.2  359.2  359.2  359.2  359.2  359.2  359.2  359.2  359.2  359.2  359.2  359.2  359.2  359.2  359.2  359.2  359.1  359.7  362.2  362.4  362.8  355.0  350.0
  112  375.1  365.4  364.6  365.0  365.2  365.2  365.1  364.1  363.1  362.2  360.9  360.2  360.0  359.8  359.6  359.4  359.3  359.3  359.2  359.2  359.2  359.2  359.2  359.2  359.2  359.2  359.2  359.2  359.2  359.2  359.2  359.2  359.2  359.2  359.2  359.8  362.3  362.6  362.9  355.0  350.0
  114  375.1  365.4  364.6  365.0  365.2  365.2  365.1  364.5  363.4  362.4  361.1  360.3  360.1  359.8  359.6  359.5  359.4  359.3  359.3  359.2  359.2  359.2  359.2  359.2  359.2  359.2  359.2  359.2  359.2  359.2  359.2  359.2  359.2  359.2  359.2  359.9  362.3  362.8  363.0  355.0  350.0
  116  375.1  365.4  364.6  365.0  365.2  365.2  365.1  364.9  363.8  362.7  361.2  360.4  360.2  359.9  359.7  359.5  359.4  359.3  359.3  359.2  359.2  359.2  359.2  359.2  359.2  359.2  359.2  359.2  359.2  359.2  359.2  359.2  359.2  359.2  359.2  360.0  362.4  362.9  363.0  355.0  350.0
  118  375.1  365.4  364.6  365.0  365.2  365.2  365.1  365.0  364.1  362.9  361.4  360.5  360.2  360.0  359.7  359.6  359.4  359.4  359.3  359.3  359.2  359.2  359.2  359.2  359.2  359.2  359.2  359.2  359.2  359.2  359.2  359.2  359.2  359.2  359.2  360.1  362.5  363.0  363.0  355.0  350.0
  120  375.1  365.4  364.6  365.0  365.2  365.2  365.1  365.0  364.4  363.1  361.5  360.6  360.3  360.0  359.8  359.6  359.5  359.4  359.3  359.3  359.2  359.2  359.2  359.2  359.2  359.2  359.2  359.2  359.2  359.2  359.2  359.2  359.2  359.2  359.2  360.2  362.5  363.1  363.1  355.0  350.0
  