%!PS-Adobe-3.0 EPSF-3.0
%%Creator: MATLAB, The Mathworks, Inc. Version 7.3.0.267 (R2006b). Operating System: Microsoft Windows XP.
%%Title: C:\Backup data\!Work\Thesis\1D-code\scour_groin1.eps
%%CreationDate: 11/29/2006  11:32:15
%%DocumentNeededFonts: Helvetica
%%DocumentProcessColors: Cyan Magenta Yellow Black
%%LanguageLevel: 2
%%Pages: 1
%%BoundingBox:    87   173   507   669
%%EndComments

%%BeginProlog
% MathWorks dictionary
/MathWorks 160 dict begin
% definition operators
/bdef {bind def} bind def
/ldef {load def} bind def
/xdef {exch def} bdef
/xstore {exch store} bdef
% operator abbreviations
/c  /clip ldef
/cc /concat ldef
/cp /closepath ldef
/gr /grestore ldef
/gs /gsave ldef
/mt /moveto ldef
/np /newpath ldef
/cm /currentmatrix ldef
/sm /setmatrix ldef
/rm /rmoveto ldef
/rl /rlineto ldef
/s {show newpath} bdef
/sc {setcmykcolor} bdef
/sr /setrgbcolor ldef
/sg /setgray ldef
/w /setlinewidth ldef
/j /setlinejoin ldef
/cap /setlinecap ldef
/rc {rectclip} bdef
/rf {rectfill} bdef
% page state control
/pgsv () def
/bpage {/pgsv save def} bdef
/epage {pgsv restore} bdef
/bplot /gsave ldef
/eplot {stroke grestore} bdef
% orientation switch
/portraitMode 0 def /landscapeMode 1 def /rotateMode 2 def
% coordinate system mappings
/dpi2point 0 def
% font control
/FontSize 0 def
/FMS {/FontSize xstore findfont [FontSize 0 0 FontSize neg 0 0]
  makefont setfont} bdef
/ISOLatin1Encoding where {pop /WindowsLatin1Encoding 256 array bdef
ISOLatin1Encoding WindowsLatin1Encoding copy pop
/.notdef/.notdef/quotesinglbase/florin/quotedblbase/ellipsis/dagger
/daggerdbl/circumflex/perthousand/Scaron/guilsinglleft/OE/.notdef/.notdef
/.notdef/.notdef/quoteleft/quoteright/quotedblleft/quotedblright/bullet
/endash/emdash/tilde/trademark/scaron/guilsinglright/oe/.notdef/.notdef
/Ydieresis WindowsLatin1Encoding 128 32 getinterval astore pop}
{/WindowsLatin1Encoding StandardEncoding bdef} ifelse
/reencode {exch dup where {pop load} {pop StandardEncoding} ifelse
  exch dup 3 1 roll findfont dup length dict begin
  { 1 index /FID ne {def}{pop pop} ifelse } forall
  /Encoding exch def currentdict end definefont pop} bdef
/isroman {findfont /CharStrings get /Agrave known} bdef
/FMSR {3 1 roll 1 index dup isroman {reencode} {pop pop} ifelse
  exch FMS} bdef
/csm {1 dpi2point div -1 dpi2point div scale neg translate
 dup landscapeMode eq {pop -90 rotate}
  {rotateMode eq {90 rotate} if} ifelse} bdef
% line types: solid, dotted, dashed, dotdash
/SO { [] 0 setdash } bdef
/DO { [.5 dpi2point mul 4 dpi2point mul] 0 setdash } bdef
/DA { [6 dpi2point mul] 0 setdash } bdef
/DD { [.5 dpi2point mul 4 dpi2point mul 6 dpi2point mul 4
  dpi2point mul] 0 setdash } bdef
% macros for lines and objects
/L {lineto stroke} bdef
/MP {3 1 roll moveto 1 sub {rlineto} repeat} bdef
/AP {{rlineto} repeat} bdef
/PDlw -1 def
/W {/PDlw currentlinewidth def setlinewidth} def
/PP {closepath eofill} bdef
/DP {closepath stroke} bdef
/MR {4 -2 roll moveto dup  0 exch rlineto exch 0 rlineto
  neg 0 exch rlineto closepath} bdef
/FR {MR stroke} bdef
/PR {MR fill} bdef
/L1i {{currentfile picstr readhexstring pop} image} bdef
/tMatrix matrix def
/MakeOval {newpath tMatrix currentmatrix pop translate scale
0 0 1 0 360 arc tMatrix setmatrix} bdef
/FO {MakeOval stroke} bdef
/PO {MakeOval fill} bdef
/PD {currentlinewidth 2 div 0 360 arc fill
   PDlw -1 eq not {PDlw w /PDlw -1 def} if} def
/FA {newpath tMatrix currentmatrix pop translate scale
  0 0 1 5 -2 roll arc tMatrix setmatrix stroke} bdef
/PA {newpath tMatrix currentmatrix pop	translate 0 0 moveto scale
  0 0 1 5 -2 roll arc closepath tMatrix setmatrix fill} bdef
/FAn {newpath tMatrix currentmatrix pop translate scale
  0 0 1 5 -2 roll arcn tMatrix setmatrix stroke} bdef
/PAn {newpath tMatrix currentmatrix pop translate 0 0 moveto scale
  0 0 1 5 -2 roll arcn closepath tMatrix setmatrix fill} bdef
/vradius 0 def /hradius 0 def /lry 0 def
/lrx 0 def /uly 0 def /ulx 0 def /rad 0 def
/MRR {/vradius xdef /hradius xdef /lry xdef /lrx xdef /uly xdef
  /ulx xdef newpath tMatrix currentmatrix pop ulx hradius add uly
  vradius add translate hradius vradius scale 0 0 1 180 270 arc 
  tMatrix setmatrix lrx hradius sub uly vradius add translate
  hradius vradius scale 0 0 1 270 360 arc tMatrix setmatrix
  lrx hradius sub lry vradius sub translate hradius vradius scale
  0 0 1 0 90 arc tMatrix setmatrix ulx hradius add lry vradius sub
  translate hradius vradius scale 0 0 1 90 180 arc tMatrix setmatrix
  closepath} bdef
/FRR {MRR stroke } bdef
/PRR {MRR fill } bdef
/MlrRR {/lry xdef /lrx xdef /uly xdef /ulx xdef /rad lry uly sub 2 div def
  newpath tMatrix currentmatrix pop ulx rad add uly rad add translate
  rad rad scale 0 0 1 90 270 arc tMatrix setmatrix lrx rad sub lry rad
  sub translate rad rad scale 0 0 1 270 90 arc tMatrix setmatrix
  closepath} bdef
/FlrRR {MlrRR stroke } bdef
/PlrRR {MlrRR fill } bdef
/MtbRR {/lry xdef /lrx xdef /uly xdef /ulx xdef /rad lrx ulx sub 2 div def
  newpath tMatrix currentmatrix pop ulx rad add uly rad add translate
  rad rad scale 0 0 1 180 360 arc tMatrix setmatrix lrx rad sub lry rad
  sub translate rad rad scale 0 0 1 0 180 arc tMatrix setmatrix
  closepath} bdef
/FtbRR {MtbRR stroke } bdef
/PtbRR {MtbRR fill } bdef
/stri 6 array def /dtri 6 array def
/smat 6 array def /dmat 6 array def
/tmat1 6 array def /tmat2 6 array def /dif 3 array def
/asub {/ind2 exch def /ind1 exch def dup dup
  ind1 get exch ind2 get sub exch } bdef
/tri_to_matrix {
  2 0 asub 3 1 asub 4 0 asub 5 1 asub
  dup 0 get exch 1 get 7 -1 roll astore } bdef
/compute_transform {
  dmat dtri tri_to_matrix tmat1 invertmatrix 
  smat stri tri_to_matrix tmat2 concatmatrix } bdef
/ds {stri astore pop} bdef
/dt {dtri astore pop} bdef
/db {2 copy /cols xdef /rows xdef mul dup 3 mul string
  currentfile 
  3 index 0 eq {/ASCIIHexDecode filter}
  {/ASCII85Decode filter 3 index 2 eq {/RunLengthDecode filter} if }
  ifelse exch readstring pop
  dup 0 3 index getinterval /rbmap xdef
  dup 2 index dup getinterval /gbmap xdef
  1 index dup 2 mul exch getinterval /bbmap xdef pop pop}bdef
/it {gs np dtri aload pop moveto lineto lineto cp c
  cols rows 8 compute_transform 
  rbmap gbmap bbmap true 3 colorimage gr}bdef
/il {newpath moveto lineto stroke}bdef
currentdict end def
%%EndProlog

%%BeginSetup
MathWorks begin

0 cap

end
%%EndSetup

%%Page: 1 1
%%BeginPageSetup
%%PageBoundingBox:    87   173   507   669
MathWorks begin
bpage
%%EndPageSetup

%%BeginObject: obj1
bplot

/dpi2point 12 def
portraitMode 1044 8028 csm

    0     0  5045  5952 rc
85 dict begin %Colortable dictionary
/c0 { 0.000000 0.000000 0.000000 sr} bdef
/c1 { 1.000000 1.000000 1.000000 sr} bdef
/c2 { 0.900000 0.000000 0.000000 sr} bdef
/c3 { 0.000000 0.820000 0.000000 sr} bdef
/c4 { 0.000000 0.000000 0.800000 sr} bdef
/c5 { 0.910000 0.820000 0.320000 sr} bdef
/c6 { 1.000000 0.260000 0.820000 sr} bdef
/c7 { 0.000000 0.820000 0.820000 sr} bdef
c0
1 j
1 sg
   0    0 5046 5953 rf
6 w
0 4851 1867 0 0 -4851 1365 5297 4 MP
PP
-1867 0 0 4851 1867 0 0 -4851 1365 5297 5 MP stroke
gs 1365 446 1868 4852 rc
/c8 { 0.000000 0.750000 1.000000 sr} bdef
c8
1512 7515 mt 1512 7272 L
1512 7272 mt 1511 7030 L
1511 7030 mt 1510 6787 L
1510 6787 mt 1510 6544 L
1510 6544 mt 1510 6302 L
1510 6302 mt 1510 6059 L
1510 6059 mt 1510 5817 L
1510 5817 mt 1510 5574 L
1510 5574 mt 1510 5332 L
1510 5332 mt 1511 5089 L
1511 5089 mt 1511 4847 L
1511 4847 mt 1511 4604 L
1511 4604 mt 1512 4361 L
1512 4361 mt 1513 4119 L
1513 4119 mt 1516 3876 L
1516 3876 mt 1516 3634 L
1516 3634 mt 1523 3391 L
1523 3391 mt 1526 3149 L
1526 3149 mt 1523 2906 L
1523 2906 mt 1519 2664 L
1519 2664 mt 1515 2421 L
1515 2421 mt 1509 2179 L
1509 2179 mt 1505 1936 L
1505 1936 mt 1504 1693 L
1504 1693 mt 1505 1451 L
1505 1451 mt 1507 1208 L
1507 1208 mt 1509  966 L
1509  966 mt 1510  723 L
1510  723 mt 1511  481 L
1511  481 mt 1512  238 L
1512  238 mt 1512   -3 L
1512   -3 mt 1512 -246 L
1512 -246 mt 1513 -489 L
1513 -489 mt 1513 -731 L
1513 -731 mt 1513 -974 L
1513 -974 mt 1513 -1216 L
1513 -1216 mt 1513 -1459 L
1513 -1459 mt 1513 -1701 L
1513 -1701 mt 1513 -1944 L
1513 -1944 mt 1513 -2186 L
/c9 { 0.125000 1.000000 0.875000 sr} bdef
c9
1851 7515 mt 1851 7272 L
1851 7272 mt 1850 7030 L
1850 7030 mt 1849 6787 L
1849 6787 mt 1849 6544 L
1849 6544 mt 1849 6302 L
1849 6302 mt 1849 6059 L
1849 6059 mt 1849 5817 L
1849 5817 mt 1849 5574 L
1849 5574 mt 1849 5332 L
1849 5332 mt 1849 5089 L
1849 5089 mt 1850 4847 L
1850 4847 mt 1850 4604 L
1850 4604 mt 1851 4361 L
1851 4361 mt 1852 4119 L
1852 4119 mt 1852 4108 L
1852 4108 mt 1858 3876 L
1858 3876 mt 1853 3634 L
1853 3634 mt 1866 3391 L
1866 3391 mt 1861 3149 L
1861 3149 mt 1857 2906 L
1857 2906 mt 1857 2664 L
1857 2664 mt 1856 2421 L
1856 2421 mt 1852 2336 L
1852 2336 mt 1846 2179 L
1846 2179 mt 1840 1936 L
1840 1936 mt 1839 1693 L
1839 1693 mt 1841 1451 L
1841 1451 mt 1844 1208 L
1844 1208 mt 1847  966 L
1847  966 mt 1849  723 L
1849  723 mt 1850  481 L
1850  481 mt 1851  238 L
1851  238 mt 1852   -3 L
1852   -3 mt 1852 -193 L
1852 -193 mt 1852 -246 L
1852 -246 mt 1853 -489 L
1853 -489 mt 1853 -731 L
1853 -731 mt 1853 -974 L
1853 -974 mt 1853 -1216 L
1853 -1216 mt 1853 -1459 L
1853 -1459 mt 1853 -1701 L
1853 -1701 mt 1853 -1944 L
1853 -1944 mt 1853 -2186 L
/c10 { 0.562500 1.000000 0.437500 sr} bdef
c10
2191 7515 mt 2191 7272 L
2191 7272 mt 2189 7030 L
2189 7030 mt 2188 6787 L
2188 6787 mt 2188 6544 L
2188 6544 mt 2188 6302 L
2188 6302 mt 2188 6059 L
2188 6059 mt 2188 5817 L
2188 5817 mt 2188 5574 L
2188 5574 mt 2188 5332 L
2188 5332 mt 2188 5089 L
2188 5089 mt 2188 4847 L
2188 4847 mt 2189 4604 L
2189 4604 mt 2190 4361 L
2190 4361 mt 2191 4119 L
2191 4119 mt 2201 3876 L
2201 3876 mt 2193 3634 L
2193 3634 mt 2240 3580 L
2240 3580 mt 2337 3528 L
2337 3528 mt 2397 3391 L
2397 3391 mt 2337 3278 L
2337 3278 mt 2240 3184 L
2240 3184 mt 2211 3149 L
2211 3149 mt 2198 2906 L
2198 2906 mt 2210 2664 L
2210 2664 mt 2214 2421 L
2214 2421 mt 2182 2179 L
2182 2179 mt 2171 1936 L
2171 1936 mt 2170 1693 L
2170 1693 mt 2174 1451 L
2174 1451 mt 2179 1208 L
2179 1208 mt 2183  966 L
2183  966 mt 2186  723 L
2186  723 mt 2189  481 L
2189  481 mt 2190  238 L
2190  238 mt 2192   -3 L
2192   -3 mt 2192 -246 L
2192 -246 mt 2193 -489 L
2193 -489 mt 2193 -731 L
2193 -731 mt 2193 -974 L
2193 -974 mt 2193 -1216 L
2193 -1216 mt 2193 -1459 L
2193 -1459 mt 2193 -1701 L
2193 -1701 mt 2193 -1944 L
2193 -1944 mt 2193 -2186 L
/c11 { 0.937500 1.000000 0.062500 sr} bdef
c11
2531 7515 mt 2531 7272 L
2531 7272 mt 2528 7030 L
2528 7030 mt 2528 6787 L
2528 6787 mt 2527 6544 L
2527 6544 mt 2527 6302 L
2527 6302 mt 2527 6059 L
2527 6059 mt 2527 5817 L
2527 5817 mt 2527 5574 L
2527 5574 mt 2527 5332 L
2527 5332 mt 2527 5089 L
2527 5089 mt 2527 4847 L
2527 4847 mt 2527 4604 L
2527 4604 mt 2528 4361 L
2528 4361 mt 2529 4119 L
2529 4119 mt 2531 3935 L
2531 3935 mt 2532 3876 L
2532 3876 mt 2531 3836 L
2531 3836 mt 2527 3634 L
2527 3634 mt 2531 3615 L
2531 3615 mt 2571 3391 L
2571 3391 mt 2531 3384 L
2531 3384 mt 2434 3365 L
2434 3365 mt 2344 3149 L
2344 3149 mt 2346 2906 L
2346 2906 mt 2347 2664 L
2347 2664 mt 2425 2421 L
2425 2421 mt 2428 2179 L
2428 2179 mt 2434 2068 L
2434 2068 mt 2462 1936 L
2462 1936 mt 2487 1693 L
2487 1693 mt 2502 1451 L
2502 1451 mt 2512 1208 L
2512 1208 mt 2519  966 L
2519  966 mt 2524  723 L
2524  723 mt 2528  481 L
2528  481 mt 2531  238 L
2531  238 mt 2531  187 L
2531  187 mt 2533   -3 L
2533   -3 mt 2533 -246 L
2533 -246 mt 2534 -489 L
2534 -489 mt 2534 -731 L
2534 -731 mt 2533 -974 L
2533 -974 mt 2533 -1216 L
2533 -1216 mt 2533 -1459 L
2533 -1459 mt 2533 -1701 L
2533 -1701 mt 2533 -1944 L
2533 -1944 mt 2533 -2186 L
/c12 { 1.000000 0.687500 0.000000 sr} bdef
c12
2870 7515 mt 2870 7272 L
2870 7272 mt 2868 7030 L
2868 7030 mt 2867 6787 L
2867 6787 mt 2867 6544 L
2867 6544 mt 2867 6302 L
2867 6302 mt 2867 6059 L
2867 6059 mt 2867 5817 L
2867 5817 mt 2867 5574 L
2867 5574 mt 2867 5332 L
2867 5332 mt 2867 5089 L
2867 5089 mt 2867 4847 L
2867 4847 mt 2867 4604 L
2867 4604 mt 2868 4361 L
2868 4361 mt 2868 4119 L
2868 4119 mt 2868 3876 L
2868 3876 mt 2868 3634 L
2868 3634 mt 2868 3391 L
2868 3391 mt 2822 3384 L
2822 3384 mt 2725 3370 L
2725 3370 mt 2628 3356 L
2628 3356 mt 2531 3341 L
2531 3341 mt 2434 3325 L
2434 3325 mt 2361 3149 L
2361 3149 mt 2362 2906 L
2362 2906 mt 2363 2664 L
2363 2664 mt 2434 2463 L
2434 2463 mt 2531 2462 L
2531 2462 mt 2628 2454 L
2628 2454 mt 2725 2442 L
2725 2442 mt 2822 2429 L
2822 2429 mt 2870 2421 L
2870 2421 mt 2871 2179 L
2871 2179 mt 2872 1936 L
2872 1936 mt 2872 1693 L
2872 1693 mt 2872 1451 L
2872 1451 mt 2873 1208 L
2873 1208 mt 2873  966 L
2873  966 mt 2873  723 L
2873  723 mt 2873  481 L
2873  481 mt 2873  238 L
2873  238 mt 2873   -3 L
2873   -3 mt 2873 -246 L
2873 -246 mt 2873 -489 L
2873 -489 mt 2873 -731 L
2873 -731 mt 2872 -974 L
2872 -974 mt 2872 -1216 L
2872 -1216 mt 2872 -1459 L
2872 -1459 mt 2872 -1701 L
2872 -1701 mt 2872 -1944 L
2872 -1944 mt 2872 -2186 L
/c13 { 1.000000 0.250000 0.000000 sr} bdef
c13
3210 7515 mt 3210 7272 L
3210 7272 mt 3208 7030 L
3208 7030 mt 3207 6787 L
3207 6787 mt 3207 6544 L
3207 6544 mt 3207 6302 L
3207 6302 mt 3208 6059 L
3208 6059 mt 3208 5817 L
3208 5817 mt 3208 5574 L
3208 5574 mt 3208 5332 L
3208 5332 mt 3208 5089 L
3208 5089 mt 3208 4847 L
3208 4847 mt 3208 4604 L
3208 4604 mt 3208 4361 L
3208 4361 mt 3208 4119 L
3208 4119 mt 3208 3876 L
3208 3876 mt 3208 3634 L
3208 3634 mt 3208 3391 L
3208 3391 mt 3114 3373 L
3114 3373 mt 3017 3357 L
3017 3357 mt 2919 3343 L
2919 3343 mt 2822 3331 L
2822 3331 mt 2725 3320 L
2725 3320 mt 2628 3309 L
2628 3309 mt 2531 3297 L
2531 3297 mt 2434 3285 L
2434 3285 mt 2377 3149 L
2377 3149 mt 2378 2906 L
2378 2906 mt 2380 2664 L
2380 2664 mt 2434 2509 L
2434 2509 mt 2531 2508 L
2531 2508 mt 2628 2501 L
2628 2501 mt 2725 2492 L
2725 2492 mt 2822 2482 L
2822 2482 mt 2919 2470 L
2919 2470 mt 3017 2456 L
3017 2456 mt 3114 2440 L
3114 2440 mt 3210 2421 L
3210 2421 mt 3211 2276 L
3211 2276 mt 3211 2179 L
3211 2179 mt 3212 1936 L
3212 1936 mt 3212 1693 L
3212 1693 mt 3212 1451 L
3212 1451 mt 3212 1208 L
3212 1208 mt 3212  966 L
3212  966 mt 3212  723 L
3212  723 mt 3212  481 L
3212  481 mt 3212  238 L
3212  238 mt 3212   -3 L
3212   -3 mt 3212 -246 L
3212 -246 mt 3212 -489 L
3212 -489 mt 3211 -731 L
3211 -731 mt 3211 -974 L
3211 -974 mt 3211 -1216 L
3211 -1216 mt 3211 -1459 L
3211 -1459 mt 3211 -1701 L
3211 -1701 mt 3211 -1944 L
3211 -1944 mt 3211 -2186 L
/c14 { 0.875000 0.000000 0.000000 sr} bdef
c14
3549 7515 mt 3549 7272 L
3549 7272 mt 3547 7030 L
3547 7030 mt 3547 6787 L
3547 6787 mt 3548 6544 L
3548 6544 mt 3548 6302 L
3548 6302 mt 3549 6059 L
3549 6059 mt 3549 5817 L
3549 5817 mt 3549 5574 L
3549 5574 mt 3549 5332 L
3549 5332 mt 3549 5089 L
3549 5089 mt 3549 4847 L
3549 4847 mt 3549 4604 L
3549 4604 mt 3549 4361 L
3549 4361 mt 3549 4119 L
3549 4119 mt 3549 3876 L
3549 3876 mt 3550 3634 L
3550 3634 mt 3550 3391 L
3550 3391 mt 3502 3378 L
3502 3378 mt 3405 3355 L
3405 3355 mt 3308 3337 L
3308 3337 mt 3211 3321 L
3211 3321 mt 3114 3308 L
3114 3308 mt 3017 3296 L
3017 3296 mt 2919 3286 L
2919 3286 mt 2822 3278 L
2822 3278 mt 2725 3270 L
2725 3270 mt 2628 3262 L
2628 3262 mt 2531 3254 L
2531 3254 mt 2434 3246 L
2434 3246 mt 2394 3149 L
2394 3149 mt 2395 2906 L
2395 2906 mt 2396 2664 L
2396 2664 mt 2434 2555 L
2434 2555 mt 2531 2553 L
2531 2553 mt 2628 2549 L
2628 2549 mt 2725 2542 L
2725 2542 mt 2822 2535 L
2822 2535 mt 2919 2526 L
2919 2526 mt 3017 2516 L
3017 2516 mt 3114 2505 L
3114 2505 mt 3211 2492 L
3211 2492 mt 3308 2476 L
3308 2476 mt 3405 2457 L
3405 2457 mt 3502 2436 L
3502 2436 mt 3552 2421 L
3552 2421 mt 3557 2179 L
3557 2179 mt 3557 1936 L
3557 1936 mt 3554 1693 L
3554 1693 mt 3552 1451 L
3552 1451 mt 3551 1208 L
3551 1208 mt 3551  966 L
3551  966 mt 3551  723 L
3551  723 mt 3551  481 L
3551  481 mt 3551  238 L
3551  238 mt 3550   -3 L
3550   -3 mt 3550 -246 L
3550 -246 mt 3550 -489 L
3550 -489 mt 3550 -731 L
3550 -731 mt 3550 -974 L
3550 -974 mt 3550 -1216 L
3550 -1216 mt 3550 -1459 L
3550 -1459 mt 3550 -1701 L
3550 -1701 mt 3551 -1944 L
3551 -1944 mt 3551 -2186 L
/c15 { 0.500000 0.000000 0.000000 sr} bdef
c15
3892 7515 mt 3892 7272 L
3892 7272 mt 3890 7104 L
3890 7104 mt 3888 7030 L
3888 7030 mt 3889 6787 L
3889 6787 mt 3889 6544 L
3889 6544 mt 3889 6302 L
3889 6302 mt 3889 6059 L
3889 6059 mt 3889 5817 L
3889 5817 mt 3888 5574 L
3888 5574 mt 3888 5332 L
3888 5332 mt 3889 5089 L
3889 5089 mt 3890 5026 L
3890 5026 mt 3892 4847 L
3892 4847 mt 3897 4604 L
3897 4604 mt 3900 4361 L
3900 4361 mt 3905 4119 L
3905 4119 mt 3910 3876 L
3910 3876 mt 3907 3634 L
3907 3634 mt 3893 3391 L
3893 3391 mt 3890 3390 L
3890 3390 mt 3793 3350 L
3793 3350 mt 3696 3321 L
3696 3321 mt 3599 3300 L
3599 3300 mt 3502 3284 L
3502 3284 mt 3405 3270 L
3405 3270 mt 3308 3259 L
3308 3259 mt 3211 3250 L
3211 3250 mt 3114 3242 L
3114 3242 mt 3017 3235 L
3017 3235 mt 2919 3230 L
2919 3230 mt 2822 3224 L
2822 3224 mt 2725 3220 L
2725 3220 mt 2628 3215 L
2628 3215 mt 2531 3211 L
2531 3211 mt 2434 3206 L
2434 3206 mt 2410 3149 L
2410 3149 mt 2411 2906 L
2411 2906 mt 2412 2664 L
2412 2664 mt 2434 2600 L
2434 2600 mt 2531 2599 L
2531 2599 mt 2628 2596 L
2628 2596 mt 2725 2592 L
2725 2592 mt 2822 2588 L
2822 2588 mt 2919 2583 L
2919 2583 mt 3017 2577 L
3017 2577 mt 3114 2570 L
3114 2570 mt 3211 2563 L
3211 2563 mt 3308 2553 L
3308 2553 mt 3405 2542 L
3405 2542 mt 3502 2530 L
3502 2530 mt 3599 2512 L
3599 2512 mt 3696 2490 L
3696 2490 mt 3793 2461 L
3793 2461 mt 3890 2421 L
3890 2421 mt 3890 2421 L
3890 2421 mt 3890 2235 L
3890 2235 mt 3890 2179 L
3890 2179 mt 3889 1936 L
3889 1936 mt 3889 1693 L
3889 1693 mt 3889 1451 L
3889 1451 mt 3889 1208 L
3889 1208 mt 3889  966 L
3889  966 mt 3889  723 L
3889  723 mt 3889  481 L
3889  481 mt 3889  238 L
3889  238 mt 3889   -3 L
3889   -3 mt 3889 -246 L
3889 -246 mt 3889 -489 L
3889 -489 mt 3889 -731 L
3889 -731 mt 3889 -974 L
3889 -974 mt 3889 -1216 L
3889 -1216 mt 3889 -1459 L
3889 -1459 mt 3889 -1701 L
3889 -1701 mt 3889 -1944 L
3889 -1944 mt 3889 -2186 L
4229 7515 mt 4229 7272 L
4229 7272 mt 4229 7030 L
4229 7030 mt 4229 6787 L
4229 6787 mt 4229 6544 L
4229 6544 mt 4229 6302 L
4229 6302 mt 4229 6059 L
4229 6059 mt 4229 5817 L
4229 5817 mt 4229 5574 L
4229 5574 mt 4229 5332 L
4229 5332 mt 4229 5089 L
4229 5089 mt 4229 4847 L
4229 4847 mt 4229 4604 L
4229 4604 mt 4229 4361 L
4229 4361 mt 4229 4119 L
4229 4119 mt 4229 3876 L
4229 3876 mt 4229 3634 L
4229 3634 mt 4229 3391 L
4229 3391 mt 4181 3331 L
4181 3331 mt 4084 3270 L
4084 3270 mt 3987 3242 L
3987 3242 mt 3890 3221 L
3890 3221 mt 3793 3209 L
3793 3209 mt 3696 3200 L
3696 3200 mt 3599 3194 L
3599 3194 mt 3502 3189 L
3502 3189 mt 3405 3185 L
3405 3185 mt 3308 3182 L
3308 3182 mt 3211 3179 L
3211 3179 mt 3114 3177 L
3114 3177 mt 3017 3174 L
3017 3174 mt 2919 3173 L
2919 3173 mt 2822 3171 L
2822 3171 mt 2725 3170 L
2725 3170 mt 2628 3169 L
2628 3169 mt 2531 3167 L
2531 3167 mt 2434 3166 L
2434 3166 mt 2427 3149 L
2427 3149 mt 2427 2906 L
2427 2906 mt 2428 2664 L
2428 2664 mt 2434 2646 L
2434 2646 mt 2531 2644 L
2531 2644 mt 2628 2643 L
2628 2643 mt 2725 2642 L
2725 2642 mt 2822 2641 L
2822 2641 mt 2919 2639 L
2919 2639 mt 3017 2638 L
3017 2638 mt 3114 2636 L
3114 2636 mt 3211 2633 L
3211 2633 mt 3308 2631 L
3308 2631 mt 3405 2627 L
3405 2627 mt 3502 2623 L
3502 2623 mt 3599 2618 L
3599 2618 mt 3696 2612 L
3696 2612 mt 3793 2603 L
3793 2603 mt 3890 2591 L
3890 2591 mt 3987 2573 L
3987 2573 mt 4084 2542 L
4084 2542 mt 4181 2482 L
4181 2482 mt 4229 2421 L
4229 2421 mt 4229 2179 L
4229 2179 mt 4229 1936 L
4229 1936 mt 4229 1693 L
4229 1693 mt 4229 1451 L
4229 1451 mt 4229 1208 L
4229 1208 mt 4229  966 L
4229  966 mt 4229  723 L
4229  723 mt 4229  481 L
4229  481 mt 4229  238 L
4229  238 mt 4229   -3 L
4229   -3 mt 4229 -246 L
4229 -246 mt 4229 -489 L
4229 -489 mt 4229 -731 L
4229 -731 mt 4229 -974 L
4229 -974 mt 4229 -1216 L
4229 -1216 mt 4229 -1459 L
4229 -1459 mt 4229 -1701 L
4229 -1701 mt 4229 -1944 L
4229 -1944 mt 4229 -2186 L
gr

c15
0 sg
%%IncludeResource: font Helvetica
/Helvetica /WindowsLatin1Encoding 120 FMSR

1348 5340 mt 
( ) s
3216  488 mt 
( ) s
gs 1365 446 1868 4852 rc
/c16 { 0.000000 0.000000 1.000000 sr} bdef
c16
12 44 0 -4 1365 5202 3 MP stroke
12 43 10 -44 1452 5243 3 MP stroke
12 44 10 -44 1549 5243 3 MP stroke
11 44 10 -44 1646 5244 3 MP stroke
12 42 9 -43 1743 5245 3 MP stroke
12 42 10 -43 1839 5246 3 MP stroke
11 42 10 -43 1936 5247 3 MP stroke
12 41 9 -42 2033 5248 3 MP stroke
12 41 9 -41 2130 5249 3 MP stroke
11 40 9 -41 2227 5251 3 MP stroke
11 39 9 -40 2324 5253 3 MP stroke
12 38 7 -39 2422 5255 3 MP stroke
11 35 7 -36 2519 5259 3 MP stroke
10 33 7 -34 2617 5264 3 MP stroke
9 30 6 -31 2715 5269 3 MP stroke
9 28 5 -29 2813 5275 3 MP stroke
7 25 5 -25 2911 5280 3 MP stroke
6 22 5 -23 3009 5287 3 MP stroke
6 19 4 -19 3107 5293 3 MP stroke
4 13 2 -13 3206 5298 3 MP stroke
11 42 1365 4957 2 MP stroke
12 44 10 -44 1451 5000 3 MP stroke
12 43 9 -44 1548 5001 3 MP stroke
13 43 9 -44 1644 5002 3 MP stroke
12 42 9 -43 1741 5003 3 MP stroke
13 42 8 -43 1838 5004 3 MP stroke
13 41 8 -42 1934 5005 3 MP stroke
12 40 8 -41 2031 5006 3 MP stroke
13 40 7 -41 2128 5008 3 MP stroke
13 39 7 -41 2224 5010 3 MP stroke
13 38 6 -40 2321 5012 3 MP stroke
13 36 5 -38 2418 5014 3 MP stroke
12 34 5 -36 2515 5019 3 MP stroke
12 32 4 -34 2612 5024 3 MP stroke
11 29 4 -31 2709 5029 3 MP stroke
11 26 2 -28 2807 5034 3 MP stroke
10 24 2 -26 2904 5040 3 MP stroke
10 21 1 -23 3002 5046 3 MP stroke
9 18 0 -20 3100 5052 3 MP stroke
8 14 0 -16 3198 5058 3 MP stroke
10 35 1365 4722 2 MP stroke
13 43 9 -44 1449 4758 3 MP stroke
13 43 8 -44 1546 4759 3 MP stroke
14 42 8 -44 1642 4760 3 MP stroke
14 42 8 -44 1738 4761 3 MP stroke
14 41 7 -43 1835 4762 3 MP stroke
14 40 7 -42 1931 4763 3 MP stroke
14 39 7 -42 2027 4765 3 MP stroke
15 39 5 -41 2124 4766 3 MP stroke
15 38 5 -41 2220 4768 3 MP stroke
15 37 5 -40 2316 4770 3 MP stroke
15 36 4 -39 2413 4772 3 MP stroke
15 34 3 -37 2510 4777 3 MP stroke
15 31 2 -35 2607 4782 3 MP stroke
14 29 1 -32 2705 4786 3 MP stroke
14 26 0 -29 2803 4791 3 MP stroke
12 24 1 -27 2900 4796 3 MP stroke
12 21 -1 -24 2999 4801 3 MP stroke
11 19 -1 -22 3097 4807 3 MP stroke
10 16 -1 -19 3195 4812 3 MP stroke
9 31 1365 4482 2 MP stroke
13 44 9 -45 1448 4515 3 MP stroke
13 43 8 -44 1545 4516 3 MP stroke
14 42 8 -44 1641 4517 3 MP stroke
15 42 7 -44 1737 4518 3 MP stroke
15 42 7 -44 1833 4519 3 MP stroke
15 41 6 -43 1929 4520 3 MP stroke
15 40 5 -42 2026 4521 3 MP stroke
16 39 4 -42 2122 4523 3 MP stroke
17 39 3 -42 2218 4525 3 MP stroke
17 37 3 -40 2314 4526 3 MP stroke
17 36 2 -40 2411 4529 3 MP stroke
16 34 1 -37 2508 4533 3 MP stroke
16 31 0 -35 2605 4538 3 MP stroke
16 29 0 -33 2702 4543 3 MP stroke
15 27 -1 -31 2800 4548 3 MP stroke
14 24 -1 -28 2897 4553 3 MP stroke
14 21 -2 -25 2995 4558 3 MP stroke
12 20 -2 -23 3094 4563 3 MP stroke
11 17 -2 -20 3193 4568 3 MP stroke
5 17 1365 4252 2 MP stroke
16 44 6 -46 1444 4272 3 MP stroke
16 43 6 -46 1539 4273 3 MP stroke
17 42 5 -46 1635 4274 3 MP stroke
18 42 4 -46 1730 4275 3 MP stroke
18 42 3 -46 1826 4276 3 MP stroke
19 41 2 -45 1922 4277 3 MP stroke
19 40 2 -44 2017 4278 3 MP stroke
20 39 1 -44 2113 4280 3 MP stroke
20 38 0 -43 2210 4281 3 MP stroke
20 37 0 -43 2306 4284 3 MP stroke
20 36 -1 -41 2403 4286 3 MP stroke
20 33 -2 -39 2501 4292 3 MP stroke
19 31 -2 -36 2599 4296 3 MP stroke
18 28 -2 -33 2697 4301 3 MP stroke
17 26 -3 -31 2796 4307 3 MP stroke
16 23 -3 -28 2894 4312 3 MP stroke
14 21 -3 -25 2993 4317 3 MP stroke
13 19 -3 -23 3092 4322 3 MP stroke
12 16 -3 -20 3191 4327 3 MP stroke
10 35 1365 3991 2 MP stroke
13 45 10 -46 1448 4027 3 MP stroke
14 45 9 -46 1545 4028 3 MP stroke
14 44 8 -45 1642 4028 3 MP stroke
14 44 9 -45 1738 4029 3 MP stroke
14 43 8 -45 1835 4030 3 MP stroke
14 43 8 -45 1931 4031 3 MP stroke
15 43 7 -45 2027 4032 3 MP stroke
16 42 6 -44 2122 4033 3 MP stroke
17 41 5 -44 2217 4035 3 MP stroke
18 40 3 -43 2312 4037 3 MP stroke
18 37 1 -41 2408 4041 3 MP stroke
18 34 0 -39 2503 4048 3 MP stroke
18 31 -2 -36 2600 4054 3 MP stroke
19 27 -3 -33 2696 4060 3 MP stroke
18 24 -4 -30 2794 4066 3 MP stroke
16 22 -4 -27 2892 4072 3 MP stroke
15 19 -4 -24 2991 4078 3 MP stroke
13 17 -4 -21 3091 4083 3 MP stroke
11 14 -3 -18 3191 4088 3 MP stroke
21 44 2 -49 1432 3783 3 MP stroke
24 44 0 -50 1525 3784 3 MP stroke
25 43 -2 -50 1619 3785 3 MP stroke
27 43 -4 -51 1712 3786 3 MP stroke
29 42 -6 -51 1805 3787 3 MP stroke
31 41 -8 -51 1898 3788 3 MP stroke
32 40 -10 -51 1992 3790 3 MP stroke
34 39 -12 -50 2086 3792 3 MP stroke
35 37 -13 -49 2181 3795 3 MP stroke
34 35 -14 -47 2278 3800 3 MP stroke
33 31 -14 -43 2377 3807 3 MP stroke
30 28 -13 -39 2478 3814 3 MP stroke
27 25 -12 -35 2580 3820 3 MP stroke
24 22 -11 -31 2682 3826 3 MP stroke
23 20 -11 -28 2784 3832 3 MP stroke
20 17 -9 -24 2885 3837 3 MP stroke
17 15 -8 -22 2987 3843 3 MP stroke
14 12 -7 -18 3089 3848 3 MP stroke
11 11 -5 -15 3191 3852 3 MP stroke
12 45 1365 3490 2 MP stroke
13 48 11 -49 1450 3536 3 MP stroke
13 49 11 -49 1547 3536 3 MP stroke
13 48 11 -48 1645 3536 3 MP stroke
12 48 12 -48 1742 3537 3 MP stroke
12 47 12 -47 1840 3537 3 MP stroke
12 47 12 -47 1938 3538 3 MP stroke
11 46 12 -46 2036 3539 3 MP stroke
11 46 12 -46 2132 3540 3 MP stroke
13 45 10 -46 2226 3542 3 MP stroke
15 42 7 -45 2317 3546 3 MP stroke
17 35 2 -39 2409 3561 3 MP stroke
18 30 -2 -35 2503 3572 3 MP stroke
18 24 -4 -30 2598 3582 3 MP stroke
18 19 -7 -26 2695 3591 3 MP stroke
17 16 -8 -22 2793 3598 3 MP stroke
16 13 -8 -19 2891 3605 3 MP stroke
14 10 -8 -15 2991 3610 3 MP stroke
12 8 -7 -13 3091 3615 3 MP stroke
10 6 -6 -10 3193 3618 3 MP stroke
22 48 3 -52 1432 3291 3 MP stroke
25 47 0 -54 1524 3292 3 MP stroke
28 47 -2 -55 1614 3292 3 MP stroke
31 46 -6 -56 1704 3292 3 MP stroke
36 46 -10 -58 1791 3292 3 MP stroke
43 46 -16 -60 1877 3291 3 MP stroke
48 45 -21 -62 1961 3290 3 MP stroke
55 45 -28 -66 2045 3290 3 MP stroke
62 43 -35 -67 2128 3291 3 MP stroke
70 34 -46 -63 2207 3308 3 MP stroke
64 5 -55 -34 2310 3367 3 MP stroke
53 5 -45 -29 2428 3369 3 MP stroke
42 4 -35 -24 2546 3373 3 MP stroke
33 2 -28 -17 2662 3378 3 MP stroke
26 3 -21 -14 2773 3379 3 MP stroke
19 2 -16 -11 2882 3382 3 MP stroke
15 2 -13 -9 2988 3384 3 MP stroke
12 2 -10 -7 3091 3386 3 MP stroke
8 1 -7 -5 3194 3387 3 MP stroke
24 51 3 -56 1431 3042 3 MP stroke
25 51 2 -57 1525 3041 3 MP stroke
27 52 1 -59 1618 3040 3 MP stroke
28 53 0 -60 1712 3038 3 MP stroke
30 54 -1 -61 1806 3035 3 MP stroke
31 55 -2 -63 1901 3032 3 MP stroke
32 57 -2 -66 1997 3029 3 MP stroke
32 59 -1 -67 2096 3026 3 MP stroke
28 57 2 -63 2200 3030 3 MP stroke
18 43 4 -46 2313 3061 3 MP stroke
1 -1 -2 0 2432 3151 3 MP stroke
2531 3149 PD
2628 3149 PD
0 -1 -1 1 2726 3151 3 MP stroke
2822 3149 PD
2919 3149 PD
3017 3149 PD
3114 3149 PD
3211 3149 PD
9 29 1365 2765 2 MP stroke
18 54 10 -56 1442 2794 3 MP stroke
18 55 10 -57 1538 2793 3 MP stroke
19 56 10 -58 1634 2792 3 MP stroke
19 56 9 -58 1731 2790 3 MP stroke
20 57 9 -60 1827 2789 3 MP stroke
20 59 10 -61 1924 2786 3 MP stroke
19 59 11 -61 2023 2784 3 MP stroke
18 60 12 -61 2123 2784 3 MP stroke
15 55 13 -56 2224 2793 3 MP stroke
8 37 10 -36 2330 2831 3 MP stroke
-1 0 1 0 2437 2906 3 MP stroke
2531 2906 PD
2628 2906 PD
2725 2906 PD
2822 2906 PD
2919 2906 PD
3017 2906 PD
3114 2906 PD
3211 2906 PD
14 56 1 -6 1365 2501 3 MP stroke
14 56 14 -56 1449 2550 3 MP stroke
14 56 14 -56 1546 2549 3 MP stroke
15 56 14 -57 1643 2549 3 MP stroke
15 57 14 -58 1740 2548 3 MP stroke
15 57 14 -57 1837 2546 3 MP stroke
15 58 15 -58 1934 2545 3 MP stroke
14 58 15 -58 2032 2544 3 MP stroke
14 58 15 -58 2129 2546 3 MP stroke
13 53 14 -53 2228 2555 3 MP stroke
10 35 8 -36 2326 2593 3 MP stroke
1 -4 -2 3 2432 2671 3 MP stroke
1 1 0 -1 2531 2661 3 MP stroke
1 2 0 -2 2628 2659 3 MP stroke
2725 2663 PD
1 1 0 -1 2822 2661 3 MP stroke
2919 2663 PD
3017 2664 PD
3114 2664 PD
3211 2664 PD
12 56 7 -27 1365 2280 3 MP stroke
12 56 16 -55 1454 2308 3 MP stroke
11 56 16 -55 1552 2307 3 MP stroke
12 56 16 -55 1649 2307 3 MP stroke
12 57 16 -55 1747 2306 3 MP stroke
11 57 17 -55 1844 2305 3 MP stroke
11 58 18 -57 1941 2305 3 MP stroke
11 58 18 -56 2039 2304 3 MP stroke
10 58 18 -56 2138 2305 3 MP stroke
9 54 18 -52 2236 2312 3 MP stroke
6 41 14 -39 2334 2339 3 MP stroke
5 4 -2 -6 2426 2411 3 MP stroke
12 3 -9 -8 2508 2413 3 MP stroke
13 -3 -13 -4 2602 2423 3 MP stroke
12 -6 -13 0 2701 2429 3 MP stroke
10 -4 -11 -1 2803 2426 3 MP stroke
8 -4 -8 0 2904 2426 3 MP stroke
6 -3 -6 0 3005 2424 3 MP stroke
4 -1 -4 -1 3105 2423 3 MP stroke
4 -1 -4 -1 3203 2422 3 MP stroke
10 56 13 -42 1365 2055 3 MP stroke
9 56 18 -54 1459 2067 3 MP stroke
9 56 18 -53 1557 2066 3 MP stroke
8 56 19 -53 1655 2066 3 MP stroke
8 57 20 -54 1753 2066 3 MP stroke
7 56 20 -53 1852 2065 3 MP stroke
6 57 22 -53 1950 2064 3 MP stroke
5 58 22 -54 2050 2064 3 MP stroke
4 58 24 -53 2149 2064 3 MP stroke
2 55 24 -49 2251 2069 3 MP stroke
-1 47 23 -41 2351 2085 3 MP stroke
-4 26 16 -21 2450 2129 3 MP stroke
-5 15 11 -11 2545 2151 3 MP stroke
-4 3 5 -1 2637 2174 3 MP stroke
-3 -3 1 4 2729 2185 3 MP stroke
-1 -4 -1 4 2824 2187 3 MP stroke
0 -3 -1 3 2920 2184 3 MP stroke
0 1 3017 2181 2 MP stroke
-1 0 1 0 3114 2179 3 MP stroke
0 -1 3210 2177 2 MP stroke
8 54 18 -52 1365 1827 3 MP stroke
8 55 19 -52 1463 1827 3 MP stroke
6 55 20 -51 1562 1826 3 MP stroke
6 55 21 -51 1660 1826 3 MP stroke
5 55 22 -51 1759 1826 3 MP stroke
4 56 23 -51 1858 1826 3 MP stroke
3 56 24 -50 1957 1825 3 MP stroke
1 56 25 -50 2057 1825 3 MP stroke
0 56 26 -50 2157 1825 3 MP stroke
-2 54 27 -46 2259 1830 3 MP stroke
-5 51 28 -43 2359 1837 3 MP stroke
-8 36 24 -28 2459 1867 3 MP stroke
-10 25 20 -17 2556 1890 3 MP stroke
-9 13 14 -6 2651 1913 3 MP stroke
-9 5 10 0 2744 1930 3 MP stroke
-7 1 6 2 2837 1935 3 MP stroke
-5 2 6 1 2930 1934 3 MP stroke
-4 3 5 0 3025 1931 3 MP stroke
-3 4 5 -2 3120 1930 3 MP stroke
-2 4 4 -3 3215 1928 3 MP stroke
7 52 19 -50 1366 1588 3 MP stroke
6 53 19 -49 1465 1587 3 MP stroke
5 53 20 -49 1564 1587 3 MP stroke
5 53 21 -49 1662 1587 3 MP stroke
4 54 22 -49 1761 1587 3 MP stroke
3 53 23 -48 1860 1587 3 MP stroke
2 54 24 -48 1959 1587 3 MP stroke
0 54 25 -48 2059 1588 3 MP stroke
-1 54 26 -48 2158 1586 3 MP stroke
-3 51 27 -43 2259 1593 3 MP stroke
-4 52 28 -44 2358 1593 3 MP stroke
-7 42 26 -34 2457 1612 3 MP stroke
-8 32 22 -24 2555 1634 3 MP stroke
-10 20 18 -13 2652 1657 3 MP stroke
-10 12 14 -6 2747 1672 3 MP stroke
-7 9 10 -5 2840 1678 3 MP stroke
-5 9 9 -5 2932 1677 3 MP stroke
-4 9 8 -6 3026 1676 3 MP stroke
-3 10 7 -7 3122 1675 3 MP stroke
-3 10 7 -7 3218 1674 3 MP stroke
7 51 18 -49 1366 1349 3 MP stroke
6 51 19 -48 1464 1349 3 MP stroke
6 51 19 -48 1563 1349 3 MP stroke
4 51 20 -48 1662 1349 3 MP stroke
4 52 21 -48 1760 1349 3 MP stroke
2 51 22 -47 1859 1349 3 MP stroke
2 52 22 -47 1958 1349 3 MP stroke
1 52 23 -46 2057 1350 3 MP stroke
0 53 25 -47 2155 1346 3 MP stroke
-2 48 24 -41 2256 1357 3 MP stroke
-2 51 26 -44 2354 1351 3 MP stroke
-4 46 25 -39 2452 1362 3 MP stroke
-6 36 22 -29 2550 1381 3 MP stroke
-7 24 18 -18 2648 1404 3 MP stroke
-8 18 15 -12 2745 1418 3 MP stroke
-6 15 13 -10 2839 1422 3 MP stroke
-4 15 11 -11 2932 1422 3 MP stroke
-2 15 9 -12 3025 1421 3 MP stroke
-1 16 9 -13 3119 1420 3 MP stroke
0 15 8 -13 3215 1420 3 MP stroke
8 50 16 -47 1365 1109 3 MP stroke
7 49 17 -47 1463 1110 3 MP stroke
6 50 18 -47 1561 1110 3 MP stroke
6 49 18 -46 1660 1110 3 MP stroke
5 49 19 -46 1758 1110 3 MP stroke
4 49 20 -45 1856 1110 3 MP stroke
3 50 20 -46 1955 1110 3 MP stroke
3 48 20 -44 2054 1112 3 MP stroke
3 52 22 -47 2151 1106 3 MP stroke
-1 44 22 -39 2252 1121 3 MP stroke
0 50 23 -44 2350 1110 3 MP stroke
0 48 23 -42 2447 1114 3 MP stroke
-3 38 21 -33 2545 1134 3 MP stroke
-4 28 17 -23 2643 1155 3 MP stroke
-4 22 14 -17 2740 1166 3 MP stroke
-4 20 13 -15 2836 1169 3 MP stroke
-3 20 12 -16 2931 1170 3 MP stroke
-2 20 11 -17 3025 1169 3 MP stroke
0 21 10 -18 3118 1168 3 MP stroke
2 20 8 -18 3212 1168 3 MP stroke
8 48 13 -41 1365 865 3 MP stroke
8 48 16 -46 1461 870 3 MP stroke
7 48 17 -45 1559 870 3 MP stroke
7 48 16 -45 1658 870 3 MP stroke
6 48 17 -45 1756 871 3 MP stroke
5 47 18 -44 1854 871 3 MP stroke
4 48 19 -45 1952 871 3 MP stroke
3 46 19 -42 2051 873 3 MP stroke
3 50 21 -46 2148 865 3 MP stroke
1 41 19 -36 2249 884 3 MP stroke
2 49 21 -44 2346 869 3 MP stroke
2 49 21 -44 2443 870 3 MP stroke
0 39 19 -34 2542 890 3 MP stroke
-2 30 16 -25 2641 908 3 MP stroke
-2 25 14 -21 2737 916 3 MP stroke
-1 25 13 -21 2832 918 3 MP stroke
-1 25 12 -21 2928 918 3 MP stroke
-1 25 12 -21 3024 918 3 MP stroke
0 23 12 -21 3119 919 3 MP stroke
1 24 10 -22 3213 919 3 MP stroke
9 47 11 -37 1365 621 3 MP stroke
8 46 15 -45 1460 630 3 MP stroke
8 46 15 -44 1558 630 3 MP stroke
6 47 16 -44 1656 630 3 MP stroke
6 46 16 -44 1754 631 3 MP stroke
5 46 17 -43 1852 631 3 MP stroke
5 46 18 -43 1950 631 3 MP stroke
4 45 18 -41 2049 634 3 MP stroke
5 49 19 -46 2146 626 3 MP stroke
1 38 18 -34 2247 647 3 MP stroke
3 49 20 -44 2343 627 3 MP stroke
2 48 20 -44 2441 629 3 MP stroke
0 38 18 -33 2541 648 3 MP stroke
-2 31 16 -26 2640 663 3 MP stroke
-2 28 15 -23 2736 668 3 MP stroke
-1 28 14 -24 2831 669 3 MP stroke
0 27 12 -24 2926 669 3 MP stroke
2 27 11 -24 3021 669 3 MP stroke
2 27 11 -24 3118 670 3 MP stroke
1 26 11 -24 3216 672 3 MP stroke
-2 -100 1367 5298 2 MP stroke
-2 -99 1464 5298 2 MP stroke
-2 -99 1561 5298 2 MP stroke
-2 -98 1658 5298 2 MP stroke
-2 -96 1754 5298 2 MP stroke
-2 -95 1851 5298 2 MP stroke
-2 -94 1948 5298 2 MP stroke
-3 -92 2045 5298 2 MP stroke
-3 -90 2142 5298 2 MP stroke
-3 -88 2239 5298 2 MP stroke
-3 -85 2336 5298 2 MP stroke
-4 -82 2433 5298 2 MP stroke
-4 -75 2530 5298 2 MP stroke
-3 -68 2627 5298 2 MP stroke
-3 -60 2724 5298 2 MP stroke
-3 -52 2821 5298 2 MP stroke
-2 -43 2918 5298 2 MP stroke
-1 -34 3015 5298 2 MP stroke
-1 -24 3112 5298 2 MP stroke
-1 -13 3209 5298 2 MP stroke
-2 -113 1367 5089 2 MP stroke
-3 -133 1464 5089 2 MP stroke
-4 -132 1561 5089 2 MP stroke
-5 -131 1658 5089 2 MP stroke
-5 -129 1755 5089 2 MP stroke
-6 -128 1852 5089 2 MP stroke
-7 -126 1949 5089 2 MP stroke
-7 -124 2046 5089 2 MP stroke
-8 -122 2143 5089 2 MP stroke
-9 -120 2240 5089 2 MP stroke
-10 -117 2337 5089 2 MP stroke
-11 -113 2434 5089 2 MP stroke
-11 -106 2531 5089 2 MP stroke
-12 -99 2628 5089 2 MP stroke
-12 -91 2725 5089 2 MP stroke
-13 -83 2822 5089 2 MP stroke
-13 -75 2919 5089 2 MP stroke
-14 -66 3017 5089 2 MP stroke
-14 -57 3114 5089 2 MP stroke
-13 -47 3211 5089 2 MP stroke
-2 -69 1367 4847 2 MP stroke
-6 -133 1464 4847 2 MP stroke
-7 -132 1561 4847 2 MP stroke
-8 -131 1658 4847 2 MP stroke
-9 -130 1755 4847 2 MP stroke
-10 -128 1852 4847 2 MP stroke
-11 -126 1949 4847 2 MP stroke
-12 -124 2046 4847 2 MP stroke
-14 -122 2143 4847 2 MP stroke
-15 -120 2240 4847 2 MP stroke
-16 -117 2337 4847 2 MP stroke
-17 -114 2434 4847 2 MP stroke
-18 -107 2531 4847 2 MP stroke
-19 -100 2628 4847 2 MP stroke
-19 -93 2725 4847 2 MP stroke
-19 -85 2822 4847 2 MP stroke
-18 -78 2919 4847 2 MP stroke
-19 -70 3017 4847 2 MP stroke
-18 -62 3114 4847 2 MP stroke
-17 -54 3211 4847 2 MP stroke
-2 -56 1367 4604 2 MP stroke
-7 -134 1464 4604 2 MP stroke
-8 -132 1561 4604 2 MP stroke
-9 -131 1658 4604 2 MP stroke
-11 -130 1755 4604 2 MP stroke
-12 -129 1852 4604 2 MP stroke
-14 -127 1949 4604 2 MP stroke
-15 -125 2046 4604 2 MP stroke
-17 -123 2143 4604 2 MP stroke
-19 -121 2240 4604 2 MP stroke
-20 -118 2337 4604 2 MP stroke
-21 -115 2434 4604 2 MP stroke
-22 -108 2531 4604 2 MP stroke
-23 -101 2628 4604 2 MP stroke
-23 -94 2725 4604 2 MP stroke
-23 -87 2822 4604 2 MP stroke
-23 -79 2919 4604 2 MP stroke
-24 -71 3017 4604 2 MP stroke
-22 -64 3114 4604 2 MP stroke
-20 -56 3211 4604 2 MP stroke
-2 -30 1367 4361 2 MP stroke
-14 -135 1464 4361 2 MP stroke
-16 -134 1561 4361 2 MP stroke
-18 -133 1658 4361 2 MP stroke
-21 -132 1755 4361 2 MP stroke
-23 -131 1852 4361 2 MP stroke
-25 -129 1949 4361 2 MP stroke
-27 -127 2046 4361 2 MP stroke
-29 -125 2143 4361 2 MP stroke
-30 -123 2240 4361 2 MP stroke
-31 -120 2337 4361 2 MP stroke
-32 -116 2434 4361 2 MP stroke
-32 -108 2531 4361 2 MP stroke
-31 -101 2628 4361 2 MP stroke
-30 -93 2725 4361 2 MP stroke
-29 -85 2822 4361 2 MP stroke
-28 -77 2919 4361 2 MP stroke
-27 -69 3017 4361 2 MP stroke
-25 -62 3114 4361 2 MP stroke
-23 -54 3211 4361 2 MP stroke
-2 -64 1367 4119 2 MP stroke
-6 -138 1464 4119 2 MP stroke
-7 -137 1561 4119 2 MP stroke
-8 -136 1658 4119 2 MP stroke
-8 -135 1755 4119 2 MP stroke
-9 -134 1852 4119 2 MP stroke
-10 -133 1949 4119 2 MP stroke
-12 -132 2046 4119 2 MP stroke
-15 -130 2143 4119 2 MP stroke
-18 -128 2240 4119 2 MP stroke
-22 -125 2337 4119 2 MP stroke
-25 -119 2434 4119 2 MP stroke
-28 -110 2531 4119 2 MP stroke
-30 -101 2628 4119 2 MP stroke
-32 -92 2725 4119 2 MP stroke
-32 -83 2822 4119 2 MP stroke
-31 -74 2919 4119 2 MP stroke
-30 -65 3017 4119 2 MP stroke
-27 -57 3114 4119 2 MP stroke
-23 -49 3211 4119 2 MP stroke
-2 -14 1367 3876 2 MP stroke
-30 -142 1464 3876 2 MP stroke
-36 -142 1561 3876 2 MP stroke
-41 -141 1658 3876 2 MP stroke
-47 -141 1755 3876 2 MP stroke
-53 -140 1852 3876 2 MP stroke
-59 -139 1949 3876 2 MP stroke
-64 -137 2046 3876 2 MP stroke
-69 -134 2143 3876 2 MP stroke
-72 -130 2240 3876 2 MP stroke
-73 -123 2337 3876 2 MP stroke
-71 -112 2434 3876 2 MP stroke
-66 -101 2531 3876 2 MP stroke
-60 -91 2628 3876 2 MP stroke
-54 -81 2725 3876 2 MP stroke
-49 -72 2822 3876 2 MP stroke
-43 -63 2919 3876 2 MP stroke
-38 -55 3017 3876 2 MP stroke
-32 -46 3114 3876 2 MP stroke
-25 -39 3211 3876 2 MP stroke
-2 -113 1367 3634 2 MP stroke
-3 -147 1464 3634 2 MP stroke
-3 -147 1561 3634 2 MP stroke
-2 -146 1658 3634 2 MP stroke
-1 -145 1755 3634 2 MP stroke
0 -144 1852 3634 2 MP stroke
1 -143 1949 3634 2 MP stroke
2 -141 2046 3634 2 MP stroke
1 -140 2143 3634 2 MP stroke
-4 -138 2240 3634 2 MP stroke
-13 -133 2337 3634 2 MP stroke
-23 -112 2434 3634 2 MP stroke
-30 -97 2531 3634 2 MP stroke
-34 -82 2628 3634 2 MP stroke
-37 -69 2725 3634 2 MP stroke
-37 -58 2822 3634 2 MP stroke
-36 -48 2919 3634 2 MP stroke
-34 -39 3017 3634 2 MP stroke
-30 -32 3114 3634 2 MP stroke
-24 -26 3211 3634 2 MP stroke
-2 -17 1367 3391 2 MP stroke
-29 -152 1464 3391 2 MP stroke
-37 -153 1561 3391 2 MP stroke
-46 -154 1658 3391 2 MP stroke
-57 -155 1755 3391 2 MP stroke
-71 -157 1852 3391 2 MP stroke
-88 -160 1949 3391 2 MP stroke
-106 -163 2046 3391 2 MP stroke
-126 -167 2143 3391 2 MP stroke
-147 -167 2240 3391 2 MP stroke
-176 -146 2337 3391 2 MP stroke
-179 -58 2434 3391 2 MP stroke
-148 -51 2531 3391 2 MP stroke
-117 -42 2628 3391 2 MP stroke
-91 -30 2725 3391 2 MP stroke
-70 -26 2822 3391 2 MP stroke
-53 -20 2919 3391 2 MP stroke
-42 -16 3017 3391 2 MP stroke
-33 -12 3114 3391 2 MP stroke
-24 -9 3211 3391 2 MP stroke
-2 -17 1367 3149 2 MP stroke
-30 -163 1464 3149 2 MP stroke
-34 -165 1561 3149 2 MP stroke
-39 -168 1658 3149 2 MP stroke
-43 -171 1755 3149 2 MP stroke
-47 -175 1852 3149 2 MP stroke
-50 -180 1949 3149 2 MP stroke
-51 -186 2046 3149 2 MP stroke
-48 -190 2143 3149 2 MP stroke
-38 -182 2240 3149 2 MP stroke
-20 -134 2337 3149 2 MP stroke
-4 2 2434 3149 2 MP stroke
2531 3149 PD
2628 3149 PD
0 3 2725 3149 2 MP stroke
2822 3149 PD
2919 3149 PD
3017 3149 PD
3114 3149 PD
3211 3149 PD
-2 -41 1367 2906 2 MP stroke
-12 -168 1464 2906 2 MP stroke
-13 -170 1561 2906 2 MP stroke
-14 -172 1658 2906 2 MP stroke
-15 -174 1755 2906 2 MP stroke
-16 -177 1852 2906 2 MP stroke
-15 -181 1949 2906 2 MP stroke
-12 -183 2046 2906 2 MP stroke
-8 -183 2143 2906 2 MP stroke
-3 -169 2240 2906 2 MP stroke
3 -111 2337 2906 2 MP stroke
4 0 2434 2906 2 MP stroke
2531 2906 PD
2628 2906 PD
2725 2906 PD
2822 2906 PD
2919 2906 PD
3017 2906 PD
3114 2906 PD
3211 2906 PD
-1 -169 1367 2664 2 MP stroke
-1 -170 1464 2664 2 MP stroke
-1 -171 1561 2664 2 MP stroke
-1 -172 1658 2664 2 MP stroke
-1 -174 1755 2664 2 MP stroke
-1 -175 1852 2664 2 MP stroke
0 -177 1949 2664 2 MP stroke
1 -178 2046 2664 2 MP stroke
1 -176 2143 2664 2 MP stroke
2 -162 2240 2664 2 MP stroke
-3 -107 2337 2664 2 MP stroke
-4 10 2434 2664 2 MP stroke
0 -4 2531 2664 2 MP stroke
0 -7 2628 2664 2 MP stroke
0 -1 2725 2664 2 MP stroke
0 -4 2822 2664 2 MP stroke
0 -1 2919 2664 2 MP stroke
3017 2664 PD
3114 2664 PD
3211 2664 PD
5 -168 1367 2421 2 MP stroke
6 -168 1464 2421 2 MP stroke
7 -169 1561 2421 2 MP stroke
7 -169 1658 2421 2 MP stroke
8 -170 1755 2421 2 MP stroke
9 -171 1852 2421 2 MP stroke
10 -173 1949 2421 2 MP stroke
11 -173 2046 2421 2 MP stroke
13 -172 2143 2421 2 MP stroke
14 -161 2240 2421 2 MP stroke
11 -121 2337 2421 2 MP stroke
-10 -16 2434 2421 2 MP stroke
-32 -16 2531 2421 2 MP stroke
-39 -2 2628 2421 2 MP stroke
-37 8 2725 2421 2 MP stroke
-30 4 2822 2421 2 MP stroke
-23 5 2919 2421 2 MP stroke
-18 3 3017 2421 2 MP stroke
-13 1 3114 2421 2 MP stroke
-12 0 3211 2421 2 MP stroke
11 -166 1367 2179 2 MP stroke
13 -166 1464 2179 2 MP stroke
14 -166 1561 2179 2 MP stroke
16 -166 1658 2179 2 MP stroke
18 -167 1755 2179 2 MP stroke
20 -167 1852 2179 2 MP stroke
23 -168 1949 2179 2 MP stroke
26 -169 2046 2179 2 MP stroke
30 -168 2143 2179 2 MP stroke
35 -159 2240 2179 2 MP stroke
37 -135 2337 2179 2 MP stroke
32 -71 2434 2179 2 MP stroke
25 -39 2531 2179 2 MP stroke
14 -6 2628 2179 2 MP stroke
5 10 2725 2179 2 MP stroke
1 12 2822 2179 2 MP stroke
0 8 2919 2179 2 MP stroke
0 3 3017 2179 2 MP stroke
1 0 3114 2179 2 MP stroke
-1 -3 3211 2179 2 MP stroke
16 -161 1367 1936 2 MP stroke
18 -161 1464 1936 2 MP stroke
21 -161 1561 1936 2 MP stroke
23 -161 1658 1936 2 MP stroke
26 -161 1755 1936 2 MP stroke
29 -161 1852 1936 2 MP stroke
32 -161 1949 1936 2 MP stroke
36 -161 2046 1936 2 MP stroke
40 -161 2143 1936 2 MP stroke
46 -152 2240 1936 2 MP stroke
50 -142 2337 1936 2 MP stroke
49 -97 2434 1936 2 MP stroke
45 -63 2531 1936 2 MP stroke
37 -29 2628 1936 2 MP stroke
29 -6 2725 1936 2 MP stroke
21 1 2822 1936 2 MP stroke
17 -1 2919 1936 2 MP stroke
13 -5 3017 1936 2 MP stroke
11 -8 3114 1936 2 MP stroke
8 -11 3211 1936 2 MP stroke
18 -155 1367 1693 2 MP stroke
20 -155 1464 1693 2 MP stroke
23 -155 1561 1693 2 MP stroke
25 -155 1658 1693 2 MP stroke
28 -155 1755 1693 2 MP stroke
31 -154 1852 1693 2 MP stroke
34 -154 1949 1693 2 MP stroke
38 -153 2046 1693 2 MP stroke
41 -155 2143 1693 2 MP stroke
46 -143 2240 1693 2 MP stroke
49 -144 2337 1693 2 MP stroke
49 -115 2434 1693 2 MP stroke
46 -83 2531 1693 2 MP stroke
42 -49 2628 1693 2 MP stroke
36 -27 2725 1693 2 MP stroke
28 -20 2822 1693 2 MP stroke
22 -21 2919 1693 2 MP stroke
17 -23 3017 1693 2 MP stroke
15 -25 3114 1693 2 MP stroke
14 -26 3211 1693 2 MP stroke
17 -151 1367 1451 2 MP stroke
19 -150 1464 1451 2 MP stroke
21 -150 1561 1451 2 MP stroke
24 -150 1658 1451 2 MP stroke
26 -150 1755 1451 2 MP stroke
29 -149 1852 1451 2 MP stroke
31 -149 1949 1451 2 MP stroke
34 -147 2046 1451 2 MP stroke
37 -152 2143 1451 2 MP stroke
40 -135 2240 1451 2 MP stroke
43 -144 2337 1451 2 MP stroke
43 -128 2434 1451 2 MP stroke
41 -99 2531 1451 2 MP stroke
38 -65 2628 1451 2 MP stroke
35 -45 2725 1451 2 MP stroke
30 -39 2822 1451 2 MP stroke
24 -40 2919 1451 2 MP stroke
17 -42 3017 1451 2 MP stroke
14 -44 3114 1451 2 MP stroke
12 -44 3211 1451 2 MP stroke
14 -146 1367 1208 2 MP stroke
16 -145 1464 1208 2 MP stroke
18 -145 1561 1208 2 MP stroke
20 -144 1658 1208 2 MP stroke
22 -144 1755 1208 2 MP stroke
24 -143 1852 1208 2 MP stroke
26 -144 1949 1208 2 MP stroke
28 -140 2046 1208 2 MP stroke
30 -149 2143 1208 2 MP stroke
34 -126 2240 1208 2 MP stroke
36 -142 2337 1208 2 MP stroke
36 -136 2434 1208 2 MP stroke
35 -107 2531 1208 2 MP stroke
32 -76 2628 1208 2 MP stroke
29 -59 2725 1208 2 MP stroke
27 -54 2822 1208 2 MP stroke
24 -54 2919 1208 2 MP stroke
19 -56 3017 1208 2 MP stroke
14 -58 3114 1208 2 MP stroke
9 -58 3211 1208 2 MP stroke
11 -142 1367 966 2 MP stroke
13 -142 1464 966 2 MP stroke
15 -141 1561 966 2 MP stroke
16 -141 1658 966 2 MP stroke
18 -140 1755 966 2 MP stroke
20 -139 1852 966 2 MP stroke
22 -140 1949 966 2 MP stroke
24 -135 2046 966 2 MP stroke
26 -147 2143 966 2 MP stroke
28 -118 2240 966 2 MP stroke
30 -141 2337 966 2 MP stroke
30 -140 2434 966 2 MP stroke
30 -110 2531 966 2 MP stroke
29 -83 2628 966 2 MP stroke
26 -71 2725 966 2 MP stroke
23 -69 2822 966 2 MP stroke
21 -69 2919 966 2 MP stroke
19 -69 3017 966 2 MP stroke
17 -68 3114 966 2 MP stroke
12 -69 3211 966 2 MP stroke
9 -139 1367 723 2 MP stroke
11 -138 1464 723 2 MP stroke
12 -137 1561 723 2 MP stroke
14 -137 1658 723 2 MP stroke
15 -136 1755 723 2 MP stroke
17 -135 1852 723 2 MP stroke
19 -135 1949 723 2 MP stroke
21 -130 2046 723 2 MP stroke
22 -143 2143 723 2 MP stroke
25 -110 2240 723 2 MP stroke
26 -140 2337 723 2 MP stroke
27 -138 2434 723 2 MP stroke
28 -108 2531 723 2 MP stroke
28 -86 2628 723 2 MP stroke
26 -78 2725 723 2 MP stroke
23 -78 2822 723 2 MP stroke
19 -78 2919 723 2 MP stroke
15 -78 3017 723 2 MP stroke
15 -77 3114 723 2 MP stroke
16 -75 3211 723 2 MP stroke
2 -35 1367 481 2 MP stroke
2 -35 1464 481 2 MP stroke
3 -35 1561 481 2 MP stroke
3 -35 1658 481 2 MP stroke
4 -35 1755 481 2 MP stroke
4 -35 1852 481 2 MP stroke
4 -35 1949 481 2 MP stroke
5 -35 2046 481 2 MP stroke
5 -35 2143 481 2 MP stroke
7 -35 2240 481 2 MP stroke
6 -35 2337 481 2 MP stroke
7 -35 2434 481 2 MP stroke
9 -35 2531 481 2 MP stroke
11 -35 2628 481 2 MP stroke
11 -35 2725 481 2 MP stroke
11 -35 2822 481 2 MP stroke
10 -35 2919 481 2 MP stroke
7 -35 3017 481 2 MP stroke
5 -35 3114 481 2 MP stroke
5 -35 3211 481 2 MP stroke
gr

c16
4 w
DO
0 sg
1464 5297 mt 1464  446 L
1464  446 mt 1464  446 L
1949 5297 mt 1949  446 L
1949  446 mt 1949  446 L
2434 5297 mt 2434  446 L
2434  446 mt 2434  446 L
2919 5297 mt 2919  446 L
2919  446 mt 2919  446 L
1365 5089 mt 3232 5089 L
3232 5089 mt 3232 5089 L
1365 4604 mt 3232 4604 L
3232 4604 mt 3232 4604 L
1365 4119 mt 3232 4119 L
3232 4119 mt 3232 4119 L
1365 3634 mt 3232 3634 L
3232 3634 mt 3232 3634 L
1365 3149 mt 3232 3149 L
3232 3149 mt 3232 3149 L
1365 2664 mt 3232 2664 L
3232 2664 mt 3232 2664 L
1365 2179 mt 3232 2179 L
3232 2179 mt 3232 2179 L
1365 1693 mt 3232 1693 L
3232 1693 mt 3232 1693 L
1365 1208 mt 3232 1208 L
3232 1208 mt 3232 1208 L
1365  723 mt 3232  723 L
3232  723 mt 3232  723 L
SO
6 w
1365  446 mt 3232  446 L
1365 5297 mt 3232 5297 L
3232 5297 mt 3232  446 L
1365 5297 mt 1365  446 L
1365 5297 mt 3232 5297 L
1365 5297 mt 1365  446 L
1464 5297 mt 1464 5248 L
1464  446 mt 1464  494 L
1364 5442 mt 
(100) s
1949 5297 mt 1949 5248 L
1949  446 mt 1949  494 L
1849 5442 mt 
(150) s
2434 5297 mt 2434 5248 L
2434  446 mt 2434  494 L
2334 5442 mt 
(200) s
2919 5297 mt 2919 5248 L
2919  446 mt 2919  494 L
2819 5442 mt 
(250) s
1365 5089 mt 1413 5089 L
3232 5089 mt 3184 5089 L
1130 5133 mt 
(250) s
1365 4604 mt 1413 4604 L
3232 4604 mt 3184 4604 L
1130 4648 mt 
(300) s
1365 4119 mt 1413 4119 L
3232 4119 mt 3184 4119 L
1130 4163 mt 
(350) s
1365 3634 mt 1413 3634 L
3232 3634 mt 3184 3634 L
1130 3678 mt 
(400) s
1365 3149 mt 1413 3149 L
3232 3149 mt 3184 3149 L
1130 3193 mt 
(450) s
1365 2664 mt 1413 2664 L
3232 2664 mt 3184 2664 L
1130 2708 mt 
(500) s
1365 2179 mt 1413 2179 L
3232 2179 mt 3184 2179 L
1130 2223 mt 
(550) s
1365 1693 mt 1413 1693 L
3232 1693 mt 3184 1693 L
1130 1737 mt 
(600) s
1365 1208 mt 1413 1208 L
3232 1208 mt 3184 1208 L
1130 1252 mt 
(650) s
1365  723 mt 1413  723 L
3232  723 mt 3184  723 L
1130  767 mt 
(700) s
1365  446 mt 3232  446 L
1365 5297 mt 3232 5297 L
3232 5297 mt 3232  446 L
1365 5297 mt 1365  446 L
1 sg
0 4852 240 0 0 -4852 3437 5298 4 MP
PP
-240 0 0 4852 240 0 0 -4852 3437 5298 5 MP stroke
gs 3437 446 241 4853 rc
/mwscm { [/Indexed /DeviceRGB 63
  <
    00008f 00009f 0000af 0000bf 0000cf 0000df 0000ef 0000ff 000fff 001fff 
    002fff 003fff 004fff 005fff 006fff 007fff 008fff 009fff 00afff 00bfff 
    00cfff 00dfff 00efff 00ffff 0fffef 1fffdf 2fffcf 3fffbf 4fffaf 5fff9f 
    6fff8f 7fff7f 8fff6f 9fff5f afff4f bfff3f cfff2f dfff1f efff0f ffff00 
    ffef00 ffdf00 ffcf00 ffbf00 ffaf00 ff9f00 ff8f00 ff7f00 ff6f00 ff5f00 
    ff4f00 ff3f00 ff2f00 ff1f00 ff0f00 ff0000 ef0000 df0000 cf0000 bf0000 
    af0000 9f0000 8f0000 7f0000 
  >
] setcolorspace } bdef mwscm
gs np 3437 446 mt 0 4852 rl 240 0 rl 0 -4852 rl cp c np
[240 0 0 4852 3437 446] cc
<< % Image dictionary
  /ImageType 1
  /Width 1 /Height 64
  /BitsPerComponent 8
  /Decode [0 255]
  /ImageMatrix [1.000000 0 0 64.000000 0 0]
  /DataSource currentfile
  /ASCII85Decode filter
  /RunLengthDecode filter
>>
image
5<h=p4?GSa3&``Q1c$mA0J>%1/1W2!-mp>f,U4KV+<MXF*#fe6(`*r&'GD)k&.]6[$k!CK#R:P;"9S]+
!.Y
~>
gr
gr

4 w
DO
SO
6 w
0 sg
3437  446 mt 3677  446 L
3437 5298 mt 3677 5298 L
3677 5298 mt 3677  446 L
3437 5298 mt 3437  446 L
3437 5298 mt 3677 5298 L
3677 5298 mt 3677  446 L
3677 5298 mt 3628 5298 L
3437 5298 mt 3485 5298 L
3711 5342 mt 
(-5) s
3677 4812 mt 3628 4812 L
3437 4812 mt 3485 4812 L
3711 4856 mt 
(-4.5) s
3677 4327 mt 3628 4327 L
3437 4327 mt 3485 4327 L
3711 4371 mt 
(-4) s
3677 3842 mt 3628 3842 L
3437 3842 mt 3485 3842 L
3711 3886 mt 
(-3.5) s
3677 3357 mt 3628 3357 L
3437 3357 mt 3485 3357 L
3711 3401 mt 
(-3) s
3677 2872 mt 3628 2872 L
3437 2872 mt 3485 2872 L
3711 2916 mt 
(-2.5) s
3677 2386 mt 3628 2386 L
3437 2386 mt 3485 2386 L
3711 2430 mt 
(-2) s
3677 1901 mt 3628 1901 L
3437 1901 mt 3485 1901 L
3711 1945 mt 
(-1.5) s
3677 1416 mt 3628 1416 L
3437 1416 mt 3485 1416 L
3711 1460 mt 
(-1) s
3677  931 mt 3628  931 L
3437  931 mt 3485  931 L
3711  975 mt 
(-0.5) s
3677  446 mt 3628  446 L
3437  446 mt 3485  446 L
3711  490 mt 
(0) s
3437  446 mt 3677  446 L
3437 5298 mt 3677 5298 L
3677 5298 mt 3677  446 L
3437 5298 mt 3437  446 L

end %%Color Dict

eplot
%%EndObject

epage
end

showpage

%%Trailer
%%EOF
